<?xml version="1.0" standalone="no"?>
<!DOCTYPE svg PUBLIC "-//W3C//DTD SVG 1.1//EN" "http://www.w3.org/Graphics/SVG/1.1/DTD/svg11.dtd" >
<svg xmlns="http://www.w3.org/2000/svg" xmlns:xlink="http://www.w3.org/1999/xlink" version="1.1">
<metadata></metadata>
<defs>
<font id="robotothin_italic" horiz-adv-x="1053" >
<font-face units-per-em="2048" ascent="1536" descent="-512" />
<missing-glyph horiz-adv-x="466" />
<glyph unicode="&#xfb01;" horiz-adv-x="1002" d="M156 0l205 1027h-175l11 55h175l32 158q34 172 128.5 256.5t240.5 84.5q61 0 121.5 -13.5t116.5 -43.5l-19 -52q-55 29 -103 42t-126 13q-115 0 -198.5 -75.5t-110.5 -211.5l-32 -158h266l-11 -55h-266l-205 -1027h-50zM692 0l216 1082h50l-216 -1082h-50z" />
<glyph horiz-adv-x="0" />
<glyph horiz-adv-x="682" />
<glyph horiz-adv-x="466" />
<glyph horiz-adv-x="466" />
<glyph unicode="&#x9;" horiz-adv-x="10" />
<glyph unicode="&#xd;" horiz-adv-x="466" />
<glyph unicode=" "  horiz-adv-x="466" />
<glyph unicode="&#x09;" horiz-adv-x="466" />
<glyph unicode="&#xa0;" horiz-adv-x="466" />
<glyph unicode="!" horiz-adv-x="379" d="M57 0l27 134h88l-27 -134h-88zM171 478l195 978h51l-195 -978h-51z" />
<glyph unicode="&#x22;" horiz-adv-x="495" d="M255 1122l46 268l28 170h51l-27 -167l-52 -271h-46zM423 1122l47 268l28 170h51l-27 -167l-53 -271h-46z" />
<glyph unicode="#" horiz-adv-x="1186" d="M62 410l10 52h262l193 524h-279l11 54h288l153 416h52l-153 -416h339l154 416h52l-154 -416h236l-11 -54h-245l-194 -524h265l-10 -52h-274l-152 -410h-52l152 410h-338l-151 -410h-52l151 410h-253zM386 462h338l194 524h-339z" />
<glyph unicode="$" d="M113 409h50q-34 -211 62 -294t260 -83q148 0 256.5 92t129.5 220q21 137 -37 207.5t-251 150.5q-192 73 -267 155t-47 253q27 169 137 264t280 102l30 187h51l-30 -187q164 -10 242 -120.5t47 -308.5h-50q28 176 -42 276.5t-233 100.5q-158 0 -260 -91.5t-122 -220.5 q-23 -137 31.5 -209.5t256.5 -148.5q188 -74 264.5 -156.5t49.5 -251.5q-28 -170 -136.5 -263t-275.5 -103l-30 -188h-52l29 188q-172 7 -275.5 108t-67.5 321z" />
<glyph unicode="%" horiz-adv-x="1430" d="M246 1099l15 77q27 133 112 217t201 84q108 0 162.5 -87t29.5 -214l-15 -77q-27 -133 -112 -216t-198 -83q-111 0 -166 86t-29 213zM297 1099q-22 -105 16 -174.5t139 -69.5q92 0 159.5 71.5t88.5 172.5l15 77q21 105 -16.5 175.5t-135.5 70.5q-93 0 -162 -73t-89 -173z M339 162l890 1138l36 -31l-890 -1138zM785 279l15 78q27 133 112 216.5t200 83.5q109 0 163.5 -87t29.5 -213l-15 -78q-28 -134 -112.5 -217t-198.5 -83q-110 0 -165 86.5t-29 213.5zM836 279q-22 -106 15.5 -175.5t138.5 -69.5q93 0 160.5 72t88.5 173l15 78 q23 112 -14.5 178.5t-138.5 66.5q-94 0 -161.5 -69.5t-88.5 -175.5z" />
<glyph unicode="&#x26;" horiz-adv-x="1170" d="M98 352q19 121 94 212t210 198l54 41q-61 104 -83 187.5t-7 176.5q25 158 110.5 234t221.5 76q121 0 177.5 -71.5t37.5 -190.5q-14 -89 -57 -143.5t-121 -113.5l-213 -161l353 -537q65 78 108 170t61 202h51q-22 -133 -68.5 -231t-122.5 -186l143 -215h-62l-118 177 q-4 -3 -9 -8.5t-4 -4.5q-100 -91 -197 -138t-214 -47q-184 0 -278.5 100t-66.5 273zM148 352q-23 -142 52 -230.5t251 -88.5q99 0 200 48t188 138l-334 506q-10 13 -15.5 21.5t-10.5 17.5l-54 -41q-149 -121 -207 -206.5t-70 -164.5zM417 1169q-14 -83 5 -163.5t76 -171.5 l221 166q65 52 99 104t43 111q16 100 -26.5 154t-144.5 54q-109 0 -182.5 -72.5t-90.5 -181.5z" />
<glyph unicode="'" horiz-adv-x="326" d="M236 1122l56 267l28 171h51l-27 -169l-62 -269h-46z" />
<glyph unicode="(" horiz-adv-x="575" d="M164 566l3 20q57 358 212 641.5t339 395.5l10 -43q-161 -103 -310 -385t-201 -605l-4 -26q-54 -336 5 -611t189 -380l-24 -43q-148 112 -212.5 393.5t-6.5 642.5z" />
<glyph unicode=")" horiz-adv-x="589" d="M-107 -427q161 104 310 386t201 605l4 26q53 335 -5.5 610.5t-188.5 379.5l25 43q144 -111 209 -402t10 -635l-3 -20q-61 -374 -213.5 -647.5t-337.5 -388.5z" />
<glyph unicode="*" horiz-adv-x="806" d="M176 1141l28 54l309 -133l80 394h52l-85 -395l356 143l8 -53l-362 -137l168 -317l-50 -33l-161 322l-277 -325l-35 32l281 324z" />
<glyph unicode="+" horiz-adv-x="1080" d="M118 649l10 53h430l101 504h51l-101 -504h447l-10 -53h-448l-100 -503h-51l100 503h-429z" />
<glyph unicode="," horiz-adv-x="366" d="M-39 -223q56 63 86 117.5t46 130.5l27 134h51l-27 -132q-19 -93 -57.5 -159.5t-97.5 -122.5z" />
<glyph unicode="-" horiz-adv-x="575" d="M105 639l11 54h437l-11 -54h-437z" />
<glyph unicode="." horiz-adv-x="418" d="M81 0l24 120h80l-24 -120h-80z" />
<glyph unicode="/" horiz-adv-x="737" d="M-66 -125l882 1581h54l-881 -1581h-55z" />
<glyph unicode="0" d="M151 574l61 308q60 302 191 448.5t333 146.5q191 0 267 -154t19 -441l-61 -308q-61 -303 -191 -449t-331 -146q-192 0 -269 153.5t-19 441.5zM201 576q-54 -267 7 -405t242 -138q171 0 290.5 143.5t170.5 399.5l61 306q54 271 -5.5 406t-240.5 135q-173 0 -293 -142 t-171 -399z" />
<glyph unicode="1" d="M379 1332l10 48l437 84l-293 -1464h-50l281 1407z" />
<glyph unicode="2" d="M77 0l9 54l532 550q155 161 229.5 272.5t90.5 209.5q26 168 -39.5 252.5t-227.5 84.5q-163 0 -273 -104.5t-137 -272.5h-50q31 193 156 312t312 119q165 0 252.5 -101.5t57.5 -289.5q-21 -129 -108.5 -245t-257.5 -295l-471 -492h744l-9 -54h-810z" />
<glyph unicode="3" d="M96 405h50q-28 -171 63.5 -271.5t263.5 -100.5q164 0 273 91.5t136 257.5q29 181 -61.5 257t-280.5 76h-103l2 12l6 37l1 7h103q166 0 280.5 90.5t136.5 224.5q24 155 -43 246t-235 91q-149 0 -265 -94.5t-141 -253.5h-50q30 192 159.5 297t304.5 105q171 0 259.5 -105.5 t59.5 -289.5q-20 -123 -100 -211.5t-203 -124.5v-3q125 -35 184.5 -126t37.5 -231q-33 -201 -159 -304t-310 -103q-170 0 -286.5 109t-82.5 317z" />
<glyph unicode="4" d="M75 397l6 30l853 1029h60l-201 -1005h234l-11 -54h-234l-79 -397h-50l79 397h-657zM164 451h579l187 933l-3 2l-101 -133z" />
<glyph unicode="5" d="M165 383h51q-29 -183 44 -266.5t232 -83.5q178 0 280.5 106.5t137.5 322.5q31 194 -34.5 295t-222.5 101q-146 0 -241 -53t-149 -159l-35 16l199 794h642l-9 -53h-596l-154 -613l3 -1q66 61 138.5 92t210.5 35q166 5 249.5 -117t49.5 -335q-38 -236 -152 -360.5 t-325 -124.5q-162 0 -257 100.5t-62 303.5z" />
<glyph unicode="6" d="M175 512l72 448q38 241 179.5 379t323.5 138q71 0 136 -16.5t118 -53.5l-27 -51q-57 39 -105.5 53t-129.5 14q-153 0 -282.5 -126t-162.5 -336l-37 -229l3 -1q61 101 165 163.5t231 62.5q180 0 264.5 -135.5t48.5 -361.5q-36 -219 -167 -350t-311 -131 q-173 0 -265.5 144.5t-53.5 388.5zM225 513q-37 -229 39 -355t238 -126q152 0 271 125.5t148 302.5q33 213 -35 328t-242 115q-140 0 -264 -102t-147 -245h-1z" />
<glyph unicode="7" d="M231 1402l9 54h865l-9 -54q-245 -255 -433 -569t-298 -742l-21 -91h-50l21 91q104 401 283 719.5t437 591.5h-804z" />
<glyph unicode="8" d="M87 379q28 141 123.5 236t233.5 131v3q-103 38 -153 126.5t-25 210.5q38 195 165 293t306 98q167 0 259.5 -103t55.5 -288q-26 -130 -110 -218t-204 -123v-3q118 -39 178 -135t34 -228q-41 -203 -178.5 -301.5t-331.5 -98.5q-189 0 -290.5 102.5t-62.5 297.5zM136 374 q-34 -170 53 -255.5t262 -85.5q161 0 287.5 89.5t159.5 251.5q32 163 -56.5 253.5t-255.5 90.5q-162 0 -290.5 -94t-159.5 -250zM317 1091q-31 -154 47 -236.5t234 -82.5q144 0 260 86.5t145 232.5q30 152 -48.5 242t-227.5 90q-147 0 -263.5 -90t-146.5 -242z" />
<glyph unicode="9" d="M127 42l24 57q65 -35 124.5 -50.5t140.5 -15.5q169 0 288 112.5t151 312.5l37 229l-3 1q-67 -106 -169.5 -163t-223.5 -57q-171 0 -262 143t-58 347q37 228 172 373.5t317 145.5q179 0 274 -131.5t55 -382.5l-80 -503q-39 -237 -172.5 -359t-333.5 -122q-71 0 -142 16 t-139 47zM234 958q-30 -188 40.5 -312.5t229.5 -124.5q135 0 242 86t166 207l24 148q37 235 -39 348t-236 113q-153 0 -275 -139.5t-152 -325.5z" />
<glyph unicode=":" horiz-adv-x="349" d="M56 0l24 120h80l-24 -120h-80zM252 962l24 120h80l-24 -120h-80z" />
<glyph unicode=";" horiz-adv-x="349" d="M-49 -223q56 63 86 117.5t46 130.5l27 134h51l-27 -132q-19 -93 -57.5 -159.5t-97.5 -122.5zM253 962l24 120h80l-24 -120h-80z" />
<glyph unicode="&#x3c;" horiz-adv-x="989" d="M124 641l8 41l2 9l855 378l-12 -58l-676 -308l-120 -37v-3l104 -39l554 -303l-12 -59z" />
<glyph unicode="=" horiz-adv-x="1072" d="M144 436l11 54h775l-11 -54h-775zM226 843l10 54h775l-10 -54h-775z" />
<glyph unicode="&#x3e;" horiz-adv-x="989" d="M79 265l12 59l675 307l115 38v3l-99 38l-553 304l11 58l703 -378l-10 -50z" />
<glyph unicode="?" horiz-adv-x="840" d="M229 1116q38 178 147 269.5t256 91.5q150 0 219 -100.5t36 -266.5q-31 -150 -105 -245t-222 -215q-76 -55 -99 -101.5t-43 -148.5h-51q25 119 51.5 165.5t123.5 126.5q138 118 202 197t93 223q31 155 -23.5 233.5t-191.5 78.5q-129 0 -220.5 -84.5t-121.5 -223.5h-51z M284 0l21 106h76l-21 -106h-76z" />
<glyph unicode="@" horiz-adv-x="1779" d="M136 478q104 435 370.5 684t626.5 249q366 0 500.5 -233t34.5 -655q-55 -224 -181 -384t-309 -160q-76 0 -112.5 60t-23.5 166l-3 1q-73 -114 -160.5 -170.5t-191.5 -56.5q-124 0 -164 118.5t18 318.5q72 255 213 403.5t304 148.5q75 0 119 -27.5t91 -82.5l-158 -565 q-42 -155 -8.5 -207t90.5 -52q144 0 256 134t167 355q100 404 -16 617.5t-481 213.5q-307 0 -569.5 -237.5t-361.5 -638.5q-97 -390 32 -633t467 -243q80 0 169 22t154 58l14 -46q-67 -41 -165.5 -65t-185.5 -24q-347 0 -493.5 248t-42.5 683zM563.5 139.5 q24.5 -106.5 132.5 -106.5q98 0 192 65.5t186 247.5l135 485q-25 40 -64.5 61t-100.5 21q-130 0 -254.5 -125t-198.5 -372q-52 -170 -27.5 -276.5z" />
<glyph unicode="A" horiz-adv-x="1147" d="M-48 0l797 1456h61l216 -1456h-55l-64 435h-663l-238 -435h-54zM273 489h626l-120 820l-10 86h-3l-44 -86z" />
<glyph unicode="B" horiz-adv-x="1159" d="M106 0l291 1456h356q207 0 307 -92q73 -67 72 -186q0 -44 -10 -95q-28 -137 -104 -222t-191 -106v-3q119 -17 183 -117q45 -70 44 -157q0 -37 -8 -77q-41 -202 -172 -301.5t-326 -99.5h-442zM167 54h392q168 0 285.5 90.5t151.5 254.5q8 39 8 74q0 93 -54 157 q-74 90 -249 89h-402zM310 773h343q175 3 281 80t137 234q10 48 10 88q0 99 -58 152q-81 75 -281 75h-306z" />
<glyph unicode="C" horiz-adv-x="1244" d="M178 619l43 218q61 307 212.5 473.5t377.5 166.5q207 -1 325 -119q97 -98 97 -269q0 -37 -4 -77h-51q3 34 3 65q0 154 -82 241q-99 105 -298 105q-191 0 -333.5 -157.5t-195.5 -426.5l-44 -220q-20 -100 -21 -184q1 -149 65 -247q100 -154 307 -155q184 0 303 98.5 t183 314.5h51q-70 -240 -205 -353.5t-343 -113.5q-220 0 -334 177q-75 117 -76 282q0 84 20 181z" />
<glyph unicode="D" horiz-adv-x="1256" d="M106 0l291 1456h338q233 0 378 -180q105 -131 105 -313q0 -69 -15 -146l-35 -178q-61 -301 -237 -470t-413 -169h-412zM167 54h362q203 0 369.5 163t219.5 422l36 181q15 75 15 141q0 167 -93 281q-130 160 -352 160h-288z" />
<glyph unicode="E" horiz-adv-x="1094" d="M106 0l291 1456h824l-11 -54h-774l-123 -616h679l-11 -54h-679l-135 -678h774l-11 -54h-824z" />
<glyph unicode="F" horiz-adv-x="1100" d="M106 0l291 1456h839l-11 -54h-789l-126 -630h694l-11 -56h-694l-143 -716h-50z" />
<glyph unicode="G" horiz-adv-x="1318" d="M200 620l48 238q58 290 228 454.5t401 164.5q206 0 308 -115q88 -99 88 -250q0 -24 -2 -49h-50q1 15 1 29q0 142 -74 232q-81 99 -281 99q-202 0 -360.5 -156.5t-208.5 -406.5l-48 -240q-20 -101 -20 -186q0 -146 60 -245q95 -156 315 -156q146 0 269 47t172 101l85 424 h-414l11 55h464l-101 -504q-57 -65 -187 -121t-310 -56q-228 0 -340 177q-74 116 -74 280q0 86 20 184z" />
<glyph unicode="H" horiz-adv-x="1347" d="M106 0l291 1456h50l-141 -707h865l141 707h50l-291 -1456h-50l139 695h-865l-139 -695h-50z" />
<glyph unicode="I" horiz-adv-x="507" d="M143 0l291 1456h50l-291 -1456h-50z" />
<glyph unicode="J" horiz-adv-x="1056" d="M84 401h50q-13 -66 -13 -120q0 -100 45 -158q71 -90 246 -90q140 0 255.5 104.5t151.5 284.5l207 1034h50l-207 -1034q-43 -215 -169 -329t-299 -114q-183 0 -271 106q-60 72 -60 191q0 57 14 125z" />
<glyph unicode="K" horiz-adv-x="1102" d="M88 0l291 1456h51l-137 -682h226l675 682h71l-708 -716l449 -740h-63l-437 721h-223l-144 -721h-51z" />
<glyph unicode="L" horiz-adv-x="993" d="M106 0l291 1456h51l-280 -1402h695l-11 -54h-746z" />
<glyph unicode="M" horiz-adv-x="1643" d="M106 0l291 1456h72l282 -1377l834 1377h73l-291 -1456h-50l141 703l132 666l-2 1l-833 -1370h-40l-283 1363h-3l-132 -660l-141 -703h-50z" />
<glyph unicode="N" horiz-adv-x="1358" d="M106 0l291 1456h51l600 -1356h3l271 1356h51l-291 -1456h-51l-600 1359h-3l-271 -1359h-51z" />
<glyph unicode="O" horiz-adv-x="1279" d="M168 619l43 218q63 318 210.5 479t389.5 161q239 0 359 -174q81 -117 81 -289q0 -82 -19 -177l-43 -218q-64 -318 -211.5 -479t-389.5 -161q-239 -1 -359 173q-80 116 -80 287q0 83 19 180zM219 619q-20 -100 -19 -183q0 -152 65 -250q102 -152 334 -153q213 0 348 153.5 t192 432.5l44 220q19 97 19 179q0 152 -66 252q-102 152 -335 153q-212 0 -347.5 -154t-190.5 -430z" />
<glyph unicode="P" horiz-adv-x="1154" d="M106 0l291 1456h423q206 0 299 -113q66 -80 66 -199q0 -48 -11 -103q-40 -200 -171.5 -308t-348.5 -108h-373l-125 -625h-50zM292 679h373q188 0 307.5 102.5t151.5 257.5q10 51 10 96q0 101 -52 169q-74 98 -273 98h-373z" />
<glyph unicode="Q" horiz-adv-x="1279" d="M168 619l43 218q63 318 210.5 479t389.5 161q238 0 359 -174q81 -117 81 -289q0 -82 -19 -177l-43 -218q-45 -221 -128.5 -363.5t-213.5 -213.5l187 -250l-43 -35l-198 259q-49 -18 -99 -27.5t-106 -9.5q-239 0 -359 173q-80 117 -80 287q0 83 19 180zM219 619 q-20 -100 -20 -183q0 -152 66 -250q102 -153 334 -153q213 0 348 153.5t192 432.5l44 220q19 97 19 179q0 153 -66 252q-103 153 -335 153q-212 0 -347.5 -154t-190.5 -430z" />
<glyph unicode="R" horiz-adv-x="1256" d="M101 -1l291 1456h432q212 -1 308 -99q69 -71 69 -189q0 -47 -11 -102q-26 -129 -116 -227t-222 -126v-3q132 -29 176 -115q28 -54 28 -127q0 -45 -10 -96l-27 -137q-11 -52 -11 -95q0 -14 1 -27q5 -52 34 -88l-5 -25h-49q-26 42 -31 101q-1 14 -1 29q0 48 12 107l27 133 q9 47 9 87q0 94 -51 148q-73 78 -253 79h-413l-136 -684h-51zM299 737h372q203 0 322 94t147 234q10 52 10 95q0 102 -56 160q-80 82 -281 81h-381z" />
<glyph unicode="S" horiz-adv-x="1148" d="M159 409h50q-12 -59 -12 -107q-1 -126 79 -186q110 -84 287 -83q159 0 284 80t148 190q8 44 8 81q-1 94 -51 150q-72 80 -296 170q-219 85 -309 174q-64 63 -64 174q0 46 11 99q31 154 156.5 240t300.5 86q198 -1 302 -113q75 -81 75 -208q0 -51 -12 -109h-50 q10 49 10 92q0 109 -63 182q-88 102 -272 102q-152 0 -263.5 -80.5t-132.5 -189.5q-10 -47 -10 -87q1 -87 47 -143q68 -82 294 -169q213 -81 308 -178q70 -71 70 -185q0 -41 -9 -86q-32 -158 -166.5 -242t-326.5 -84t-316 102q-90 74 -89 214q0 53 12 114z" />
<glyph unicode="T" horiz-adv-x="1148" d="M251 1402l11 54h1036l-11 -54h-493l-280 -1402h-50l280 1402h-493z" />
<glyph unicode="U" horiz-adv-x="1279" d="M186 469l197 987h50l-197 -987q-14 -71 -15 -131q0 -123 62 -196q91 -109 279 -109q178 0 317.5 114t181.5 322l197 987h50l-197 -987q-51 -252 -199 -371t-361 -119q-204 0 -309 125q-72 85 -72 224q0 65 16 141z" />
<glyph unicode="V" horiz-adv-x="1147" d="M201 1456h54l245 -1314l12 -82h3l39 82l665 1314h55l-739 -1456h-62z" />
<glyph unicode="W" horiz-adv-x="1735" d="M225 1456h56l100 -1126l22 -234h3l98 234l500 1126h56l138 -1126l21 -234h3l100 234l459 1126h54l-597 -1456h-57l-142 1214l-21 149h-3l-69 -149l-532 -1214h-57z" />
<glyph unicode="X" horiz-adv-x="1147" d="M-16 0l607 743l-355 713h63l329 -671l545 671h63l-582 -713l368 -743h-62l-346 701l-568 -701h-62z" />
<glyph unicode="Y" horiz-adv-x="1147" d="M244 1456h62l285 -809l15 -49l34 49l612 809h61l-690 -902l-110 -554h-51l110 553z" />
<glyph unicode="Z" horiz-adv-x="1034" d="M1 0l4 44l1016 1359h-760l10 53h832l-7 -38l-1021 -1364h835l-11 -54h-898z" />
<glyph unicode="[" horiz-adv-x="418" d="M53 -312l316 1976h264l-8 -54h-213l-299 -1868h213l-9 -54h-264z" />
<glyph unicode="\" horiz-adv-x="730" d="M264 1456h54l249 -1581h-54z" />
<glyph unicode="]" horiz-adv-x="418" d="M-122 -312l9 54h212l299 1868h-212l8 54h263l-316 -1976h-263z" />
<glyph unicode="^" horiz-adv-x="800" d="M151 729l423 727h48l133 -727h-57l-98 543l-15 117l-3 1l-65 -118l-311 -543h-55z" />
<glyph unicode="_" horiz-adv-x="796" d="M-92 -54l11 54h787l-11 -54h-787z" />
<glyph unicode="`" horiz-adv-x="509" d="M262 1476h89l168 -266h-77z" />
<glyph unicode="a" horiz-adv-x="1015" d="M61 274q30 155 168 242.5t353 87.5h249l32 158q9 44 9 82q0 82 -44 132q-62 72 -213 72q-135 0 -244 -75.5t-131 -188.5l-50 2q27 136 148.5 226t286.5 90q159 0 241 -88q58 -62 58 -164q0 -42 -10 -90l-108 -542q-14 -60 -18 -112q-2 -28 -2 -56q0 -25 2 -50h-56 q4 97 5.5 119.5t10.5 63.5l2 11l-3 1q-75 -96 -188 -156t-257 -60q-136 0 -202 81q-46 57 -47 141q0 34 8 73zM110 270q-6 -31 -6 -58q0 -66 38 -114q54 -66 170 -66q139 0 259.5 68.5t198.5 192.5l50 256h-246q-182 0 -310.5 -77t-153.5 -202z" />
<glyph unicode="b" d="M78 0l312 1560h50l-136 -679l2 -1q67 104 157 163t208 59q175 0 255 -156q49 -95 49 -228q0 -85 -20 -186l-4 -21q-54 -266 -169 -399t-296 -133q-122 0 -206 49t-119 134l-3 -1l-38 -161h-42zM179 257q18 -107 98 -165.5t221 -58.5q155 0 255 125t146 353l4 21 q20 102 20 186q-1 110 -35 190q-62 140 -226 140q-142 0 -233 -85.5t-151 -211.5z" />
<glyph unicode="c" horiz-adv-x="976" d="M108 520l7 42q40 256 169 398t326 142q151 0 244 -98q75 -80 75 -213q0 -31 -4 -66h-50q3 29 3 56q0 116 -64 184q-78 83 -212 83q-173 0 -288 -136t-149 -350l-7 -42q-12 -79 -12 -146q0 -128 44 -212q68 -130 251 -129q126 0 231.5 73.5t138.5 221.5h50 q-34 -164 -153.5 -256.5t-274.5 -92.5q-189 0 -277 148q-60 102 -60 249q0 67 12 144z" />
<glyph unicode="d" d="M141 541l4 21q55 273 170.5 406.5t298.5 133.5q120 0 201 -54t115 -150l3 1l133 661h50l-312 -1560h-48l33 175l-3 1q-64 -90 -153.5 -143.5t-206.5 -53.5q-176 -1 -256 155q-49 95 -49 227q0 83 20 180zM194 541q-20 -102 -21 -186q-1 -109 35 -186q62 -136 228 -136 q125 0 219 69t156 184l101 506q-17 110 -88 183t-221 73q-156 0 -257.5 -129t-147.5 -357z" />
<glyph unicode="e" horiz-adv-x="970" d="M96 500l10 64q39 247 182 392.5t326 145.5q168 0 256 -118q65 -87 65 -221q0 -48 -9 -103l-14 -83h-754q-2 -8 -2 -9.5v-3.5l-10 -64q-9 -57 -9 -108q1 -135 65 -229q90 -130 260 -130q86 0 162.5 30.5t157.5 101.5l21 -42q-71 -69 -154 -106.5t-195 -37.5 q-182 0 -288 147q-79 110 -79 264q0 52 9 110zM170 631h701l5 33q8 49 8 92q0 112 -52 188q-72 104 -226 104q-147 0 -268 -117.5t-168 -299.5z" />
<glyph unicode="f" horiz-adv-x="610" d="M156 0l205 1027h-175l11 55h175l36 178q32 162 115.5 241.5t211.5 79.5q31 0 60 -4t56 -13l-18 -52q-28 8 -50 11.5t-58 3.5q-98 0 -170 -70t-97 -197l-36 -178h266l-11 -55h-266l-205 -1027h-50z" />
<glyph unicode="g" horiz-adv-x="1054" d="M56 -375l26 54q62 -33 120.5 -48t141.5 -15q158 0 265.5 105.5t145.5 292.5l32 159l-3 1q-64 -89 -153.5 -142t-205.5 -53q-175 0 -255 155q-49 95 -49 226q0 83 20 181l4 21q55 274 170 407t298 133q121 0 202 -54.5t115 -151.5h3l44 186h43l-213 -1068 q-44 -220 -166.5 -335.5t-304.5 -115.5q-72 0 -149 16.5t-131 45.5zM192 541q-20 -102 -20 -185q0 -110 35 -187q62 -136 228 -136q127 0 220.5 71t155.5 190l98 489q-14 113 -84 189t-223 76q-156 0 -258 -129t-148 -357z" />
<glyph unicode="h" d="M80 0l312 1560h50l-144 -721l3 -1q69 117 175.5 190.5t230.5 73.5q155 0 217 -105q35 -60 35 -162q0 -76 -20 -175l-132 -660h-50l132 660q21 106 21 180q0 86 -28 129q-52 80 -187 80q-146 0 -259 -113t-169 -248l-137 -688h-50z" />
<glyph unicode="i" horiz-adv-x="402" d="M92 0l216 1082h50l-216 -1082h-50zM376 1422l28 138h50l-28 -138h-50z" />
<glyph unicode="j" horiz-adv-x="424" d="M-309 -417l22 52q16 -7 40.5 -12.5t47.5 -5.5q102 0 174 76.5t100 217.5l234 1171h50l-234 -1171q-36 -177 -119.5 -262.5t-214.5 -85.5q-26 0 -49.5 5t-50.5 15zM372 1426l27 134h51l-27 -134h-51z" />
<glyph unicode="k" horiz-adv-x="911" d="M80 0l312 1560h50l-191 -953h118l553 475h66l-565 -493l383 -589h-65l-363 553h-138l-110 -553h-50z" />
<glyph unicode="l" horiz-adv-x="402" d="M92 0l312 1560h50l-312 -1560h-50z" />
<glyph unicode="m" horiz-adv-x="1717" d="M70 0l216 1082h48l-43 -232l-3 -13l3 -1q69 118 175 192t231 74q127 0 193 -68q62 -64 62 -196v-16h3q68 123 180 201.5t245 78.5q154 0 217 -106q36 -61 37 -163q0 -75 -20 -173l-132 -660h-50l132 660q21 105 21 179q0 87 -29 131q-52 80 -186 79h-3 q-164 -3 -281 -123.5t-150 -245.5l-136 -680h-50l136 680q19 96 19 165q0 86 -30 128q-54 76 -191 76q-147 0 -259.5 -115t-167.5 -252l-136 -682h-51z" />
<glyph unicode="n" d="M80 0l216 1082h47l-43 -231l-2 -12l2 -2q70 118 176.5 191.5t230.5 73.5q155 0 217 -105q35 -60 35 -162q0 -76 -20 -175l-132 -660h-50l132 660q21 106 21 180q0 86 -28 129q-52 80 -187 80q-146 0 -259.5 -113.5t-168.5 -248.5l-137 -687h-50z" />
<glyph unicode="o" d="M99 520l7 42q40 252 182 396t344 144q192 0 292 -150q73 -109 74 -265q0 -59 -11 -125l-7 -42q-41 -253 -182.5 -397t-342.5 -144q-193 0 -294 150q-73 108 -73 264q0 60 11 127zM149 520q-10 -63 -10 -120q-1 -135 57 -231q82 -136 267 -136q173 0 303 141.5t163 345.5 l7 42q10 61 10 116q0 134 -58 232q-82 138 -264 138q-174 0 -305.5 -143t-162.5 -343z" />
<glyph unicode="p" d="M-5 -416l299 1498h39l-29 -197l3 -1q68 102 157.5 160t206.5 58q175 0 255 -161q48 -97 48 -230q0 -87 -21 -189l-4 -21q-53 -265 -167 -393.5t-296 -128.5q-120 0 -204 47.5t-120 129.5l-3 -1l-114 -571h-50zM179 253q18 -105 98.5 -162.5t220.5 -57.5 q156 0 255.5 120.5t144.5 347.5l4 21q20 103 20 188q0 111 -34 193q-61 145 -226 145q-141 0 -232 -84t-151 -209z" />
<glyph unicode="q" d="M141 541l4 21q55 273 170.5 406.5t298.5 133.5q119 0 201 -53t117 -147h3l40 180h45l-63 -316v-1l-88 -441q0 -1 -1 -2v0l-147 -738h-50l117 586l-3 1q-65 -88 -154.5 -140t-204.5 -52q-175 0 -256 155q-49 96 -49 227q0 83 20 180zM194 541q-20 -102 -20 -186 q0 -109 34 -186q62 -136 228 -136q125 0 219 69t156 184l101 505q-17 111 -88 184t-221 73q-156 0 -257.5 -129t-147.5 -357z" />
<glyph unicode="r" horiz-adv-x="642" d="M80 0l216 1082h41l-28 -188l-4 -20l3 -1q62 110 154.5 169.5t215.5 59.5q21 0 38.5 -3.5t30.5 -7.5l-14 -48l-65 6q-133 0 -236.5 -95t-161.5 -251l-140 -703h-50z" />
<glyph unicode="s" horiz-adv-x="958" d="M76 275h50q-2 -17 -2 -34q0 -105 74 -153q84 -56 215 -55q137 0 231.5 69.5t109.5 162.5q3 18 3 36q0 68 -44 122q-55 68 -223 109q-177 42 -246 104q-52 47 -52 134q0 27 5 59q19 123 120 198t260 75q163 0 248 -84q68 -67 67 -170q0 -26 -4 -55h-51q3 22 3 43 q0 82 -55 140q-69 72 -216 72q-139 0 -224 -66t-98 -151q-3 -19 -3 -37q0 -64 39 -110q50 -58 230 -103q165 -43 239 -114q57 -55 57 -147q0 -26 -5 -56q-22 -134 -127.5 -209.5t-271.5 -75.5q-173 0 -261 85q-72 69 -72 166q0 22 4 45z" />
<glyph unicode="t" horiz-adv-x="613" d="M160 1027l11 55h186l59 292h51l-59 -292h229l-11 -55h-229l-149 -748q-14 -69 -14 -117q0 -50 15 -76q30 -52 102 -53q24 0 45 2t56 7v-49q-27 -8 -52 -11t-57 -3q-99 1 -139 71q-22 39 -22 103q0 54 15 126l149 748h-186z" />
<glyph unicode="u" d="M169 465l123 617h50l-123 -619q-22 -109 -22 -189q1 -90 29 -142q54 -98 186 -99q153 0 254.5 83t154.5 221l149 745h51l-127 -637l-89 -445h-41l29 181l-3 1q-66 -99 -162.5 -151t-224.5 -52q-153 -1 -219 117q-37 66 -37 176q0 84 22 193z" />
<glyph unicode="v" horiz-adv-x="920" d="M148 1082h54l175 -853l24 -150l3 -1l74 151l446 853h54l-564 -1081v-1h-48z" />
<glyph unicode="w" horiz-adv-x="1452" d="M213 1082h58l52 -769l9 -227l3 -1l112 228l379 769h51l72 -769l20 -229l3 -1l102 230l357 769h59l-509 -1082h-50l-85 813l-10 188h-3l-86 -188l-408 -813h-50z" />
<glyph unicode="x" horiz-adv-x="920" d="M-14 0l461 555l-269 527h63l245 -480l398 480h63l-438 -527l283 -555h-62l-260 508l-422 -508h-62z" />
<glyph unicode="y" horiz-adv-x="920" d="M-74 -426l19 51q10 -3 30 -6t30 -3q84 0 144 54.5t117 159.5l96 177l-186 1075h55l154 -886l16 -110l3 -1l11 19l543 978h56l-699 -1262q-66 -117 -132.5 -187t-187.5 -70q-17 0 -38 3.5t-31 7.5z" />
<glyph unicode="z" horiz-adv-x="920" d="M1 0l9 44l857 983h-632l11 55h700l-9 -48l-857 -980h716l-11 -54h-784z" />
<glyph unicode="{" horiz-adv-x="624" d="M90 543l5 34l2 9l3 23q117 0 186 71.5t91 204.5l39 247q28 180 112.5 294t259.5 171l6 -45q-143 -47 -222.5 -154.5t-104.5 -265.5l-39 -247q-21 -127 -80 -206.5t-161 -102.5v-3q90 -26 125 -108t16 -200l-39 -245q-27 -163 20.5 -264t178.5 -151l-27 -46 q-155 56 -203 171.5t-20 289.5l39 245q22 139 -21 208.5t-166 69.5z" />
<glyph unicode="|" horiz-adv-x="388" d="M60 -270l276 1726h51l-276 -1726h-51z" />
<glyph unicode="}" horiz-adv-x="624" d="M-128 -395q143 50 224 154t106 261l39 245q19 126 78.5 206.5t163.5 104.5v3q-91 25 -126.5 106t-15.5 200l39 247q26 164 -18.5 268t-173.5 152l21 45q154 -56 201.5 -173t19.5 -292l-39 -247q-23 -139 21 -207.5t167 -68.5l-3 -23l-1 -6l-2 -14h-1l-3 -23 q-117 0 -187 -73t-91 -205l-39 -245q-29 -180 -112 -292.5t-258 -168.5z" />
<glyph unicode="~" horiz-adv-x="1323" d="M156 474q21 135 101 217.5t191 82.5q78 0 140.5 -40t133.5 -120q54 -63 102.5 -90.5t107.5 -27.5q78 0 144.5 70t85.5 187l54 -13q-21 -128 -102.5 -212.5t-189.5 -84.5q-79 0 -140.5 38t-133.5 121q-54 60 -103.5 89t-107.5 29q-81 0 -146 -67t-84 -191z" />
<glyph unicode="&#xa1;" horiz-adv-x="388" d="M0 -374l196 978h51l-196 -978h-51zM241 918l32 164h88l-32 -164h-88z" />
<glyph unicode="&#xa2;" horiz-adv-x="1042" d="M142 520l7 42q40 256 169 398t326 142h7l44 216h51l-45 -221q130 -20 203.5 -115.5t54.5 -256.5h-50q18 157 -60.5 240t-212.5 83q-173 0 -288 -136t-149 -350l-7 -42q-36 -228 32 -357.5t251 -129.5q126 0 231.5 73.5t138.5 221.5h50q-33 -161 -149.5 -253t-268.5 -96 l-44 -224h-51l45 226q-170 18 -246 163t-39 376z" />
<glyph unicode="&#xa3;" horiz-adv-x="1080" d="M40 0l11 54h9q88 17 153.5 145t93.5 267l33 201h-227l11 54h225l53 319q43 216 156.5 326.5t275.5 110.5q160 0 217.5 -102t21.5 -285h-51q37 187 -14 260t-184 73q-134 0 -234 -99.5t-137 -283.5l-54 -319h444l-11 -54h-442l-33 -201q-27 -132 -80.5 -238.5 t-129.5 -173.5h751l-10 -54h-848z" />
<glyph unicode="&#xa4;" horiz-adv-x="1407" d="M29 13l206 186q-49 85 -63.5 188t9.5 221q25 129 82 235.5t143 191.5l-135 190l45 39l134 -189q91 77 195 118t215 41q104 0 190 -43.5t148 -123.5l220 198l30 -40l-221 -200q51 -86 67 -191t-7 -226q-25 -123 -78.5 -225.5t-132.5 -186.5l130 -183l-46 -40l-128 179 q-95 -85 -202 -128.5t-221 -43.5q-109 0 -197.5 45.5t-149.5 131.5l-204 -183zM232 608q-51 -253 61.5 -414t326.5 -161q201 0 384.5 167.5t232.5 407.5q49 251 -63.5 412t-324.5 161q-203 0 -386.5 -167t-230.5 -406z" />
<glyph unicode="&#xa5;" horiz-adv-x="1133" d="M100 326l11 55h419l48 240h-419l11 55h393l-298 780h60l278 -718l11 -51h6l32 51l562 718h62l-610 -780h393l-11 -55h-420l-48 -240h420l-11 -55h-420l-65 -326h-50l65 326h-419z" />
<glyph unicode="&#xa6;" horiz-adv-x="380" d="M26 -270l150 752h50l-150 -752h-50zM220 698l151 758h50l-151 -758h-50z" />
<glyph unicode="&#xa7;" horiz-adv-x="1147" d="M14 -64l51 2q-44 -212 54.5 -295.5t270.5 -83.5q168 0 283 80t142 210q25 127 -33 191t-264 126q-220 59 -314 141t-61 244q22 114 104 182.5t211 88.5v3q-102 48 -142 118.5t-16 186.5q33 167 162 257t328 90q195 0 286 -111.5t50 -319.5h-50q34 171 -41.5 274 t-254.5 103q-180 0 -291.5 -81t-136.5 -209q-27 -133 30.5 -196t271.5 -133q225 -65 312.5 -139.5t56.5 -233.5q-22 -111 -109 -179.5t-221 -86.5v-3q111 -50 154.5 -120t19.5 -191q-35 -171 -162.5 -258.5t-325.5 -87.5q-188 0 -299 102t-66 329zM194 553 q-28 -138 37 -198.5t312 -139.5l60 -19q147 1 248 67t122 165q25 130 -46 197t-305 141q-27 6 -50.5 13.5t-44.5 16.5q-141 -8 -227 -74t-106 -169z" />
<glyph unicode="&#xa8;" horiz-adv-x="853" d="M293 1338l19 118h128l-19 -118h-128zM730 1338l19 118h127l-19 -118h-127z" />
<glyph unicode="&#xa9;" horiz-adv-x="1559" d="M166 729q53 333 274.5 540t505.5 207q269 0 430 -214.5t111 -532.5q-54 -335 -275.5 -542.5t-504.5 -207.5q-270 0 -431.5 215.5t-109.5 534.5zM218 729q-50 -307 93.5 -501t403.5 -194q245 0 459 201t261 494q48 306 -95.5 499t-402.5 193q-247 0 -460 -200t-259 -492z M513 669l19 119q28 181 125 284t234 103q127 0 189.5 -79.5t38.5 -233.5h-48q21 136 -26 198t-162 62q-112 0 -194.5 -94.5t-105.5 -238.5l-19 -120q-25 -153 25 -242.5t168 -89.5q110 0 179.5 62.5t90.5 196.5h48q-26 -164 -109.5 -239t-217.5 -75q-131 0 -197 106.5 t-38 280.5z" />
<glyph unicode="&#xaa;" horiz-adv-x="845" d="M242 920q21 107 98.5 160t212.5 53h204l14 69q22 111 -12.5 166t-127.5 55q-104 0 -172 -46.5t-85 -138.5l-50 6q21 108 106 170.5t211 62.5q105 0 156.5 -71t24.5 -205l-63 -314q-10 -50 -12.5 -92t0.5 -89h-54q-3 28 -2.5 57t4.5 57l-3 1q-46 -56 -114 -92.5 t-151 -36.5q-109 0 -158 61t-27 167zM293 924q-18 -88 16 -132.5t130 -44.5q79 0 158.5 47t112.5 105l36 178h-204q-103 0 -170 -44t-79 -109z" />
<glyph unicode="&#xab;" horiz-adv-x="852" d="M157 516l1 6l3 13l349 370h65l-349 -380l197 -379h-65zM424 516l1 6l3 13l349 370h65l-349 -380l197 -379h-65z" />
<glyph unicode="&#xac;" horiz-adv-x="1034" d="M173 700l11 53h738l-11 -53l-61 -304h-50l61 304h-688z" />
<glyph unicode="&#xad;" horiz-adv-x="575" d="M105 639l11 54h437l-11 -54h-437z" />
<glyph unicode="&#xae;" horiz-adv-x="1567" d="M159 729q53 334 274 540.5t505 206.5q270 0 431 -214.5t111 -532.5q-54 -335 -276 -542.5t-505 -207.5q-270 0 -431 215.5t-109 534.5zM210 729q-50 -307 93.5 -501t403.5 -194q245 0 459 201t261 494q48 306 -95.5 499t-402.5 193q-247 0 -460 -200t-259 -492zM537 316 l136 850h223q130 0 189 -60.5t41 -179.5q-13 -78 -57.5 -127.5t-120.5 -78.5q61 -23 82.5 -76.5t9.5 -128.5l-9 -56q-7 -40 -7.5 -72t3.5 -55l-2 -16h-55q-6 22 -1.5 63t11.5 81l8 54q15 99 -16 136.5t-127 37.5h-197l-59 -372h-52zM657 744h190q83 0 148 47.5t79 135.5 q16 101 -24 142.5t-163 41.5h-171z" />
<glyph unicode="&#xaf;" horiz-adv-x="764" d="M245 1403l9 53h583l-9 -53h-583z" />
<glyph unicode="&#xb0;" horiz-adv-x="738" d="M312 1237q21 104 97.5 172t170.5 68q86 0 136.5 -70.5t30.5 -169.5q-22 -106 -96.5 -171.5t-165.5 -65.5q-90 0 -141.5 68t-31.5 169zM363 1237q-17 -83 20.5 -132t112.5 -49q69 0 126 50.5t73 130.5q17 84 -18.5 134.5t-107.5 50.5q-71 0 -130.5 -52.5t-75.5 -132.5z " />
<glyph unicode="&#xb1;" horiz-adv-x="1012" d="M122 751l9 54h411l75 462h50l-74 -462h390l-9 -54h-390l-74 -462h-50l74 462h-412zM187 88l11 54h776l-11 -54h-776z" />
<glyph unicode="&#xb2;" horiz-adv-x="761" d="M159 667l11 55l364 300q95 82 133 131.5t50 101.5q16 82 -19 125.5t-127 43.5q-94 0 -157.5 -50.5t-79.5 -131.5h-53q20 106 101 171.5t200 65.5q105 0 156.5 -57t29.5 -168q-15 -74 -70.5 -136t-164.5 -155l-296 -238l1 -3h444l-11 -55h-512z" />
<glyph unicode="&#xb3;" horiz-adv-x="783" d="M210 888h53q-17 -82 30.5 -130t145.5 -48q96 0 159.5 45t80.5 126q18 91 -24 128.5t-148 37.5h-106l4 21l5 23l2 12h106q97 0 153.5 40.5t71.5 116.5q15 78 -24 120.5t-138 42.5q-84 0 -150.5 -45.5t-81.5 -119.5h-52q21 105 103 162.5t192 57.5q112 0 167 -57t34 -164 q-14 -65 -55 -111.5t-105 -68.5v-3q62 -21 87.5 -69t10.5 -122q-23 -113 -104 -170.5t-199 -57.5q-106 0 -173.5 58.5t-44.5 174.5z" />
<glyph unicode="&#xb4;" horiz-adv-x="485" d="M226 1212l251 266h79l-261 -266h-69z" />
<glyph unicode="&#xb5;" d="M-4 -416l299 1498h48l-128 -642q-48 -237 12 -322t192 -85q167 0 264.5 93.5t150.5 266.5l138 689h50l-115 -577h2q-6 -24 -9 -39t-7 -29l-87 -437h-38l29 191l-3 1q-64 -105 -157 -159t-221 -54q-94 0 -161.5 44t-90.5 144h-3l-117 -583h-48z" />
<glyph unicode="&#xb6;" horiz-adv-x="890" d="M210 988q43 219 185 343.5t366 124.5h166l-291 -1456h-50l104 520h-116q-213 0 -309.5 129t-54.5 339z" />
<glyph unicode="&#xb7;" horiz-adv-x="449" d="M204 624l30 152h110l-30 -152h-110z" />
<glyph unicode="&#xb8;" horiz-adv-x="466" d="M-85 -435l3 49q84 0 159 36t90 105q12 66 -22.5 90t-128.5 34l47 121h50l-26 -76q72 -8 109.5 -46t21.5 -123q-19 -91 -98 -140.5t-205 -49.5z" />
<glyph unicode="&#xb9;" horiz-adv-x="448" d="M273 1398l11 56l209 23l-162 -812h-50l149 747z" />
<glyph unicode="&#xba;" horiz-adv-x="860" d="M263 1025l23 117q31 157 123.5 246t225.5 89q128 0 187 -93t30 -242l-23 -117q-32 -158 -124 -246t-225 -88q-128 0 -187.5 92t-29.5 242zM313 1025q-27 -131 15.5 -205.5t162.5 -74.5q109 0 186.5 78.5t102.5 201.5l23 117q26 129 -18 205t-160 76q-110 0 -187.5 -79.5 t-101.5 -201.5z" />
<glyph unicode="&#xbb;" horiz-adv-x="844" d="M73 171l349 379l-195 390h65l197 -380l-2 -6h1l-3 -13l-347 -370h-65zM343 171l349 379l-195 390h65l197 -380l-2 -6h1l-3 -13l-347 -370h-65z" />
<glyph unicode="&#xbc;" horiz-adv-x="1436" d="M247 170l890 1138l36 -31l-890 -1138zM331 1397l11 56l209 23l-162 -812h-50l149 747zM664 186l7 36l521 579h57l-112 -560h164l-11 -55h-164l-37 -186h-51l37 186h-411zM752 241h334l97 485l-3 2l-48 -64z" />
<glyph unicode="&#xbd;" horiz-adv-x="1356" d="M259 170l890 1138l36 -31l-890 -1138zM331 1397l11 56l209 23l-162 -812h-50l149 747zM752 0l11 55l364 300q95 82 133 131.5t50 101.5q16 82 -19 125.5t-127 43.5q-94 0 -157.5 -50.5t-79.5 -131.5h-53q20 106 101 171.5t200 65.5q105 0 156.5 -57t29.5 -168 q-15 -74 -70.5 -136t-164.5 -155l-296 -238l1 -3h444l-11 -55h-512z" />
<glyph unicode="&#xbe;" horiz-adv-x="1547" d="M240 889h53q-17 -82 30.5 -130t145.5 -48q96 0 159.5 45t80.5 126q18 91 -24 128.5t-148 37.5h-106l4 21l5 23l2 12h106q97 0 153.5 40.5t71.5 116.5q15 78 -24 120.5t-138 42.5q-84 0 -150.5 -45.5t-81.5 -119.5h-52q21 105 103 162.5t192 57.5q112 0 167 -57t34 -164 q-14 -65 -55 -111.5t-105 -68.5v-3q62 -21 87.5 -69t10.5 -122q-23 -113 -104 -170.5t-199 -57.5q-106 0 -173.5 58.5t-44.5 174.5zM459 170l890 1138l36 -31l-890 -1138zM873 186l7 36l521 579h57l-112 -560h164l-11 -55h-164l-37 -186h-51l37 186h-411zM961 241h334 l97 485l-3 2l-48 -64z" />
<glyph unicode="&#xbf;" horiz-adv-x="858" d="M12 -27q29 149 103 243.5t224 216.5q75 54 98 100.5t44 149.5h50q-26 -121 -52.5 -167.5t-122.5 -124.5q-139 -120 -203 -199t-92 -221q-32 -155 23 -233.5t193 -78.5q128 0 218.5 84t122.5 224h50q-38 -177 -147 -269t-255 -92q-151 0 -219 100.5t-35 266.5zM517 977 l22 106h76l-22 -106h-76z" />
<glyph unicode="&#xc0;" horiz-adv-x="1147" d="M-48 0l797 1456h61l216 -1456h-55l-64 435h-663l-238 -435h-54zM273 489h626l-120 820l-10 86h-3l-44 -86zM601 1828h89l168 -266h-77z" />
<glyph unicode="&#xc1;" horiz-adv-x="1147" d="M-48 0l797 1456h61l216 -1456h-55l-64 435h-663l-238 -435h-54zM273 489h626l-120 820l-10 86h-3l-44 -86zM745 1556l251 266h79l-261 -266h-69z" />
<glyph unicode="&#xc2;" horiz-adv-x="1147" d="M-48 0l797 1456h61l216 -1456h-55l-64 435h-663l-238 -435h-54zM273 489h626l-120 820l-10 86h-3l-44 -86zM575 1601l4 17l237 206h74l157 -210l-3 -13h-65l-134 186l-208 -186h-62z" />
<glyph unicode="&#xc3;" horiz-adv-x="1147" d="M-48 0l797 1456h61l216 -1456h-55l-64 435h-663l-238 -435h-54zM273 489h626l-120 820l-10 86h-3l-44 -86zM494 1615q13 86 65.5 132.5t125.5 46.5q65 0 131 -62t117 -62q46 0 85.5 39t49.5 102l50 -10q-15 -88 -69 -137t-125 -49q-67 0 -130.5 62.5t-116.5 62.5 q-48 0 -86 -36.5t-48 -98.5z" />
<glyph unicode="&#xc4;" horiz-adv-x="1147" d="M-48 0l797 1456h61l216 -1456h-55l-64 435h-663l-238 -435h-54zM273 489h626l-120 820l-10 86h-3l-44 -86zM546 1673l19 118h128l-19 -118h-128zM983 1673l19 118h127l-19 -118h-127z" />
<glyph unicode="&#xc5;" horiz-adv-x="1147" d="M-48 0l797 1456h61l216 -1456h-55l-64 435h-663l-238 -435h-54zM273 489h626l-120 820l-10 86h-3l-44 -86zM706 1726q12 60 55.5 99.5t97.5 39.5q50 0 79 -41t18 -98q-13 -61 -55.5 -98t-95.5 -37q-52 0 -82 38.5t-17 96.5zM759 1726q-8 -36 8.5 -57.5t48.5 -21.5 q29 0 54 22t33 57q7 37 -8.5 59.5t-46.5 22.5q-30 0 -56.5 -23.5t-32.5 -58.5z" />
<glyph unicode="&#xc6;" horiz-adv-x="1699" d="M-33 0l1110 1456h722l-11 -54h-648l-99 -616h547l-11 -54h-545l-109 -678h652l-11 -54h-699l68 425h-584l-322 -425h-60zM389 478h553l149 928l-3 1l-76 -109z" />
<glyph unicode="&#xc7;" horiz-adv-x="1244" d="M178 619l43 218q61 307 212.5 473.5t377.5 166.5q208 0 325.5 -118.5t92.5 -346.5h-51q20 201 -79 306t-298 105q-191 0 -333.5 -157.5t-195.5 -426.5l-44 -220q-56 -277 43.5 -431.5t307.5 -154.5q184 0 303 98.5t183 314.5h51q-70 -240 -205 -353.5t-343 -113.5 q-221 0 -334.5 177t-55.5 463zM378 -444l3 49q84 0 159 36t90 105q12 66 -22.5 90t-128.5 34l47 121h50l-26 -76q72 -8 109.5 -46t21.5 -123q-19 -91 -98 -140.5t-205 -49.5z" />
<glyph unicode="&#xc8;" horiz-adv-x="1094" d="M106 0l291 1456h824l-11 -54h-774l-123 -616h679l-11 -54h-679l-135 -678h774l-11 -54h-824zM608 1828h89l168 -266h-77z" />
<glyph unicode="&#xc9;" horiz-adv-x="1094" d="M106 0l291 1456h824l-11 -54h-774l-123 -616h679l-11 -54h-679l-135 -678h774l-11 -54h-824zM752 1556l251 266h79l-261 -266h-69z" />
<glyph unicode="&#xca;" horiz-adv-x="1094" d="M106 0l291 1456h824l-11 -54h-774l-123 -616h679l-11 -54h-679l-135 -678h774l-11 -54h-824zM582 1601l4 17l237 206h74l157 -210l-3 -13h-65l-134 186l-208 -186h-62z" />
<glyph unicode="&#xcb;" horiz-adv-x="1094" d="M106 0l291 1456h824l-11 -54h-774l-123 -616h679l-11 -54h-679l-135 -678h774l-11 -54h-824zM553 1673l19 118h128l-19 -118h-128zM990 1673l19 118h127l-19 -118h-127z" />
<glyph unicode="&#xcc;" horiz-adv-x="507" d="M143 0l291 1456h50l-291 -1456h-50zM281 1828h89l168 -266h-77z" />
<glyph unicode="&#xcd;" horiz-adv-x="507" d="M143 0l291 1456h50l-291 -1456h-50zM425 1556l251 266h79l-261 -266h-69z" />
<glyph unicode="&#xce;" horiz-adv-x="507" d="M143 0l291 1456h50l-291 -1456h-50zM256 1601l4 17l237 206h74l157 -210l-3 -13h-65l-134 186l-208 -186h-62z" />
<glyph unicode="&#xcf;" horiz-adv-x="507" d="M143 0l291 1456h50l-291 -1456h-50zM227 1673l19 118h128l-19 -118h-128zM664 1673l19 118h127l-19 -118h-127z" />
<glyph unicode="&#xd0;" horiz-adv-x="1286" d="M136 0l142 713h-130l11 54h130l138 689h338q233 0 378 -180.5t90 -458.5l-35 -178q-61 -301 -237 -470t-413 -169h-412zM197 54h362q203 0 369.5 163t219.5 422l36 181q52 261 -78 421.5t-352 160.5h-288l-127 -635h366l-11 -54h-366z" />
<glyph unicode="&#xd1;" horiz-adv-x="1358" d="M106 0l291 1456h51l600 -1356h3l271 1356h51l-291 -1456h-51l-600 1359h-3l-271 -1359h-51zM600 1615q13 86 65.5 132.5t125.5 46.5q65 0 131 -62t117 -62q46 0 85.5 39t49.5 102l50 -10q-15 -88 -69 -137t-125 -49q-67 0 -130.5 62.5t-116.5 62.5q-48 0 -86 -36.5 t-48 -98.5z" />
<glyph unicode="&#xd2;" horiz-adv-x="1279" d="M168 619l43 218q63 318 210.5 479t389.5 161q238 0 358.5 -174t62.5 -466l-43 -218q-64 -318 -211.5 -479t-389.5 -161q-239 0 -359 173.5t-61 466.5zM219 619q-56 -281 46 -433.5t334 -152.5q213 0 348 153.5t192 432.5l44 220q55 279 -47.5 431.5t-334.5 152.5 q-212 0 -347.5 -154t-190.5 -430zM666 1849h89l168 -266h-77z" />
<glyph unicode="&#xd3;" horiz-adv-x="1279" d="M168 619l43 218q63 318 210.5 479t389.5 161q238 0 358.5 -174t62.5 -466l-43 -218q-64 -318 -211.5 -479t-389.5 -161q-239 0 -359 173.5t-61 466.5zM219 619q-56 -281 46 -433.5t334 -152.5q213 0 348 153.5t192 432.5l44 220q55 279 -47.5 431.5t-334.5 152.5 q-212 0 -347.5 -154t-190.5 -430zM810 1577l251 266h79l-261 -266h-69z" />
<glyph unicode="&#xd4;" horiz-adv-x="1279" d="M168 619l43 218q63 318 210.5 479t389.5 161q238 0 358.5 -174t62.5 -466l-43 -218q-64 -318 -211.5 -479t-389.5 -161q-239 0 -359 173.5t-61 466.5zM219 619q-56 -281 46 -433.5t334 -152.5q213 0 348 153.5t192 432.5l44 220q55 279 -47.5 431.5t-334.5 152.5 q-212 0 -347.5 -154t-190.5 -430zM640 1622l4 17l237 206h74l157 -210l-3 -13h-65l-134 186l-208 -186h-62z" />
<glyph unicode="&#xd5;" horiz-adv-x="1279" d="M168 619l43 218q63 318 210.5 479t389.5 161q238 0 358.5 -174t62.5 -466l-43 -218q-64 -318 -211.5 -479t-389.5 -161q-239 0 -359 173.5t-61 466.5zM219 619q-56 -281 46 -433.5t334 -152.5q213 0 348 153.5t192 432.5l44 220q55 279 -47.5 431.5t-334.5 152.5 q-212 0 -347.5 -154t-190.5 -430zM559 1636q13 86 65.5 132.5t125.5 46.5q65 0 131 -62t117 -62q46 0 85.5 39t49.5 102l50 -10q-15 -88 -69 -137t-125 -49q-67 0 -130.5 62.5t-116.5 62.5q-48 0 -86 -36.5t-48 -98.5z" />
<glyph unicode="&#xd6;" horiz-adv-x="1279" d="M168 619l43 218q63 318 210.5 479t389.5 161q238 0 358.5 -174t62.5 -466l-43 -218q-64 -318 -211.5 -479t-389.5 -161q-239 0 -359 173.5t-61 466.5zM219 619q-56 -281 46 -433.5t334 -152.5q213 0 348 153.5t192 432.5l44 220q55 279 -47.5 431.5t-334.5 152.5 q-212 0 -347.5 -154t-190.5 -430zM611 1694l19 118h128l-19 -118h-128zM1048 1694l19 118h127l-19 -118h-127z" />
<glyph unicode="&#xd7;" horiz-adv-x="988" d="M69 289l436 392l-260 365l45 39l258 -364l405 364l28 -39l-405 -364l280 -393l-44 -37l-280 391l-435 -391z" />
<glyph unicode="&#xd8;" horiz-adv-x="1279" d="M80 -75l160 202q-66 87 -85 211.5t13 280.5l43 218q60 303 229 471.5t408 168.5q108 0 189.5 -43.5t135.5 -125.5l148 187h61l-183 -232q41 -85 49.5 -191.5t-16.5 -234.5l-43 -218q-61 -304 -230 -472t-408 -168q-87 0 -156.5 27.5t-122.5 83.5l-131 -165h-61z M201.5 356q12.5 -113 68.5 -190l873 1104q-46 75 -121.5 114t-183.5 39q-210 0 -366.5 -161t-208.5 -423l-44 -220q-30 -150 -17.5 -263zM302 128q47 -48 110.5 -71.5t149.5 -23.5q210 0 366.5 160.5t210.5 425.5l44 220q23 117 18.5 212.5t-34.5 171.5z" />
<glyph unicode="&#xd9;" horiz-adv-x="1279" d="M186 469l197 987h50l-197 -987q-44 -218 47 -327t279 -109q178 0 317.5 114t181.5 322l197 987h50l-197 -987q-51 -252 -199 -371t-361 -119q-204 0 -309 125t-56 365zM680 1828h89l168 -266h-77z" />
<glyph unicode="&#xda;" horiz-adv-x="1279" d="M186 469l197 987h50l-197 -987q-44 -218 47 -327t279 -109q178 0 317.5 114t181.5 322l197 987h50l-197 -987q-51 -252 -199 -371t-361 -119q-204 0 -309 125t-56 365zM824 1556l251 266h79l-261 -266h-69z" />
<glyph unicode="&#xdb;" horiz-adv-x="1279" d="M186 469l197 987h50l-197 -987q-44 -218 47 -327t279 -109q178 0 317.5 114t181.5 322l197 987h50l-197 -987q-51 -252 -199 -371t-361 -119q-204 0 -309 125t-56 365zM654 1601l4 17l237 206h74l157 -210l-3 -13h-65l-134 186l-208 -186h-62z" />
<glyph unicode="&#xdc;" horiz-adv-x="1279" d="M186 469l197 987h50l-197 -987q-44 -218 47 -327t279 -109q178 0 317.5 114t181.5 322l197 987h50l-197 -987q-51 -252 -199 -371t-361 -119q-204 0 -309 125t-56 365zM625 1673l19 118h128l-19 -118h-128zM1062 1673l19 118h127l-19 -118h-127z" />
<glyph unicode="&#xdd;" horiz-adv-x="1147" d="M244 1456h62l285 -809l15 -49l34 49l612 809h61l-690 -902l-110 -554h-51l110 553zM739 1545l251 266h79l-261 -266h-69z" />
<glyph unicode="&#xde;" horiz-adv-x="1144" d="M106 0l291 1456h50l-63 -313h346q193 0 283 -112.5t55 -292.5q-39 -191 -167.5 -297.5t-332.5 -106.5h-345l-67 -334h-50zM234 388h345q178 0 294 104t144 244q31 152 -39.5 252.5t-258.5 100.5h-346z" />
<glyph unicode="&#xdf;" horiz-adv-x="1110" d="M73 0l216 1082q40 199 140 295.5t254 96.5q112 0 176.5 -72.5t40.5 -195.5q-22 -109 -97 -208.5t-94 -197.5q-20 -98 132 -234.5t122 -288.5q-30 -150 -148.5 -224t-252.5 -74q-80 0 -161 26t-111 63l32 49q34 -35 102 -60t141 -25q128 0 227.5 71t121.5 183 q24 122 -129 256t-127 260q22 114 96 216.5t92 189.5q19 96 -31 154t-134 58q-123 0 -216 -86.5t-126 -251.5l-216 -1082h-50z" />
<glyph unicode="&#xe0;" horiz-adv-x="1015" d="M61 274q30 155 168 242.5t353 87.5h249l32 158q28 143 -34.5 214.5t-213.5 71.5q-135 0 -244 -75.5t-131 -188.5l-50 2q27 136 148.5 226t286.5 90q159 0 240.5 -87.5t48.5 -254.5l-108 -542q-13 -60 -17.5 -112t-0.5 -106h-56q4 97 5.5 119.5t10.5 63.5l2 11l-3 1 q-75 -96 -188 -156t-257 -60q-137 0 -202.5 81t-38.5 214zM110 270q-22 -107 32 -172.5t170 -65.5q139 0 259.5 68.5t198.5 192.5l50 256h-246q-182 0 -310.5 -77t-153.5 -202zM465 1508h89l168 -266h-77z" />
<glyph unicode="&#xe1;" horiz-adv-x="1015" d="M61 274q30 155 168 242.5t353 87.5h249l32 158q28 143 -34.5 214.5t-213.5 71.5q-135 0 -244 -75.5t-131 -188.5l-50 2q27 136 148.5 226t286.5 90q159 0 240.5 -87.5t48.5 -254.5l-108 -542q-13 -60 -17.5 -112t-0.5 -106h-56q4 97 5.5 119.5t10.5 63.5l2 11l-3 1 q-75 -96 -188 -156t-257 -60q-137 0 -202.5 81t-38.5 214zM110 270q-22 -107 32 -172.5t170 -65.5q139 0 259.5 68.5t198.5 192.5l50 256h-246q-182 0 -310.5 -77t-153.5 -202zM609 1236l251 266h79l-261 -266h-69z" />
<glyph unicode="&#xe2;" horiz-adv-x="1015" d="M61 274q30 155 168 242.5t353 87.5h249l32 158q28 143 -34.5 214.5t-213.5 71.5q-135 0 -244 -75.5t-131 -188.5l-50 2q27 136 148.5 226t286.5 90q159 0 240.5 -87.5t48.5 -254.5l-108 -542q-13 -60 -17.5 -112t-0.5 -106h-56q4 97 5.5 119.5t10.5 63.5l2 11l-3 1 q-75 -96 -188 -156t-257 -60q-137 0 -202.5 81t-38.5 214zM110 270q-22 -107 32 -172.5t170 -65.5q139 0 259.5 68.5t198.5 192.5l50 256h-246q-182 0 -310.5 -77t-153.5 -202zM439 1281l4 17l237 206h74l157 -210l-3 -13h-65l-134 186l-208 -186h-62z" />
<glyph unicode="&#xe3;" horiz-adv-x="1015" d="M61 274q30 155 168 242.5t353 87.5h249l32 158q28 143 -34.5 214.5t-213.5 71.5q-135 0 -244 -75.5t-131 -188.5l-50 2q27 136 148.5 226t286.5 90q159 0 240.5 -87.5t48.5 -254.5l-108 -542q-13 -60 -17.5 -112t-0.5 -106h-56q4 97 5.5 119.5t10.5 63.5l2 11l-3 1 q-75 -96 -188 -156t-257 -60q-137 0 -202.5 81t-38.5 214zM110 270q-22 -107 32 -172.5t170 -65.5q139 0 259.5 68.5t198.5 192.5l50 256h-246q-182 0 -310.5 -77t-153.5 -202zM358 1295q13 86 65.5 132.5t125.5 46.5q65 0 131 -62t117 -62q46 0 85.5 39t49.5 102l50 -10 q-15 -88 -69 -137t-125 -49q-67 0 -130.5 62.5t-116.5 62.5q-48 0 -86 -36.5t-48 -98.5z" />
<glyph unicode="&#xe4;" horiz-adv-x="1015" d="M61 274q30 155 168 242.5t353 87.5h249l32 158q28 143 -34.5 214.5t-213.5 71.5q-135 0 -244 -75.5t-131 -188.5l-50 2q27 136 148.5 226t286.5 90q159 0 240.5 -87.5t48.5 -254.5l-108 -542q-13 -60 -17.5 -112t-0.5 -106h-56q4 97 5.5 119.5t10.5 63.5l2 11l-3 1 q-75 -96 -188 -156t-257 -60q-137 0 -202.5 81t-38.5 214zM110 270q-22 -107 32 -172.5t170 -65.5q139 0 259.5 68.5t198.5 192.5l50 256h-246q-182 0 -310.5 -77t-153.5 -202zM410 1353l19 118h128l-19 -118h-128zM847 1353l19 118h127l-19 -118h-127z" />
<glyph unicode="&#xe5;" horiz-adv-x="1015" d="M61 274q30 155 168 242.5t353 87.5h249l32 158q28 143 -34.5 214.5t-213.5 71.5q-135 0 -244 -75.5t-131 -188.5l-50 2q27 136 148.5 226t286.5 90q159 0 240.5 -87.5t48.5 -254.5l-108 -542q-13 -60 -17.5 -112t-0.5 -106h-56q4 97 5.5 119.5t10.5 63.5l2 11l-3 1 q-75 -96 -188 -156t-257 -60q-137 0 -202.5 81t-38.5 214zM110 270q-22 -107 32 -172.5t170 -65.5q139 0 259.5 68.5t198.5 192.5l50 256h-246q-182 0 -310.5 -77t-153.5 -202zM570 1406q12 60 55.5 99.5t97.5 39.5q50 0 79 -41t18 -98q-13 -61 -55.5 -98t-95.5 -37 q-52 0 -82 38.5t-17 96.5zM623 1406q-8 -36 8.5 -57.5t48.5 -21.5q29 0 54 22t33 57q7 37 -8.5 59.5t-46.5 22.5q-30 0 -56.5 -23.5t-32.5 -58.5z" />
<glyph unicode="&#xe6;" horiz-adv-x="1624" d="M63 284q33 166 152 256t317 90h270l18 90q33 167 -16 247.5t-189 80.5q-148 0 -251.5 -77.5t-127.5 -199.5l-47 7q29 150 145.5 237t290.5 87q124 0 192.5 -70.5t65.5 -206.5l3 -1q74 133 183 205.5t236 72.5q172 0 250.5 -117.5t37.5 -324.5l-17 -83h-732l-2 -13 l-13 -64q-44 -219 21 -343t256 -124q93 0 179 34.5t156 96.5l19 -42q-75 -67 -158 -105t-207 -38q-131 0 -212 66t-106 185h-3l-3 -12h1q-61 -97 -174.5 -168t-264.5 -71q-154 0 -226.5 82t-43.5 223zM114 280q-25 -124 32.5 -186.5t195.5 -62.5q117 0 231.5 65.5 t147.5 128.5l70 350h-268q-168 0 -276 -84t-133 -211zM858 632h679l7 32q35 178 -27 281t-222 103q-145 0 -264.5 -116.5t-172.5 -299.5z" />
<glyph unicode="&#xe7;" horiz-adv-x="976" d="M108 520l7 42q40 256 169 398t326 142q151 0 244 -98.5t71 -278.5h-50q18 157 -60.5 240t-212.5 83q-173 0 -288 -136t-149 -350l-7 -42q-36 -228 32 -357.5t251 -129.5q126 0 231.5 73.5t138.5 221.5h50q-34 -164 -153.5 -256.5t-274.5 -92.5q-189 0 -277 148t-48 393z M271 -444l3 49q84 0 159 36t90 105q12 66 -22.5 90t-128.5 34l47 121h50l-26 -76q72 -8 109.5 -46t21.5 -123q-19 -91 -98 -140.5t-205 -49.5z" />
<glyph unicode="&#xe8;" horiz-adv-x="970" d="M96 500l10 64q39 247 182 392.5t326 145.5q167 0 255.5 -118.5t56.5 -323.5l-14 -83h-754q-2 -8 -2 -9.5v-3.5l-10 -64q-34 -207 55.5 -337t260.5 -130q86 0 162.5 30.5t157.5 101.5l21 -42q-71 -69 -154 -106.5t-195 -37.5q-183 0 -288.5 147t-69.5 374zM170 631h701 l5 33q28 175 -44.5 279.5t-225.5 104.5q-147 0 -268 -117.5t-168 -299.5zM459 1507h89l168 -266h-77z" />
<glyph unicode="&#xe9;" horiz-adv-x="970" d="M96 500l10 64q39 247 182 392.5t326 145.5q167 0 255.5 -118.5t56.5 -323.5l-14 -83h-754q-2 -8 -2 -9.5v-3.5l-10 -64q-34 -207 55.5 -337t260.5 -130q86 0 162.5 30.5t157.5 101.5l21 -42q-71 -69 -154 -106.5t-195 -37.5q-183 0 -288.5 147t-69.5 374zM170 631h701 l5 33q28 175 -44.5 279.5t-225.5 104.5q-147 0 -268 -117.5t-168 -299.5zM603 1235l251 266h79l-261 -266h-69z" />
<glyph unicode="&#xea;" horiz-adv-x="970" d="M96 500l10 64q39 247 182 392.5t326 145.5q167 0 255.5 -118.5t56.5 -323.5l-14 -83h-754q-2 -8 -2 -9.5v-3.5l-10 -64q-34 -207 55.5 -337t260.5 -130q86 0 162.5 30.5t157.5 101.5l21 -42q-71 -69 -154 -106.5t-195 -37.5q-183 0 -288.5 147t-69.5 374zM170 631h701 l5 33q28 175 -44.5 279.5t-225.5 104.5q-147 0 -268 -117.5t-168 -299.5zM433 1280l4 17l237 206h74l157 -210l-3 -13h-65l-134 186l-208 -186h-62z" />
<glyph unicode="&#xeb;" horiz-adv-x="970" d="M96 500l10 64q39 247 182 392.5t326 145.5q167 0 255.5 -118.5t56.5 -323.5l-14 -83h-754q-2 -8 -2 -9.5v-3.5l-10 -64q-34 -207 55.5 -337t260.5 -130q86 0 162.5 30.5t157.5 101.5l21 -42q-71 -69 -154 -106.5t-195 -37.5q-183 0 -288.5 147t-69.5 374zM170 631h701 l5 33q28 175 -44.5 279.5t-225.5 104.5q-147 0 -268 -117.5t-168 -299.5zM404 1352l19 118h128l-19 -118h-128zM841 1352l19 118h127l-19 -118h-127z" />
<glyph unicode="&#xec;" horiz-adv-x="388" d="M88 0l216 1082h51l-216 -1082h-51zM159 1485h89l168 -266h-77z" />
<glyph unicode="&#xed;" horiz-adv-x="388" d="M88 0l216 1082h51l-216 -1082h-51zM302 1213l251 266h79l-261 -266h-69z" />
<glyph unicode="&#xee;" horiz-adv-x="388" d="M88 0l216 1082h51l-216 -1082h-51zM133 1258l4 17l237 206h74l157 -210l-3 -13h-65l-134 186l-208 -186h-62z" />
<glyph unicode="&#xef;" horiz-adv-x="388" d="M88 0l216 1082h51l-216 -1082h-51zM104 1331l19 118h128l-19 -118h-128zM541 1331l19 118h127l-19 -118h-127z" />
<glyph unicode="&#xf0;" horiz-adv-x="1110" d="M123 446q51 255 188 381t350 126q114 0 199.5 -47t122.5 -132l3 1q19 177 -7.5 298.5t-94.5 211.5l-358 -196l-17 48l341 187q-40 41 -86.5 75t-105.5 68l28 50q66 -37 118 -78t95 -88l292 160l18 -48l-278 -152q89 -124 108 -289t-28 -407l-16 -80q-52 -260 -200.5 -408 t-340.5 -148q-182 0 -276.5 133.5t-54.5 333.5zM175 446q-35 -174 40.5 -291.5t253.5 -117.5q163 0 297 139t179 359l16 82q4 21 6 34.5t5 28.5q-19 93 -96 154t-227 61q-189 0 -311.5 -124t-162.5 -325z" />
<glyph unicode="&#xf1;" d="M80 0l216 1082h47l-43 -231l-2 -12l2 -2q70 118 176.5 191.5t230.5 73.5q155 0 216.5 -105t15.5 -337l-132 -660h-50l132 660q45 229 -7 309t-187 80q-146 0 -259.5 -113.5t-168.5 -248.5l-137 -687h-50zM399 1293q13 86 65.5 132.5t125.5 46.5q65 0 131 -62t117 -62 q46 0 85.5 39t49.5 102l50 -10q-15 -88 -69 -137t-125 -49q-67 0 -130.5 62.5t-116.5 62.5q-48 0 -86 -36.5t-48 -98.5z" />
<glyph unicode="&#xf2;" d="M99 520l7 42q40 252 182 396t344 144q192 0 292.5 -150t62.5 -390l-7 -42q-41 -253 -182.5 -397t-342.5 -144q-193 0 -294 150t-62 391zM149 520q-34 -215 47.5 -351t266.5 -136q173 0 303 141.5t163 345.5l7 42q33 211 -48.5 348.5t-263.5 137.5q-174 0 -305.5 -143 t-162.5 -343zM472 1506h89l168 -266h-77z" />
<glyph unicode="&#xf3;" d="M99 520l7 42q40 252 182 396t344 144q192 0 292.5 -150t62.5 -390l-7 -42q-41 -253 -182.5 -397t-342.5 -144q-193 0 -294 150t-62 391zM149 520q-34 -215 47.5 -351t266.5 -136q173 0 303 141.5t163 345.5l7 42q33 211 -48.5 348.5t-263.5 137.5q-174 0 -305.5 -143 t-162.5 -343zM616 1234l251 266h79l-261 -266h-69z" />
<glyph unicode="&#xf4;" d="M99 520l7 42q40 252 182 396t344 144q192 0 292.5 -150t62.5 -390l-7 -42q-41 -253 -182.5 -397t-342.5 -144q-193 0 -294 150t-62 391zM149 520q-34 -215 47.5 -351t266.5 -136q173 0 303 141.5t163 345.5l7 42q33 211 -48.5 348.5t-263.5 137.5q-174 0 -305.5 -143 t-162.5 -343zM446 1279l4 17l237 206h74l157 -210l-3 -13h-65l-134 186l-208 -186h-62z" />
<glyph unicode="&#xf5;" d="M99 520l7 42q40 252 182 396t344 144q192 0 292.5 -150t62.5 -390l-7 -42q-41 -253 -182.5 -397t-342.5 -144q-193 0 -294 150t-62 391zM149 520q-34 -215 47.5 -351t266.5 -136q173 0 303 141.5t163 345.5l7 42q33 211 -48.5 348.5t-263.5 137.5q-174 0 -305.5 -143 t-162.5 -343zM365 1293q13 86 65.5 132.5t125.5 46.5q65 0 131 -62t117 -62q46 0 85.5 39t49.5 102l50 -10q-15 -88 -69 -137t-125 -49q-67 0 -130.5 62.5t-116.5 62.5q-48 0 -86 -36.5t-48 -98.5z" />
<glyph unicode="&#xf6;" d="M99 520l7 42q40 252 182 396t344 144q192 0 292.5 -150t62.5 -390l-7 -42q-41 -253 -182.5 -397t-342.5 -144q-193 0 -294 150t-62 391zM149 520q-34 -215 47.5 -351t266.5 -136q173 0 303 141.5t163 345.5l7 42q33 211 -48.5 348.5t-263.5 137.5q-174 0 -305.5 -143 t-162.5 -343zM417 1351l19 118h128l-19 -118h-128zM854 1351l19 118h127l-19 -118h-127z" />
<glyph unicode="&#xf7;" horiz-adv-x="1088" d="M125 686l11 52h928l-11 -52h-928zM466 241l25 122h89l-25 -122h-89zM622 1020l24 122h89l-24 -122h-89z" />
<glyph unicode="&#xf8;" d="M82 -145l137 211q-81 72 -113 188t-7 266l7 42q40 252 182 396t344 144q63 0 117 -18t99 -53l123 188h59l-145 -222q70 -75 97 -185.5t5 -249.5l-7 -42q-41 -253 -182.5 -397t-342.5 -144q-57 0 -106 14t-91 43l-118 -181h-58zM149 520q-22 -134 3 -239.5t96 -170.5 l570 875q-40 31 -87.5 47t-106.5 16q-174 0 -305.5 -143t-162.5 -343zM287 80q36 -24 79.5 -35.5t96.5 -11.5q173 0 303 141.5t163 345.5l7 42q19 121 -2 220.5t-80 167.5z" />
<glyph unicode="&#xf9;" d="M169 465l123 617h50l-123 -619q-47 -233 6.5 -331.5t186.5 -98.5q153 0 254.5 83t154.5 221l149 745h51l-127 -637l-89 -445h-41l29 181l-3 1q-66 -99 -162.5 -151t-224.5 -52q-153 0 -219 117.5t-15 368.5zM503 1485h89l168 -266h-77z" />
<glyph unicode="&#xfa;" d="M169 465l123 617h50l-123 -619q-47 -233 6.5 -331.5t186.5 -98.5q153 0 254.5 83t154.5 221l149 745h51l-127 -637l-89 -445h-41l29 181l-3 1q-66 -99 -162.5 -151t-224.5 -52q-153 0 -219 117.5t-15 368.5zM647 1213l251 266h79l-261 -266h-69z" />
<glyph unicode="&#xfb;" d="M169 465l123 617h50l-123 -619q-47 -233 6.5 -331.5t186.5 -98.5q153 0 254.5 83t154.5 221l149 745h51l-127 -637l-89 -445h-41l29 181l-3 1q-66 -99 -162.5 -151t-224.5 -52q-153 0 -219 117.5t-15 368.5zM477 1258l4 17l237 206h74l157 -210l-3 -13h-65l-134 186 l-208 -186h-62z" />
<glyph unicode="&#xfc;" d="M169 465l123 617h50l-123 -619q-47 -233 6.5 -331.5t186.5 -98.5q153 0 254.5 83t154.5 221l149 745h51l-127 -637l-89 -445h-41l29 181l-3 1q-66 -99 -162.5 -151t-224.5 -52q-153 0 -219 117.5t-15 368.5zM448 1331l19 118h128l-19 -118h-128zM885 1331l19 118h127 l-19 -118h-127z" />
<glyph unicode="&#xfd;" horiz-adv-x="920" d="M-74 -426l19 51q10 -3 30 -6t30 -3q84 0 144 54.5t117 159.5l96 177l-186 1075h55l154 -886l16 -110l3 -1l11 19l543 978h56l-699 -1262q-66 -117 -132.5 -187t-187.5 -70q-17 0 -38 3.5t-31 7.5zM586 1213l251 266h79l-261 -266h-69z" />
<glyph unicode="&#xfe;" d="M-5 -416l83 416l16 83l200 999l96 478h50l-136 -681v-1q70 106 159.5 165t207.5 59q175 0 254.5 -161t27.5 -419l-4 -21q-53 -265 -167 -393.5t-296 -128.5q-120 0 -204 47.5t-120 129.5l-3 -1l-31 -155l-83 -416h-50zM179 255q18 -106 98.5 -164t220.5 -58 q156 0 255.5 120.5t144.5 347.5l4 21q47 236 -14 381t-226 145q-141 0 -232 -84t-151 -210z" />
<glyph unicode="&#xff;" horiz-adv-x="920" d="M-74 -426l19 51q10 -3 30 -6t30 -3q84 0 144 54.5t117 159.5l96 177l-186 1075h55l154 -886l16 -110l3 -1l11 19l543 978h56l-699 -1262q-66 -117 -132.5 -187t-187.5 -70q-17 0 -38 3.5t-31 7.5zM387 1331l19 118h128l-19 -118h-128zM824 1331l19 118h127l-19 -118h-127 z" />
<glyph unicode="&#x152;" horiz-adv-x="1752" d="M139 576l61 304q56 280 217 438.5t383 158.5q73 0 148.5 -6t156.5 -15h781l-11 -54h-774l-123 -616h679l-11 -54h-679l-135 -678h774l-11 -54h-781q-101 -10 -169.5 -15.5t-141.5 -5.5q-211 0 -314 164.5t-50 432.5zM189 576q-51 -254 36.5 -398.5t288.5 -144.5 q71 0 139 2.5t127 10.5l272 1363q-57 7 -120.5 10.5t-141.5 3.5q-193 0 -342 -148t-198 -393z" />
<glyph unicode="&#x153;" horiz-adv-x="1799" d="M110 520l8 42q50 252 198 396t349 144q151 0 242.5 -94.5t103.5 -255.5h3q73 165 197.5 257.5t268.5 92.5q167 0 252 -119t45 -323l-17 -83h-753l-3 -13l-13 -64q-42 -207 37 -337t242 -130q110 0 193.5 33t150.5 99l19 -42q-76 -72 -166 -108t-208 -36q-132 0 -224 95 t-104 251l-3 1q-75 -166 -201 -256.5t-284 -90.5q-193 0 -287 150t-46 391zM160 520q-43 -215 33.5 -351t260.5 -136q173 0 309 141t177 346l8 42q42 211 -34 348.5t-259 137.5q-173 0 -310 -143t-177 -343zM1020 631h701l7 33q34 175 -35.5 279.5t-222.5 104.5 q-146 0 -271 -117.5t-179 -299.5z" />
<glyph unicode="&#x178;" horiz-adv-x="1147" d="M244 1456h62l285 -809l15 -49l34 49l612 809h61l-690 -902l-110 -554h-51l110 553zM540 1662l19 118h128l-19 -118h-128zM977 1662l19 118h127l-19 -118h-127z" />
<glyph unicode="&#x2c6;" horiz-adv-x="750" d="M311 1252l4 17l237 206h74l157 -210l-3 -13h-65l-134 186l-208 -186h-62z" />
<glyph unicode="&#x2dc;" horiz-adv-x="771" d="M211 1286q13 86 65.5 132.5t125.5 46.5q65 0 131 -62t117 -62q46 0 85.5 39t49.5 102l50 -10q-15 -88 -69 -137t-125 -49q-67 0 -130.5 62.5t-116.5 62.5q-48 0 -86 -36.5t-48 -98.5z" />
<glyph unicode="&#x2000;" horiz-adv-x="932" />
<glyph unicode="&#x2001;" horiz-adv-x="1865" />
<glyph unicode="&#x2002;" horiz-adv-x="932" />
<glyph unicode="&#x2003;" horiz-adv-x="1865" />
<glyph unicode="&#x2004;" horiz-adv-x="621" />
<glyph unicode="&#x2005;" horiz-adv-x="466" />
<glyph unicode="&#x2006;" horiz-adv-x="310" />
<glyph unicode="&#x2007;" horiz-adv-x="310" />
<glyph unicode="&#x2008;" horiz-adv-x="233" />
<glyph unicode="&#x2009;" horiz-adv-x="373" />
<glyph unicode="&#x200a;" horiz-adv-x="103" />
<glyph unicode="&#x2010;" horiz-adv-x="575" d="M105 639l11 54h437l-11 -54h-437z" />
<glyph unicode="&#x2011;" horiz-adv-x="575" d="M105 639l11 54h437l-11 -54h-437z" />
<glyph unicode="&#x2012;" horiz-adv-x="575" d="M105 639l11 54h437l-11 -54h-437z" />
<glyph unicode="&#x2013;" horiz-adv-x="1323" d="M245 721l14 54h1009l-14 -54h-1009z" />
<glyph unicode="&#x2014;" horiz-adv-x="1566" d="M271 721l17 54h1242l-18 -54h-1241z" />
<glyph unicode="&#x2018;" horiz-adv-x="308" d="M240 1128l33 168q18 93 57 160t99 122l27 -32q-58 -63 -88 -118t-44 -130l-34 -170h-50z" />
<glyph unicode="&#x2019;" horiz-adv-x="308" d="M221 1143q56 62 86 117t45 131l34 169h51l-33 -167q-19 -94 -58 -161t-98 -121z" />
<glyph unicode="&#x201a;" horiz-adv-x="289" d="M-66 -150q57 62 86.5 116.5t45.5 131.5l34 170h51l-34 -168q-19 -94 -57.5 -160t-97.5 -122z" />
<glyph unicode="&#x201c;" horiz-adv-x="475" d="M240 1128l33 168q18 93 57 160t99 122l27 -32q-58 -63 -88 -118t-44 -130l-34 -170h-50zM407 1128l33 168q18 93 57 160t99 122l27 -32q-58 -63 -88 -118t-44 -130l-34 -170h-50z" />
<glyph unicode="&#x201d;" horiz-adv-x="477" d="M221 1143q56 62 86 117t45 131l34 169h51l-33 -167q-19 -94 -58 -161t-98 -121zM390 1143q56 62 86 117t45 131l34 169h51l-33 -167q-19 -94 -58 -161t-98 -121z" />
<glyph unicode="&#x201e;" horiz-adv-x="457" d="M-66 -150q57 62 86.5 116.5t45.5 131.5l34 170h51l-34 -168q-19 -94 -57.5 -160t-97.5 -122zM93 -150q57 62 87 116.5t46 131.5l34 170h50l-34 -168q-19 -94 -57.5 -160t-97.5 -122z" />
<glyph unicode="&#x2022;" horiz-adv-x="601" d="M205 703l14 70q14 74 64 117t123 43q69 0 103 -45t21 -115l-14 -70q-16 -74 -65.5 -116t-122.5 -42q-69 0 -103.5 44t-19.5 114z" />
<glyph unicode="&#x2026;" horiz-adv-x="1177" d="M116 0l24 120h80l-24 -120h-80zM473 0l24 120h80l-24 -120h-80zM817 0l24 120h80l-24 -120h-80z" />
<glyph unicode="&#x202f;" horiz-adv-x="373" />
<glyph unicode="&#x2039;" horiz-adv-x="572" d="M130 551l1 6l3 13l349 370h65l-349 -380l197 -379h-65z" />
<glyph unicode="&#x203a;" horiz-adv-x="572" d="M53 171l349 379l-195 390h65l197 -380l-2 -6h1l-3 -13l-347 -370h-65z" />
<glyph unicode="&#x205f;" horiz-adv-x="466" />
<glyph unicode="&#x20ac;" horiz-adv-x="996" d="M107 553l11 55h173l44 222h-173l11 56h173l12 56q51 258 197.5 396.5t349.5 138.5q49 0 97.5 -8t103.5 -23l-11 -58q-48 16 -97.5 25.5t-102.5 9.5q-177 0 -309.5 -127.5t-176.5 -351.5l-12 -58h552l-11 -56h-552l-44 -222h552l-11 -55h-552l-8 -39q-47 -232 32 -356.5 t264 -124.5q52 0 106 8.5t105 25.5l-11 -57q-53 -15 -105.5 -23t-105.5 -8q-194 0 -289.5 144t-45.5 391l7 39h-173z" />
<glyph unicode="&#x2122;" horiz-adv-x="1170" d="M284 1399l11 57h357l-11 -57h-148l-95 -480h-52l95 480h-157zM617 919l107 537h70l78 -455h3l263 455h64l-107 -537h-51l85 428l-3 1l-245 -429h-47l-75 442h-3l-87 -442h-52z" />
<glyph unicode="&#x25fc;" horiz-adv-x="1080" d="M0 0v1080h1080v-1080h-1080z" />
<glyph unicode="&#xfb02;" horiz-adv-x="1012" d="M156 0l205 1027h-175l11 55h175l36 178q32 162 115.5 241.5t211.5 79.5q31 0 60 -4t56 -13l-18 -52q-28 8 -50 11.5t-58 3.5q-98 0 -170 -70t-97 -197l-36 -178h266l-11 -55h-266l-205 -1027h-50zM702 0l312 1560h50l-312 -1560h-50z" />
<glyph unicode="&#xfb03;" horiz-adv-x="1612" d="M156 0l205 1027h-175l11 55h175l36 178q32 162 115.5 241.5t211.5 79.5q31 0 60 -4t56 -13l-18 -52q-28 8 -50 11.5t-58 3.5q-98 0 -170 -70t-97 -197l-36 -178h266l-11 -55h-266l-205 -1027h-50zM766 0l205 1027h-175l11 55h175l32 158q34 172 128.5 256.5t240.5 84.5 q61 0 121.5 -13.5t116.5 -43.5l-19 -52q-55 29 -103 42t-126 13q-115 0 -198.5 -75.5t-110.5 -211.5l-32 -158h266l-11 -55h-266l-205 -1027h-50zM1302 0l216 1082h50l-216 -1082h-50z" />
<glyph unicode="&#xfb04;" horiz-adv-x="1622" d="M156 0l205 1027h-175l11 55h175l36 178q32 162 115.5 241.5t211.5 79.5q31 0 60 -4t56 -13l-18 -52q-28 8 -50 11.5t-58 3.5q-98 0 -170 -70t-97 -197l-36 -178h266l-11 -55h-266l-205 -1027h-50zM766 0l205 1027h-175l11 55h175l36 178q32 162 115.5 241.5t211.5 79.5 q31 0 60 -4t56 -13l-18 -52q-28 8 -50 11.5t-58 3.5q-98 0 -170 -70t-97 -197l-36 -178h266l-11 -55h-266l-205 -1027h-50zM1312 0l312 1560h50l-312 -1560h-50z" />
<hkern u1="&#x22;" u2="w" k="-11" />
<hkern u1="&#x27;" u2="w" k="-11" />
<hkern u1="&#x28;" u2="&#x178;" k="-22" />
<hkern u1="&#x28;" u2="&#xdd;" k="-22" />
<hkern u1="&#x28;" u2="Y" k="-22" />
<hkern u1="&#x28;" u2="W" k="-18" />
<hkern u1="&#x28;" u2="V" k="-20" />
<hkern u1="&#x2f;" u2="&#x2f;" k="224" />
<hkern u1="A" u2="w" k="33" />
<hkern u1="A" u2="t" k="17" />
<hkern u1="A" u2="&#x3f;" k="61" />
<hkern u1="C" u2="&#x7d;" k="17" />
<hkern u1="C" u2="]" k="12" />
<hkern u1="C" u2="&#x29;" k="26" />
<hkern u1="D" u2="&#xc6;" k="33" />
<hkern u1="E" u2="w" k="22" />
<hkern u1="E" u2="f" k="18" />
<hkern u1="F" u2="&#x2026;" k="234" />
<hkern u1="F" u2="&#x201e;" k="234" />
<hkern u1="F" u2="&#x201a;" k="234" />
<hkern u1="F" u2="&#x153;" k="21" />
<hkern u1="F" u2="&#xff;" k="24" />
<hkern u1="F" u2="&#xfd;" k="24" />
<hkern u1="F" u2="&#xfc;" k="22" />
<hkern u1="F" u2="&#xfb;" k="22" />
<hkern u1="F" u2="&#xfa;" k="22" />
<hkern u1="F" u2="&#xf9;" k="22" />
<hkern u1="F" u2="&#xf6;" k="21" />
<hkern u1="F" u2="&#xf5;" k="21" />
<hkern u1="F" u2="&#xf4;" k="21" />
<hkern u1="F" u2="&#xf3;" k="21" />
<hkern u1="F" u2="&#xf2;" k="21" />
<hkern u1="F" u2="&#xeb;" k="21" />
<hkern u1="F" u2="&#xea;" k="21" />
<hkern u1="F" u2="&#xe9;" k="21" />
<hkern u1="F" u2="&#xe8;" k="21" />
<hkern u1="F" u2="&#xe7;" k="21" />
<hkern u1="F" u2="&#xe5;" k="34" />
<hkern u1="F" u2="&#xe4;" k="34" />
<hkern u1="F" u2="&#xe3;" k="34" />
<hkern u1="F" u2="&#xe2;" k="34" />
<hkern u1="F" u2="&#xe1;" k="34" />
<hkern u1="F" u2="&#xe0;" k="34" />
<hkern u1="F" u2="&#xc5;" k="170" />
<hkern u1="F" u2="&#xc4;" k="170" />
<hkern u1="F" u2="&#xc3;" k="170" />
<hkern u1="F" u2="&#xc2;" k="170" />
<hkern u1="F" u2="&#xc1;" k="170" />
<hkern u1="F" u2="&#xc0;" k="170" />
<hkern u1="F" u2="y" k="24" />
<hkern u1="F" u2="v" k="24" />
<hkern u1="F" u2="u" k="22" />
<hkern u1="F" u2="r" k="26" />
<hkern u1="F" u2="q" k="21" />
<hkern u1="F" u2="o" k="21" />
<hkern u1="F" u2="g" k="21" />
<hkern u1="F" u2="e" k="21" />
<hkern u1="F" u2="d" k="21" />
<hkern u1="F" u2="c" k="21" />
<hkern u1="F" u2="a" k="34" />
<hkern u1="F" u2="T" k="-20" />
<hkern u1="F" u2="J" k="264" />
<hkern u1="F" u2="A" k="170" />
<hkern u1="F" u2="&#x2e;" k="234" />
<hkern u1="F" u2="&#x2c;" k="234" />
<hkern u1="K" u2="w" k="63" />
<hkern u1="L" u2="w" k="92" />
<hkern u1="O" u2="&#xc6;" k="33" />
<hkern u1="P" u2="&#xc6;" k="97" />
<hkern u1="P" u2="t" k="-14" />
<hkern u1="Q" u2="&#x178;" k="35" />
<hkern u1="Q" u2="&#xdd;" k="35" />
<hkern u1="Q" u2="Y" k="35" />
<hkern u1="Q" u2="W" k="20" />
<hkern u1="Q" u2="V" k="28" />
<hkern u1="Q" u2="T" k="43" />
<hkern u1="R" u2="&#x178;" k="48" />
<hkern u1="R" u2="&#xdd;" k="48" />
<hkern u1="R" u2="Y" k="48" />
<hkern u1="R" u2="V" k="19" />
<hkern u1="R" u2="T" k="80" />
<hkern u1="T" u2="&#xf8;" k="95" />
<hkern u1="T" u2="&#xe6;" k="114" />
<hkern u1="T" u2="&#xc6;" k="179" />
<hkern u1="T" u2="&#xbb;" k="216" />
<hkern u1="T" u2="&#xab;" k="328" />
<hkern u1="T" u2="w" k="57" />
<hkern u1="T" u2="r" k="75" />
<hkern u1="V" u2="&#x7d;" k="-19" />
<hkern u1="V" u2="r" k="30" />
<hkern u1="V" u2="]" k="-17" />
<hkern u1="V" u2="&#x29;" k="-20" />
<hkern u1="W" u2="&#x7d;" k="-14" />
<hkern u1="W" u2="r" k="21" />
<hkern u1="W" u2="]" k="-12" />
<hkern u1="W" u2="&#x29;" k="-15" />
<hkern u1="Y" u2="&#x2022;" k="45" />
<hkern u1="Y" u2="&#xf8;" k="64" />
<hkern u1="Y" u2="&#xe6;" k="63" />
<hkern u1="Y" u2="&#xc6;" k="96" />
<hkern u1="Y" u2="&#xbb;" k="51" />
<hkern u1="Y" u2="&#xab;" k="82" />
<hkern u1="Y" u2="&#x7d;" k="-19" />
<hkern u1="Y" u2="t" k="22" />
<hkern u1="Y" u2="r" k="40" />
<hkern u1="Y" u2="f" k="22" />
<hkern u1="Y" u2="]" k="-18" />
<hkern u1="Y" u2="&#x2a;" k="49" />
<hkern u1="Y" u2="&#x29;" k="-20" />
<hkern u1="Y" u2="&#x26;" k="30" />
<hkern u1="Z" u2="w" k="27" />
<hkern u1="[" u2="&#xdc;" k="18" />
<hkern u1="[" u2="&#xdb;" k="18" />
<hkern u1="[" u2="&#xda;" k="18" />
<hkern u1="[" u2="&#xd9;" k="18" />
<hkern u1="[" u2="U" k="18" />
<hkern u1="[" u2="J" k="18" />
<hkern u1="f" u2="&#x201d;" k="-16" />
<hkern u1="f" u2="&#x201c;" k="-16" />
<hkern u1="f" u2="&#x2019;" k="-16" />
<hkern u1="f" u2="&#x2018;" k="-16" />
<hkern u1="f" u2="&#x153;" k="24" />
<hkern u1="f" u2="&#xeb;" k="24" />
<hkern u1="f" u2="&#xea;" k="24" />
<hkern u1="f" u2="&#xe9;" k="24" />
<hkern u1="f" u2="&#xe8;" k="24" />
<hkern u1="f" u2="&#xe7;" k="24" />
<hkern u1="f" u2="&#x7d;" k="-19" />
<hkern u1="f" u2="q" k="24" />
<hkern u1="f" u2="g" k="24" />
<hkern u1="f" u2="e" k="24" />
<hkern u1="f" u2="d" k="24" />
<hkern u1="f" u2="c" k="24" />
<hkern u1="f" u2="]" k="-18" />
<hkern u1="f" u2="&#x29;" k="-20" />
<hkern u1="f" u2="&#x27;" k="-16" />
<hkern u1="f" u2="&#x22;" k="-16" />
<hkern u1="k" u2="&#x153;" k="20" />
<hkern u1="k" u2="&#xeb;" k="20" />
<hkern u1="k" u2="&#xea;" k="20" />
<hkern u1="k" u2="&#xe9;" k="20" />
<hkern u1="k" u2="&#xe8;" k="20" />
<hkern u1="k" u2="&#xe7;" k="20" />
<hkern u1="k" u2="q" k="20" />
<hkern u1="k" u2="g" k="20" />
<hkern u1="k" u2="e" k="20" />
<hkern u1="k" u2="d" k="20" />
<hkern u1="k" u2="c" k="20" />
<hkern u1="r" u2="w" k="-17" />
<hkern u1="r" u2="t" k="-32" />
<hkern u1="r" u2="f" k="-15" />
<hkern u1="t" u2="&#xf6;" k="20" />
<hkern u1="t" u2="&#xf5;" k="20" />
<hkern u1="t" u2="&#xf4;" k="20" />
<hkern u1="t" u2="&#xf3;" k="20" />
<hkern u1="t" u2="&#xf2;" k="20" />
<hkern u1="t" u2="o" k="20" />
<hkern u1="v" u2="f" k="-13" />
<hkern u1="w" u2="&#x2026;" k="124" />
<hkern u1="w" u2="&#x201e;" k="124" />
<hkern u1="w" u2="&#x201a;" k="124" />
<hkern u1="w" u2="&#x2e;" k="124" />
<hkern u1="w" u2="&#x2c;" k="124" />
<hkern u1="y" u2="f" k="-13" />
<hkern u1="&#x7b;" u2="&#xdc;" k="20" />
<hkern u1="&#x7b;" u2="&#xdb;" k="20" />
<hkern u1="&#x7b;" u2="&#xda;" k="20" />
<hkern u1="&#x7b;" u2="&#xd9;" k="20" />
<hkern u1="&#x7b;" u2="U" k="20" />
<hkern u1="&#x7b;" u2="J" k="20" />
<hkern u1="&#xc0;" u2="w" k="33" />
<hkern u1="&#xc0;" u2="t" k="17" />
<hkern u1="&#xc0;" u2="&#x3f;" k="61" />
<hkern u1="&#xc1;" u2="w" k="33" />
<hkern u1="&#xc1;" u2="t" k="17" />
<hkern u1="&#xc1;" u2="&#x3f;" k="61" />
<hkern u1="&#xc2;" u2="w" k="33" />
<hkern u1="&#xc2;" u2="t" k="17" />
<hkern u1="&#xc2;" u2="&#x3f;" k="61" />
<hkern u1="&#xc3;" u2="w" k="33" />
<hkern u1="&#xc3;" u2="t" k="17" />
<hkern u1="&#xc3;" u2="&#x3f;" k="61" />
<hkern u1="&#xc4;" u2="w" k="33" />
<hkern u1="&#xc4;" u2="t" k="17" />
<hkern u1="&#xc4;" u2="&#x3f;" k="61" />
<hkern u1="&#xc5;" u2="w" k="33" />
<hkern u1="&#xc5;" u2="t" k="17" />
<hkern u1="&#xc5;" u2="&#x3f;" k="61" />
<hkern u1="&#xc7;" u2="&#x7d;" k="17" />
<hkern u1="&#xc7;" u2="]" k="12" />
<hkern u1="&#xc7;" u2="&#x29;" k="26" />
<hkern u1="&#xc8;" u2="w" k="22" />
<hkern u1="&#xc8;" u2="f" k="18" />
<hkern u1="&#xc9;" u2="w" k="22" />
<hkern u1="&#xc9;" u2="f" k="18" />
<hkern u1="&#xca;" u2="w" k="22" />
<hkern u1="&#xca;" u2="f" k="18" />
<hkern u1="&#xcb;" u2="w" k="22" />
<hkern u1="&#xcb;" u2="f" k="18" />
<hkern u1="&#xd0;" u2="&#xc6;" k="33" />
<hkern u1="&#xd2;" u2="&#xc6;" k="33" />
<hkern u1="&#xd3;" u2="&#xc6;" k="33" />
<hkern u1="&#xd4;" u2="&#xc6;" k="33" />
<hkern u1="&#xd5;" u2="&#xc6;" k="33" />
<hkern u1="&#xd6;" u2="&#xc6;" k="33" />
<hkern u1="&#xdd;" u2="&#x2022;" k="45" />
<hkern u1="&#xdd;" u2="&#xf8;" k="64" />
<hkern u1="&#xdd;" u2="&#xe6;" k="63" />
<hkern u1="&#xdd;" u2="&#xc6;" k="96" />
<hkern u1="&#xdd;" u2="&#xbb;" k="51" />
<hkern u1="&#xdd;" u2="&#xab;" k="82" />
<hkern u1="&#xdd;" u2="&#x7d;" k="-19" />
<hkern u1="&#xdd;" u2="t" k="22" />
<hkern u1="&#xdd;" u2="r" k="40" />
<hkern u1="&#xdd;" u2="f" k="22" />
<hkern u1="&#xdd;" u2="]" k="-18" />
<hkern u1="&#xdd;" u2="&#x2a;" k="49" />
<hkern u1="&#xdd;" u2="&#x29;" k="-20" />
<hkern u1="&#xdd;" u2="&#x26;" k="30" />
<hkern u1="&#xfd;" u2="f" k="-13" />
<hkern u1="&#xff;" u2="f" k="-13" />
<hkern u1="&#x178;" u2="&#x2022;" k="45" />
<hkern u1="&#x178;" u2="&#xf8;" k="64" />
<hkern u1="&#x178;" u2="&#xe6;" k="63" />
<hkern u1="&#x178;" u2="&#xc6;" k="96" />
<hkern u1="&#x178;" u2="&#xbb;" k="51" />
<hkern u1="&#x178;" u2="&#xab;" k="82" />
<hkern u1="&#x178;" u2="&#x7d;" k="-19" />
<hkern u1="&#x178;" u2="t" k="22" />
<hkern u1="&#x178;" u2="r" k="40" />
<hkern u1="&#x178;" u2="f" k="22" />
<hkern u1="&#x178;" u2="]" k="-18" />
<hkern u1="&#x178;" u2="&#x2a;" k="49" />
<hkern u1="&#x178;" u2="&#x29;" k="-20" />
<hkern u1="&#x178;" u2="&#x26;" k="30" />
<hkern u1="&#x2018;" u2="w" k="-11" />
<hkern u1="&#x2019;" u2="w" k="-11" />
<hkern u1="&#x201c;" u2="w" k="-11" />
<hkern u1="&#x201d;" u2="w" k="-11" />
<hkern g1="A,Agrave,Aacute,Acircumflex,Atilde,Adieresis,Aring" 	g2="v,y,yacute,ydieresis" 	k="50" />
<hkern g1="A,Agrave,Aacute,Acircumflex,Atilde,Adieresis,Aring" 	g2="C,G,O,Q,Ccedilla,Ograve,Oacute,Ocircumflex,Otilde,Odieresis,Oslash,OE" 	k="11" />
<hkern g1="A,Agrave,Aacute,Acircumflex,Atilde,Adieresis,Aring" 	g2="U,Ugrave,Uacute,Ucircumflex,Udieresis" 	k="17" />
<hkern g1="A,Agrave,Aacute,Acircumflex,Atilde,Adieresis,Aring" 	g2="quotedbl,quotesingle,quoteleft,quoteright,quotedblleft,quotedblright" 	k="120" />
<hkern g1="A,Agrave,Aacute,Acircumflex,Atilde,Adieresis,Aring" 	g2="o,ograve,oacute,ocircumflex,otilde,odieresis" 	k="12" />
<hkern g1="A,Agrave,Aacute,Acircumflex,Atilde,Adieresis,Aring" 	g2="W" 	k="69" />
<hkern g1="A,Agrave,Aacute,Acircumflex,Atilde,Adieresis,Aring" 	g2="T" 	k="129" />
<hkern g1="A,Agrave,Aacute,Acircumflex,Atilde,Adieresis,Aring" 	g2="u,ugrave,uacute,ucircumflex,udieresis" 	k="11" />
<hkern g1="A,Agrave,Aacute,Acircumflex,Atilde,Adieresis,Aring" 	g2="z" 	k="-12" />
<hkern g1="A,Agrave,Aacute,Acircumflex,Atilde,Adieresis,Aring" 	g2="V" 	k="87" />
<hkern g1="A,Agrave,Aacute,Acircumflex,Atilde,Adieresis,Aring" 	g2="Y,Yacute,Ydieresis" 	k="94" />
<hkern g1="B" 	g2="T" 	k="27" />
<hkern g1="B" 	g2="V" 	k="24" />
<hkern g1="B" 	g2="Y,Yacute,Ydieresis" 	k="55" />
<hkern g1="H,I,M,N,Igrave,Iacute,Icircumflex,Idieresis,Ntilde" 	g2="T" 	k="29" />
<hkern g1="H,I,M,N,Igrave,Iacute,Icircumflex,Idieresis,Ntilde" 	g2="Y,Yacute,Ydieresis" 	k="28" />
<hkern g1="H,I,M,N,Igrave,Iacute,Icircumflex,Idieresis,Ntilde" 	g2="A,Agrave,Aacute,Acircumflex,Atilde,Adieresis,Aring" 	k="-18" />
<hkern g1="H,I,M,N,Igrave,Iacute,Icircumflex,Idieresis,Ntilde" 	g2="X" 	k="-17" />
<hkern g1="D,O,Eth,Ograve,Oacute,Ocircumflex,Otilde,Odieresis" 	g2="T" 	k="27" />
<hkern g1="D,O,Eth,Ograve,Oacute,Ocircumflex,Otilde,Odieresis" 	g2="V" 	k="22" />
<hkern g1="D,O,Eth,Ograve,Oacute,Ocircumflex,Otilde,Odieresis" 	g2="Y,Yacute,Ydieresis" 	k="43" />
<hkern g1="D,O,Eth,Ograve,Oacute,Ocircumflex,Otilde,Odieresis" 	g2="A,Agrave,Aacute,Acircumflex,Atilde,Adieresis,Aring" 	k="21" />
<hkern g1="D,O,Eth,Ograve,Oacute,Ocircumflex,Otilde,Odieresis" 	g2="X" 	k="22" />
<hkern g1="D,O,Eth,Ograve,Oacute,Ocircumflex,Otilde,Odieresis" 	g2="comma,period,quotesinglbase,quotedblbase,ellipsis" 	k="102" />
<hkern g1="D,O,Eth,Ograve,Oacute,Ocircumflex,Otilde,Odieresis" 	g2="Z" 	k="23" />
<hkern g1="C,Ccedilla" 	g2="T" 	k="29" />
<hkern g1="E,Egrave,Eacute,Ecircumflex,Edieresis" 	g2="v,y,yacute,ydieresis" 	k="26" />
<hkern g1="E,Egrave,Eacute,Ecircumflex,Edieresis" 	g2="o,ograve,oacute,ocircumflex,otilde,odieresis" 	k="19" />
<hkern g1="E,Egrave,Eacute,Ecircumflex,Edieresis" 	g2="T" 	k="-20" />
<hkern g1="E,Egrave,Eacute,Ecircumflex,Edieresis" 	g2="u,ugrave,uacute,ucircumflex,udieresis" 	k="17" />
<hkern g1="E,Egrave,Eacute,Ecircumflex,Edieresis" 	g2="c,d,e,g,q,ccedilla,egrave,eacute,ecircumflex,edieresis,oe" 	k="19" />
<hkern g1="T" 	g2="v,y,yacute,ydieresis" 	k="72" />
<hkern g1="T" 	g2="C,G,O,Q,Ccedilla,Ograve,Oacute,Ocircumflex,Otilde,Odieresis,Oslash,OE" 	k="28" />
<hkern g1="T" 	g2="o,ograve,oacute,ocircumflex,otilde,odieresis" 	k="99" />
<hkern g1="T" 	g2="W" 	k="-15" />
<hkern g1="T" 	g2="T" 	k="-16" />
<hkern g1="T" 	g2="u,ugrave,uacute,ucircumflex,udieresis" 	k="95" />
<hkern g1="T" 	g2="z" 	k="60" />
<hkern g1="T" 	g2="V" 	k="-16" />
<hkern g1="T" 	g2="Y,Yacute,Ydieresis" 	k="-16" />
<hkern g1="T" 	g2="A,Agrave,Aacute,Acircumflex,Atilde,Adieresis,Aring" 	k="79" />
<hkern g1="T" 	g2="comma,period,quotesinglbase,quotedblbase,ellipsis" 	k="218" />
<hkern g1="T" 	g2="c,d,e,g,q,ccedilla,egrave,eacute,ecircumflex,edieresis,oe" 	k="99" />
<hkern g1="T" 	g2="x" 	k="77" />
<hkern g1="T" 	g2="hyphen,uni00AD,endash,emdash" 	k="232" />
<hkern g1="T" 	g2="m,n,p,ntilde" 	k="109" />
<hkern g1="T" 	g2="S" 	k="16" />
<hkern g1="T" 	g2="a,agrave,aacute,acircumflex,atilde,adieresis,aring" 	k="113" />
<hkern g1="T" 	g2="s" 	k="116" />
<hkern g1="T" 	g2="J" 	k="240" />
<hkern g1="K" 	g2="v,y,yacute,ydieresis" 	k="40" />
<hkern g1="K" 	g2="C,G,O,Q,Ccedilla,Ograve,Oacute,Ocircumflex,Otilde,Odieresis,Oslash,OE" 	k="31" />
<hkern g1="K" 	g2="o,ograve,oacute,ocircumflex,otilde,odieresis" 	k="27" />
<hkern g1="K" 	g2="u,ugrave,uacute,ucircumflex,udieresis" 	k="23" />
<hkern g1="K" 	g2="c,d,e,g,q,ccedilla,egrave,eacute,ecircumflex,edieresis,oe" 	k="26" />
<hkern g1="K" 	g2="hyphen,uni00AD,endash,emdash" 	k="64" />
<hkern g1="K" 	g2="m,n,p,ntilde" 	k="23" />
<hkern g1="L" 	g2="v,y,yacute,ydieresis" 	k="133" />
<hkern g1="L" 	g2="C,G,O,Q,Ccedilla,Ograve,Oacute,Ocircumflex,Otilde,Odieresis,Oslash,OE" 	k="65" />
<hkern g1="L" 	g2="U,Ugrave,Uacute,Ucircumflex,Udieresis" 	k="54" />
<hkern g1="L" 	g2="quotedbl,quotesingle,quoteleft,quoteright,quotedblleft,quotedblright" 	k="138" />
<hkern g1="L" 	g2="W" 	k="143" />
<hkern g1="L" 	g2="T" 	k="275" />
<hkern g1="L" 	g2="u,ugrave,uacute,ucircumflex,udieresis" 	k="44" />
<hkern g1="L" 	g2="V" 	k="175" />
<hkern g1="L" 	g2="Y,Yacute,Ydieresis" 	k="239" />
<hkern g1="L" 	g2="A,Agrave,Aacute,Acircumflex,Atilde,Adieresis,Aring" 	k="-19" />
<hkern g1="P" 	g2="v,y,yacute,ydieresis" 	k="-15" />
<hkern g1="P" 	g2="o,ograve,oacute,ocircumflex,otilde,odieresis" 	k="13" />
<hkern g1="P" 	g2="A,Agrave,Aacute,Acircumflex,Atilde,Adieresis,Aring" 	k="138" />
<hkern g1="P" 	g2="X" 	k="31" />
<hkern g1="P" 	g2="comma,period,quotesinglbase,quotedblbase,ellipsis" 	k="324" />
<hkern g1="P" 	g2="Z" 	k="26" />
<hkern g1="P" 	g2="c,d,e,g,q,ccedilla,egrave,eacute,ecircumflex,edieresis,oe" 	k="13" />
<hkern g1="P" 	g2="a,agrave,aacute,acircumflex,atilde,adieresis,aring" 	k="11" />
<hkern g1="P" 	g2="J" 	k="200" />
<hkern g1="J,U,Ugrave,Uacute,Ucircumflex,Udieresis" 	g2="A,Agrave,Aacute,Acircumflex,Atilde,Adieresis,Aring" 	k="22" />
<hkern g1="V" 	g2="v,y,yacute,ydieresis" 	k="11" />
<hkern g1="V" 	g2="C,G,O,Q,Ccedilla,Ograve,Oacute,Ocircumflex,Otilde,Odieresis,Oslash,OE" 	k="13" />
<hkern g1="V" 	g2="o,ograve,oacute,ocircumflex,otilde,odieresis" 	k="46" />
<hkern g1="V" 	g2="u,ugrave,uacute,ucircumflex,udieresis" 	k="28" />
<hkern g1="V" 	g2="A,Agrave,Aacute,Acircumflex,Atilde,Adieresis,Aring" 	k="75" />
<hkern g1="V" 	g2="comma,period,quotesinglbase,quotedblbase,ellipsis" 	k="225" />
<hkern g1="V" 	g2="c,d,e,g,q,ccedilla,egrave,eacute,ecircumflex,edieresis,oe" 	k="44" />
<hkern g1="V" 	g2="hyphen,uni00AD,endash,emdash" 	k="37" />
<hkern g1="V" 	g2="a,agrave,aacute,acircumflex,atilde,adieresis,aring" 	k="46" />
<hkern g1="X" 	g2="v,y,yacute,ydieresis" 	k="31" />
<hkern g1="X" 	g2="C,G,O,Q,Ccedilla,Ograve,Oacute,Ocircumflex,Otilde,Odieresis,Oslash,OE" 	k="25" />
<hkern g1="X" 	g2="o,ograve,oacute,ocircumflex,otilde,odieresis" 	k="21" />
<hkern g1="X" 	g2="u,ugrave,uacute,ucircumflex,udieresis" 	k="21" />
<hkern g1="X" 	g2="V" 	k="-14" />
<hkern g1="X" 	g2="c,d,e,g,q,ccedilla,egrave,eacute,ecircumflex,edieresis,oe" 	k="26" />
<hkern g1="X" 	g2="hyphen,uni00AD,endash,emdash" 	k="46" />
<hkern g1="Y,Yacute,Ydieresis" 	g2="v,y,yacute,ydieresis" 	k="20" />
<hkern g1="Y,Yacute,Ydieresis" 	g2="C,G,O,Q,Ccedilla,Ograve,Oacute,Ocircumflex,Otilde,Odieresis,Oslash,OE" 	k="29" />
<hkern g1="Y,Yacute,Ydieresis" 	g2="U,Ugrave,Uacute,Ucircumflex,Udieresis" 	k="96" />
<hkern g1="Y,Yacute,Ydieresis" 	g2="o,ograve,oacute,ocircumflex,otilde,odieresis" 	k="65" />
<hkern g1="Y,Yacute,Ydieresis" 	g2="W" 	k="-17" />
<hkern g1="Y,Yacute,Ydieresis" 	g2="T" 	k="-17" />
<hkern g1="Y,Yacute,Ydieresis" 	g2="u,ugrave,uacute,ucircumflex,udieresis" 	k="39" />
<hkern g1="Y,Yacute,Ydieresis" 	g2="z" 	k="30" />
<hkern g1="Y,Yacute,Ydieresis" 	g2="V" 	k="-18" />
<hkern g1="Y,Yacute,Ydieresis" 	g2="Y,Yacute,Ydieresis" 	k="-18" />
<hkern g1="Y,Yacute,Ydieresis" 	g2="A,Agrave,Aacute,Acircumflex,Atilde,Adieresis,Aring" 	k="94" />
<hkern g1="Y,Yacute,Ydieresis" 	g2="X" 	k="-13" />
<hkern g1="Y,Yacute,Ydieresis" 	g2="comma,period,quotesinglbase,quotedblbase,ellipsis" 	k="211" />
<hkern g1="Y,Yacute,Ydieresis" 	g2="c,d,e,g,q,ccedilla,egrave,eacute,ecircumflex,edieresis,oe" 	k="65" />
<hkern g1="Y,Yacute,Ydieresis" 	g2="x" 	k="23" />
<hkern g1="Y,Yacute,Ydieresis" 	g2="hyphen,uni00AD,endash,emdash" 	k="52" />
<hkern g1="Y,Yacute,Ydieresis" 	g2="m,n,p,ntilde" 	k="40" />
<hkern g1="Y,Yacute,Ydieresis" 	g2="S" 	k="16" />
<hkern g1="Y,Yacute,Ydieresis" 	g2="a,agrave,aacute,acircumflex,atilde,adieresis,aring" 	k="73" />
<hkern g1="Y,Yacute,Ydieresis" 	g2="s" 	k="58" />
<hkern g1="Y,Yacute,Ydieresis" 	g2="J" 	k="96" />
<hkern g1="W" 	g2="o,ograve,oacute,ocircumflex,otilde,odieresis" 	k="31" />
<hkern g1="W" 	g2="T" 	k="-14" />
<hkern g1="W" 	g2="u,ugrave,uacute,ucircumflex,udieresis" 	k="19" />
<hkern g1="W" 	g2="A,Agrave,Aacute,Acircumflex,Atilde,Adieresis,Aring" 	k="43" />
<hkern g1="W" 	g2="comma,period,quotesinglbase,quotedblbase,ellipsis" 	k="123" />
<hkern g1="W" 	g2="c,d,e,g,q,ccedilla,egrave,eacute,ecircumflex,edieresis,oe" 	k="31" />
<hkern g1="W" 	g2="hyphen,uni00AD,endash,emdash" 	k="60" />
<hkern g1="W" 	g2="a,agrave,aacute,acircumflex,atilde,adieresis,aring" 	k="33" />
<hkern g1="Z" 	g2="v,y,yacute,ydieresis" 	k="27" />
<hkern g1="Z" 	g2="C,G,O,Q,Ccedilla,Ograve,Oacute,Ocircumflex,Otilde,Odieresis,Oslash,OE" 	k="26" />
<hkern g1="Z" 	g2="o,ograve,oacute,ocircumflex,otilde,odieresis" 	k="21" />
<hkern g1="Z" 	g2="u,ugrave,uacute,ucircumflex,udieresis" 	k="19" />
<hkern g1="Z" 	g2="A,Agrave,Aacute,Acircumflex,Atilde,Adieresis,Aring" 	k="-13" />
<hkern g1="Z" 	g2="c,d,e,g,q,ccedilla,egrave,eacute,ecircumflex,edieresis,oe" 	k="21" />
<hkern g1="a,agrave,aacute,acircumflex,atilde,adieresis,aring" 	g2="v,y,yacute,ydieresis" 	k="15" />
<hkern g1="a,agrave,aacute,acircumflex,atilde,adieresis,aring" 	g2="quotedbl,quotesingle,quoteleft,quoteright,quotedblleft,quotedblright" 	k="67" />
<hkern g1="c,ccedilla" 	g2="quotedbl,quotesingle,quoteleft,quoteright,quotedblleft,quotedblright" 	k="11" />
<hkern g1="b,p,thorn" 	g2="v,y,yacute,ydieresis" 	k="11" />
<hkern g1="b,p,thorn" 	g2="quotedbl,quotesingle,quoteleft,quoteright,quotedblleft,quotedblright" 	k="29" />
<hkern g1="b,p,thorn" 	g2="z" 	k="15" />
<hkern g1="b,p,thorn" 	g2="x" 	k="15" />
<hkern g1="e,egrave,eacute,ecircumflex,edieresis" 	g2="v,y,yacute,ydieresis" 	k="13" />
<hkern g1="e,egrave,eacute,ecircumflex,edieresis" 	g2="quotedbl,quotesingle,quoteleft,quoteright,quotedblleft,quotedblright" 	k="14" />
<hkern g1="h,m,n,ntilde" 	g2="quotedbl,quotesingle,quoteleft,quoteright,quotedblleft,quotedblright" 	k="16" />
<hkern g1="o,ograve,oacute,ocircumflex,otilde,odieresis" 	g2="v,y,yacute,ydieresis" 	k="15" />
<hkern g1="o,ograve,oacute,ocircumflex,otilde,odieresis" 	g2="quotedbl,quotesingle,quoteleft,quoteright,quotedblleft,quotedblright" 	k="20" />
<hkern g1="o,ograve,oacute,ocircumflex,otilde,odieresis" 	g2="z" 	k="16" />
<hkern g1="o,ograve,oacute,ocircumflex,otilde,odieresis" 	g2="x" 	k="21" />
<hkern g1="v,y,yacute,ydieresis" 	g2="quotedbl,quotesingle,quoteleft,quoteright,quotedblleft,quotedblright" 	k="-15" />
<hkern g1="v,y,yacute,ydieresis" 	g2="o,ograve,oacute,ocircumflex,otilde,odieresis" 	k="15" />
<hkern g1="v,y,yacute,ydieresis" 	g2="comma,period,quotesinglbase,quotedblbase,ellipsis" 	k="107" />
<hkern g1="v,y,yacute,ydieresis" 	g2="c,d,e,g,q,ccedilla,egrave,eacute,ecircumflex,edieresis,oe" 	k="13" />
<hkern g1="v,y,yacute,ydieresis" 	g2="a,agrave,aacute,acircumflex,atilde,adieresis,aring" 	k="15" />
<hkern g1="r" 	g2="v,y,yacute,ydieresis" 	k="-18" />
<hkern g1="r" 	g2="quotedbl,quotesingle,quoteleft,quoteright,quotedblleft,quotedblright" 	k="-16" />
<hkern g1="r" 	g2="o,ograve,oacute,ocircumflex,otilde,odieresis" 	k="20" />
<hkern g1="r" 	g2="comma,period,quotesinglbase,quotedblbase,ellipsis" 	k="123" />
<hkern g1="r" 	g2="c,d,e,g,q,ccedilla,egrave,eacute,ecircumflex,edieresis,oe" 	k="19" />
<hkern g1="x" 	g2="o,ograve,oacute,ocircumflex,otilde,odieresis" 	k="20" />
<hkern g1="x" 	g2="c,d,e,g,q,ccedilla,egrave,eacute,ecircumflex,edieresis,oe" 	k="20" />
<hkern g1="z" 	g2="o,ograve,oacute,ocircumflex,otilde,odieresis" 	k="16" />
<hkern g1="z" 	g2="c,d,e,g,q,ccedilla,egrave,eacute,ecircumflex,edieresis,oe" 	k="16" />
<hkern g1="quotedbl,quotesingle,quoteleft,quoteright,quotedblleft,quotedblright" 	g2="quotedbl,quotesingle,quoteleft,quoteright,quotedblleft,quotedblright" 	k="107" />
<hkern g1="quotedbl,quotesingle,quoteleft,quoteright,quotedblleft,quotedblright" 	g2="o,ograve,oacute,ocircumflex,otilde,odieresis" 	k="61" />
<hkern g1="quotedbl,quotesingle,quoteleft,quoteright,quotedblleft,quotedblright" 	g2="A,Agrave,Aacute,Acircumflex,Atilde,Adieresis,Aring" 	k="120" />
<hkern g1="quotedbl,quotesingle,quoteleft,quoteright,quotedblleft,quotedblright" 	g2="c,d,e,g,q,ccedilla,egrave,eacute,ecircumflex,edieresis,oe" 	k="59" />
<hkern g1="quotedbl,quotesingle,quoteleft,quoteright,quotedblleft,quotedblright" 	g2="m,n,p,ntilde" 	k="20" />
<hkern g1="quotedbl,quotesingle,quoteleft,quoteright,quotedblleft,quotedblright" 	g2="a,agrave,aacute,acircumflex,atilde,adieresis,aring" 	k="50" />
<hkern g1="quotedbl,quotesingle,quoteleft,quoteright,quotedblleft,quotedblright" 	g2="s" 	k="80" />
<hkern g1="comma,period,quotesinglbase,quotedblbase,ellipsis" 	g2="quotedbl,quotesingle,quoteleft,quoteright,quotedblleft,quotedblright" 	k="170" />
</font>
</defs></svg> 