<?xml version="1.0" standalone="no"?>
<!DOCTYPE svg PUBLIC "-//W3C//DTD SVG 1.1//EN" "http://www.w3.org/Graphics/SVG/1.1/DTD/svg11.dtd" >
<svg xmlns="http://www.w3.org/2000/svg" xmlns:xlink="http://www.w3.org/1999/xlink" version="1.1">
<metadata></metadata>
<defs>
<font id="robotomedium_italic" horiz-adv-x="1092" >
<font-face units-per-em="2048" ascent="1536" descent="-512" />
<missing-glyph horiz-adv-x="486" />
<glyph unicode="&#xfb01;" horiz-adv-x="1127" d="M91 0l180 902h-152l36 180h152l19 92q42 212 166.5 309.5t329.5 97.5q65 0 130 -15.5t145 -44.5l-77 -201q-51 21 -104.5 34.5t-118.5 13.5q-96 0 -154.5 -48.5t-77.5 -145.5l-19 -92h193l-36 -180h-193l-180 -902h-239zM666 0l216 1082h239l-216 -1082h-239z" />
<glyph horiz-adv-x="0" />
<glyph unicode="&#xd;" horiz-adv-x="486" />
<glyph horiz-adv-x="0" />
<glyph horiz-adv-x="0" />
<glyph horiz-adv-x="10" />
<glyph unicode="&#x9;" horiz-adv-x="10" />
<glyph unicode=" "  horiz-adv-x="486" />
<glyph unicode="&#x09;" horiz-adv-x="486" />
<glyph unicode="&#xa0;" horiz-adv-x="486" />
<glyph unicode="!" horiz-adv-x="531" d="M64 0l47 234h236l-47 -234h-236zM160 491l193 965h240l-193 -965h-240z" />
<glyph unicode="&#x22;" horiz-adv-x="638" d="M170 1020l62 392l24 148h171l-22 -137l-120 -403h-115zM475 1020l63 400l23 140h172l-22 -137l-121 -403h-115z" />
<glyph unicode="#" horiz-adv-x="1171" d="M57 410l32 158h240l117 313h-224l32 159h251l156 416h163l-156 -416h199l156 416h164l-156 -416h190l-32 -159h-218l-117 -313h204l-32 -158h-231l-153 -410h-163l153 410h-199l-153 -410h-163l153 410h-213zM492 568h199l117 313h-199z" />
<glyph unicode="$" horiz-adv-x="1096" d="M98 443h239q-25 -151 25.5 -207.5t146.5 -56.5q97 0 160.5 53.5t79.5 147.5q14 90 -25 142.5t-151 100.5q-190 73 -270.5 172t-51.5 278q27 175 135 277t277 122l35 219h156l-36 -222q152 -28 223 -146.5t40 -317.5h-238q21 132 -16 201.5t-126 69.5q-87 0 -142 -54.5 t-69 -146.5q-15 -91 23.5 -141.5t157.5 -101.5q189 -77 267 -174.5t50 -275.5q-30 -183 -140.5 -281.5t-288.5 -116.5l-31 -195h-156l31 195q-161 21 -251 131t-54 328z" />
<glyph unicode="%" horiz-adv-x="1407" d="M232 1099l15 77q28 139 118.5 220t230.5 81q129 0 192 -86.5t38 -214.5l-15 -77q-29 -139 -119 -219t-229 -80q-129 0 -193 86t-38 213zM263 181l890 1138l107 -72l-889 -1138zM397 1099q-14 -70 9 -111.5t86 -41.5q56 0 98 44.5t55 108.5l15 77q14 70 -9 112.5t-84 42.5 q-57 0 -100 -45.5t-55 -109.5zM715 279l15 78q28 138 119 219t230 81q129 0 192 -86.5t38 -213.5l-15 -78q-29 -140 -119 -220t-229 -80q-129 0 -193 86t-38 214zM880 279q-15 -69 9.5 -111.5t85.5 -42.5q59 0 99.5 43.5t54.5 110.5l15 78q14 69 -9 111.5t-85 42.5 q-57 0 -100 -45.5t-55 -108.5z" />
<glyph unicode="&#x26;" horiz-adv-x="1232" d="M52 393q19 127 93 209t222 177q-55 98 -76 173t-8 157q29 182 138 275t280 93q147 0 227.5 -95t59.5 -231q-17 -104 -75 -176.5t-163 -143.5l-100 -69l220 -355q46 63 76.5 134t44.5 153h193q-24 -144 -74.5 -254.5t-135.5 -200.5l149 -239h-276l-57 91 q-87 -57 -175 -84.5t-184 -27.5q-200 0 -304.5 114.5t-74.5 299.5zM292 401q-17 -105 28.5 -166.5t148.5 -61.5q55 0 112 17.5t114 53.5l-238 384l-28 -19q-73 -57 -101 -107.5t-36 -100.5zM508 1112q-8 -50 6 -97.5t49 -109.5l109 71q60 38 83 77t32 90q8 57 -23 98t-94 41 t-107 -49t-55 -121z" />
<glyph unicode="'" horiz-adv-x="332" d="M172 1028l62 390l23 142h181l-20 -125l-131 -407h-115z" />
<glyph unicode="(" horiz-adv-x="663" d="M145 576l3 16q66 418 252.5 680t382.5 359l23 -142q-142 -105 -264 -325.5t-177 -569.5l-3 -20q-59 -364 -8 -575.5t162 -326.5l-68 -135q-162 95 -264.5 366.5t-38.5 672.5z" />
<glyph unicode=")" horiz-adv-x="666" d="M-102 -328q140 105 263.5 328.5t179.5 573.5l3 20q57 360 3.5 575.5t-158.5 325.5l70 136q162 -94 267.5 -369.5t42.5 -669.5l-3 -16q-66 -412 -255.5 -677t-386.5 -362z" />
<glyph unicode="*" horiz-adv-x="845" d="M157 1061l86 169l247 -117l55 343h170l-84 -350l289 115l18 -171l-296 -88l125 -266l-159 -105l-102 287l-214 -279l-120 102l239 271z" />
<glyph unicode="+" horiz-adv-x="1070" d="M99 579l44 222h350l81 405h232l-81 -405h346l-44 -222h-347l-86 -433h-232l86 433h-349z" />
<glyph unicode="," horiz-adv-x="433" d="M-100 -263q56 73 90.5 146.5t52.5 163.5l38 188h226l-37 -180q-22 -109 -92.5 -215t-168.5 -181z" />
<glyph unicode="-" horiz-adv-x="640" d="M91 521l39 196h492l-39 -196h-492z" />
<glyph unicode="." horiz-adv-x="551" d="M61 0l47 233h236l-47 -233h-236z" />
<glyph unicode="/" horiz-adv-x="765" d="M-106 -125l847 1581h186l-846 -1581h-187z" />
<glyph unicode="0" horiz-adv-x="1096" d="M127 561l67 333q61 308 204 445.5t359 137.5q196 0 291.5 -150t39.5 -433l-67 -333q-62 -309 -204.5 -445.5t-356.5 -136.5q-198 0 -294 149t-39 433zM356.5 252q36.5 -79 142.5 -79q97 0 168 85.5t108 267.5l81 405q38 194 3 272.5t-141 78.5q-97 0 -169.5 -86 t-108.5 -265l-81 -405q-39 -195 -2.5 -274z" />
<glyph unicode="1" horiz-adv-x="1096" d="M345 1184l32 159l522 113l-291 -1456h-239l237 1184h-261z" />
<glyph unicode="2" horiz-adv-x="1096" d="M33 0l27 167l523 517q129 129 180.5 208.5t64.5 159.5q17 103 -22.5 166.5t-127.5 63.5q-113 0 -181 -71.5t-88 -198.5h-239q33 210 174.5 337.5t364.5 127.5q194 0 291.5 -115.5t67.5 -303.5q-21 -133 -100 -239.5t-250 -276.5l-356 -348h608l-31 -194h-906z" />
<glyph unicode="3" horiz-adv-x="1096" d="M69 390h239q-17 -103 29.5 -160t145.5 -57q98 0 166.5 60.5t86.5 173.5q21 131 -19.5 185.5t-155.5 54.5h-161l8 55l13 79l9 57h161q103 0 158 58t73 166q17 111 -22.5 165.5t-138.5 54.5q-86 0 -151.5 -56t-79.5 -149h-239q29 182 165.5 291t332.5 109t299.5 -107 t72.5 -308q-17 -99 -81.5 -184t-173.5 -133q108 -45 148 -133.5t22 -203.5q-34 -212 -177 -320.5t-350 -108.5q-186 0 -299 107t-81 304z" />
<glyph unicode="4" horiz-adv-x="1096" d="M41 323l23 149l772 984h245l-188 -937h167l-39 -196h-167l-64 -323h-238l64 323h-575zM308 519h347l117 586l-2 1l-24 -37z" />
<glyph unicode="5" horiz-adv-x="1096" d="M113 389l233 8q-19 -112 26 -168t136 -56q98 0 164.5 79.5t87.5 210.5q22 139 -18.5 218t-144.5 79q-87 0 -135.5 -32.5t-77.5 -93.5l-203 17l207 805h721l-34 -210h-522l-97 -361l3 -1q41 30 94.5 50t115.5 22q198 3 282.5 -127t47.5 -364q-36 -225 -168 -355.5 t-354 -130.5q-177 0 -286.5 105t-77.5 305z" />
<glyph unicode="6" horiz-adv-x="1096" d="M130 571l45 278q48 301 221.5 464.5t410.5 163.5q72 0 137 -16.5t113 -43.5l-74 -188q-47 24 -93 37.5t-113 13.5q-131 0 -230.5 -110.5t-131.5 -302.5q65 51 141 78t164 27q178 0 263.5 -136t51.5 -348q-38 -236 -178 -372.5t-344 -136.5q-205 0 -316.5 154.5 t-66.5 437.5zM366 558q-32 -196 19 -290.5t159 -94.5q92 0 160.5 90.5t90.5 224.5q22 138 -21 216.5t-144 78.5q-81 0 -142.5 -31t-104.5 -86z" />
<glyph unicode="7" horiz-adv-x="1096" d="M201 1261l31 195h941l-31 -195q-289 -298 -400.5 -524.5t-204.5 -582.5l-40 -154h-239l40 154q89 337 236.5 600t376.5 507h-710z" />
<glyph unicode="8" horiz-adv-x="1096" d="M89 397q26 132 107.5 221t206.5 134q-88 47 -127 129t-17 191q42 212 171.5 308.5t326.5 96.5q178 0 277 -105.5t60 -299.5q-24 -122 -95 -204t-179 -125q101 -50 148.5 -139t24.5 -207q-44 -221 -183 -319.5t-350 -98.5q-196 0 -304 107t-67 311zM331 409 q-24 -119 20.5 -177.5t147.5 -58.5q90 0 163 63t96 173q23 117 -22.5 179t-143.5 62q-91 0 -165.5 -66.5t-95.5 -174.5zM497 1063q-22 -108 13.5 -163t122.5 -55q76 0 138 59.5t83 158.5q20 105 -16.5 162t-119.5 57q-79 0 -140.5 -59.5t-80.5 -159.5z" />
<glyph unicode="9" horiz-adv-x="1096" d="M140 39l61 184q54 -27 110 -38.5t131 -11.5q115 0 203 95.5t119 282.5l4 24l-3 1q-52 -61 -119 -90.5t-144 -29.5q-192 0 -285 131t-54 370q38 238 184 379t338 141q208 0 313 -147.5t60 -428.5l-54 -341q-48 -293 -206.5 -437t-386.5 -144q-68 0 -140.5 15t-130.5 45z M402 957q-24 -151 15 -231.5t138 -80.5q80 0 142 35t103 94l25 156q29 185 -13.5 268.5t-153.5 83.5q-84 0 -159 -92.5t-97 -232.5z" />
<glyph unicode=":" horiz-adv-x="534" d="M63 0l47 233h236l-47 -233h-236zM233 849l47 233h236l-47 -233h-236z" />
<glyph unicode=";" horiz-adv-x="529" d="M-57 -263q56 73 90.5 146.5t52.5 163.5l38 188h226l-37 -180q-22 -109 -92.5 -215t-168.5 -181zM229 849l47 233h236l-47 -233h-236z" />
<glyph unicode="&#x3c;" horiz-adv-x="977" d="M84 537l32 159l7 34l853 372l-48 -243l-577 -222l-17 -5l-1 -3l16 -4l488 -218l-48 -243z" />
<glyph unicode="=" horiz-adv-x="1096" d="M126 356l40 201h803l-40 -201h-803zM211 780l40 202h803l-40 -202h-803z" />
<glyph unicode="&#x3e;" horiz-adv-x="1002" d="M73 165l48 239l604 226l17 4v3l-15 5l-514 221l47 239l732 -372l-32 -160h-1l-6 -33z" />
<glyph unicode="?" horiz-adv-x="943" d="M173 1094q39 186 173 284.5t321 98.5q189 0 283 -107.5t57 -296.5q-29 -138 -113 -237t-215 -197q-63 -51 -85.5 -95t-39.5 -132h-240q30 145 71.5 204t167.5 155q89 80 143 147t71 152q21 105 -14.5 154.5t-125.5 49.5q-71 0 -134 -45t-80 -135h-240zM232 0l47 233h242 l-47 -233h-242z" />
<glyph unicode="@" horiz-adv-x="1702" d="M98 478q104 433 368.5 689.5t624.5 256.5q338 0 488 -246.5t49 -670.5q-52 -220 -188 -374t-356 -154q-67 0 -109.5 42t-51.5 120q-61 -83 -130.5 -121.5t-156.5 -38.5q-117 0 -163 119.5t10 315.5q75 261 211.5 413.5t293.5 152.5q99 0 161.5 -27t124.5 -79l-4 -4h5 l-162 -579q-28 -103 -13.5 -140t54.5 -37q102 0 192 111t131 280q91 375 -10 576t-408 201q-269 0 -487.5 -221t-304.5 -585q-91 -372 16.5 -578.5t398.5 -206.5q77 0 166.5 20t155.5 53l11 -130q-73 -43 -172.5 -66t-193.5 -23q-344 0 -498 249.5t-53 681.5zM656 212.5 q13 -67.5 75 -67.5q50 0 99 23.5t99 85.5q1 9 3 19t6 20l145 518q-20 8 -41 12.5t-45 4.5q-104 0 -181.5 -102.5t-135.5 -309.5q-37 -136 -24 -203.5z" />
<glyph unicode="A" horiz-adv-x="1270" d="M-56 0l788 1456h226l199 -1456h-243l-40 348h-508l-180 -348h-242zM467 543h385l-69 603h-3z" />
<glyph unicode="B" horiz-adv-x="1236" d="M65 0l291 1456h461q215 0 326 -99q82 -73 82 -201q0 -45 -10 -97q-22 -106 -87.5 -180.5t-166.5 -111.5v-3q115 -28 158 -123q27 -60 28 -133q0 -43 -10 -90q-46 -223 -183.5 -320.5t-368.5 -97.5h-520zM343 194h281q106 0 179.5 59.5t95.5 164.5q10 50 10 90 q0 58 -22 94q-36 60 -147 60h-304zM472 843h248q94 0 163.5 53.5t90.5 151.5q7 37 7 67q-1 65 -33 98q-48 48 -170 48h-222z" />
<glyph unicode="C" horiz-adv-x="1219" d="M135 596l55 276q58 294 215.5 449.5t397.5 155.5q229 0 355 -139q106 -116 106 -299q0 -36 -4 -75h-240q3 30 3 57q-1 113 -47 179q-58 82 -198 82q-126 0 -219 -113.5t-129 -294.5l-56 -278q-15 -74 -15 -136q-1 -100 39 -172q64 -114 208 -115q125 0 196 71t119 226 h239q-68 -239 -205 -365t-371 -126q-230 0 -366 176q-98 127 -98 299q0 68 15 142z" />
<glyph unicode="D" horiz-adv-x="1262" d="M65 0l291 1456h407q251 0 399 -179q109 -132 109 -313q0 -65 -14 -136l-45 -221q-60 -300 -229.5 -453.5t-436.5 -153.5h-481zM343 194h235q155 0 255.5 110.5t139.5 302.5l45 223q13 63 13 118q-1 116 -57 196q-82 117 -257 117h-161z" />
<glyph unicode="E" horiz-adv-x="1115" d="M65 0l291 1456h913l-39 -195h-674l-82 -411h586l-39 -195h-586l-92 -461h681l-39 -194h-920z" />
<glyph unicode="F" horiz-adv-x="1113" d="M65 0l291 1456h916l-39 -195h-677l-89 -445h582l-39 -195h-582l-124 -621h-239z" />
<glyph unicode="G" horiz-adv-x="1301" d="M139 576l61 304q57 286 233 441.5t422 155.5q229 0 338 -125q96 -110 96 -287q0 -24 -2 -50h-235v14q0 118 -47 183q-50 70 -185 70q-129 0 -238 -113t-144 -287l-61 -306q-14 -69 -14 -127q0 -102 43 -170q67 -106 217 -106q96 0 166.5 26.5t107.5 62.5l59 292h-259 l36 182h498l-109 -546q-73 -82 -207 -146.5t-331 -64.5q-235 0 -366 167q-94 118 -94 286q0 68 15 144z" />
<glyph unicode="H" horiz-adv-x="1365" d="M65 0l291 1456h239l-128 -640h587l128 640h238l-291 -1456h-238l124 621h-587l-124 -621h-239z" />
<glyph unicode="I" horiz-adv-x="562" d="M76 0l291 1456h239l-291 -1456h-239z" />
<glyph unicode="J" horiz-adv-x="1079" d="M55 413h239q-11 -56 -11 -97q0 -60 23 -91q41 -52 147 -52q85 0 153 66t92 182l207 1035h239l-207 -1035q-45 -221 -184.5 -331.5t-338.5 -110.5q-196 0 -299 109q-73 78 -73 208q0 54 13 117z" />
<glyph unicode="K" horiz-adv-x="1168" d="M49 0l291 1456h240l-123 -612h128l470 612h308l-615 -732l341 -724h-273l-279 628h-123l-125 -628h-240z" />
<glyph unicode="L" horiz-adv-x="1060" d="M65 0l291 1456h239l-252 -1262h617l-39 -194h-856z" />
<glyph unicode="M" horiz-adv-x="1681" d="M65 0l291 1456h310l154 -1123l3 -1l604 1124h309l-291 -1456h-239l99 496l147 617l-2 1l-616 -1114h-160l-169 1111h-3l-99 -615l-99 -496h-239z" />
<glyph unicode="N" horiz-adv-x="1365" d="M65 0l291 1456h239l374 -1047l3 1l209 1046h239l-291 -1456h-239l-374 1048l-3 -1l-209 -1047h-239z" />
<glyph unicode="O" horiz-adv-x="1313" d="M135 603l52 262q58 292 224 452t417 160q240 0 382 -181q103 -132 103 -307q0 -66 -15 -137l-52 -262q-59 -292 -230.5 -451.5t-428.5 -159.5q-235 -1 -371 179q-97 128 -96 301q0 68 15 144zM373 603q-14 -71 -14 -131q0 -108 45 -180q71 -114 223 -114q141 0 242 112.5 t139 299.5l53 264q13 64 13 120q0 112 -52 188q-76 115 -234 115q-134 0 -230 -112t-133 -298z" />
<glyph unicode="P" horiz-adv-x="1247" d="M65 0l291 1456h537q215 0 323 -125q79 -91 78 -224q0 -49 -10 -103q-45 -222 -191.5 -337t-380.5 -115h-298l-110 -552h-239zM453 747h298q115 0 193 72.5t100 182.5q8 42 8 78q0 66 -28 112q-44 70 -170 69h-298z" />
<glyph unicode="Q" horiz-adv-x="1339" d="M135 603l52 262q58 292 224 452t417 160q240 0 382 -181q102 -132 102 -307q0 -65 -14 -137l-52 -262q-34 -168 -105.5 -290.5t-179.5 -202.5l170 -201l-185 -143l-203 244q-38 -9 -76 -13.5t-80 -4.5q-235 0 -371 179q-96 129 -96 301q0 68 15 144zM373 603 q-14 -71 -14 -131q0 -106 45 -180q71 -114 223 -114q141 0 242 112.5t139 299.5l53 264q13 64 13 120q0 111 -52 188q-76 115 -234 115q-134 0 -230 -112t-133 -298z" />
<glyph unicode="R" horiz-adv-x="1265" d="M65 0l291 1456h517q217 0 319 -108q74 -78 74 -206q0 -50 -12 -107q-26 -126 -97.5 -203t-193.5 -124q108 -41 139 -127q17 -47 17 -107q0 -51 -12 -112l-24 -121q-11 -54 -11 -101v-24q4 -56 33 -90l-5 -26h-245q-28 30 -28 89v15q4 70 19 139l23 117q9 45 9 82 q0 63 -26 101q-41 61 -143 61h-284l-120 -604h-240zM464 799h255q123 0 197 56.5t97 170.5q9 43 9 78q0 64 -28 100q-43 58 -167 57h-270z" />
<glyph unicode="S" horiz-adv-x="1175" d="M105 431h238q-8 -40 -8 -73q0 -90 60 -130q82 -55 216 -55q88 0 161.5 48t88.5 124q6 31 6 58q0 65 -36 105q-51 56 -210 117q-223 77 -319 184q-68 76 -67 195q0 49 11 105q36 182 174 275t343 93q223 -1 343 -119q89 -88 89 -228q0 -49 -10 -105h-238q6 33 6 62 q0 76 -43 126q-60 69 -186 69q-88 0 -156 -49t-83 -122q-7 -35 -7 -64q0 -63 34 -97q50 -50 227 -119q219 -78 309 -183q63 -73 63 -191q0 -51 -12 -110q-38 -189 -176.5 -278.5t-350.5 -89.5q-222 -1 -368 107q-110 81 -111 236q0 51 12 109z" />
<glyph unicode="T" horiz-adv-x="1182" d="M221 1261l39 195h1074l-39 -195h-418l-252 -1261h-239l252 1261h-417z" />
<glyph unicode="U" horiz-adv-x="1310" d="M137 480l195 976h239l-195 -976q-12 -59 -12 -107q0 -85 39 -129q61 -70 198 -71q131 0 229 76.5t129 230.5l195 976h239l-195 -976q-53 -263 -219.5 -382t-416.5 -119q-224 -1 -349 129q-90 93 -90 245q0 59 14 127z" />
<glyph unicode="V" horiz-adv-x="1247" d="M192 1456h255l140 -1075l8 -105h3l43 103l485 1077h255l-714 -1456h-227z" />
<glyph unicode="W" horiz-adv-x="1674" d="M232 1456h234l16 -1045l3 -1l419 1046h188l87 -1049h3l350 1049h233l-527 -1456h-216l-89 1033h-3l-421 -1033h-216z" />
<glyph unicode="X" horiz-adv-x="1224" d="M-22 0l538 734l-296 722h280l185 -538l361 538h283l-528 -722l310 -734h-286l-195 547l-369 -547h-283z" />
<glyph unicode="Y" horiz-adv-x="1207" d="M227 1456h267l176 -691l455 691h266l-656 -947l-102 -509h-238l105 527z" />
<glyph unicode="Z" horiz-adv-x="1083" d="M27 0l3 152l783 1109h-569l39 195h856l-29 -146l-787 -1116h644l-39 -194h-901z" />
<glyph unicode="[" horiz-adv-x="540" d="M2 -324l320 2002h389l-30 -190h-149l-260 -1623h149l-30 -189h-389z" />
<glyph unicode="\" horiz-adv-x="811" d="M228 1456h232l249 -1581h-232z" />
<glyph unicode="]" horiz-adv-x="540" d="M-104 -324l30 189h151l260 1623h-151l30 190h390l-320 -2002h-390z" />
<glyph unicode="^" horiz-adv-x="826" d="M113 729l423 727h167l132 -727h-201l-67 413l-1 49l-3 1l-20 -50l-228 -413h-202z" />
<glyph unicode="_" horiz-adv-x="875" d="M-115 -191l38 191h858l-38 -191h-858z" />
<glyph unicode="`" horiz-adv-x="632" d="M238 1478h269l128 -266h-191z" />
<glyph unicode="a" horiz-adv-x="1048" d="M69 305q34 171 160.5 251.5t343.5 80.5h158l19 95q6 32 6 59q0 49 -22 77q-34 44 -119 45q-73 0 -127 -40t-66 -103h-239q29 144 160.5 238t323.5 94q171 0 265 -96q68 -70 68 -183q0 -43 -10 -93l-96 -481q-14 -74 -18 -131q-1 -17 -2 -35q0 -40 6 -83h-242q-4 32 -4 64 q0 5 -1 10q0 28 3 55l-3 2q-61 -67 -140 -109t-166 -42q-145 0 -217 88q-50 61 -50 152q0 40 9 85zM309 309q-5 -23 -4 -42q0 -37 17 -59q27 -33 97 -33q67 0 135 35.5t109 86.5l38 188h-162q-88 0 -152 -52.5t-78 -123.5z" />
<glyph unicode="b" d="M36 0l312 1560h239l-113 -566l3 -1q54 53 117.5 81t139.5 28q182 0 264 -169q51 -104 51 -241q0 -86 -20 -186l-4 -21q-52 -258 -167 -382t-309 -124q-84 0 -150 42.5t-108 120.5l-48 -142h-207zM333 292q20 -56 66 -85.5t121 -29.5q109 0 172.5 79t93.5 229l4 21 q19 95 19 169q-1 69 -17 121q-34 107 -151 107q-64 0 -117.5 -38.5t-97.5 -108.5z" />
<glyph unicode="c" horiz-adv-x="1012" d="M93 523l5 35q39 249 178 396.5t370 147.5q182 0 280 -114q76 -88 76 -215q0 -38 -7 -79h-225q4 24 4 46q0 61 -30 106q-42 61 -131 61q-120 0 -186 -98.5t-90 -250.5l-5 -35q-12 -75 -12 -136q0 -70 16 -120q32 -93 160 -93q79 0 143.5 51.5t76.5 132.5h225 q-25 -160 -162.5 -269t-310.5 -109q-220 0 -317 153q-69 109 -69 261q0 61 11 129z" />
<glyph unicode="d" d="M99 525l4 21q56 282 174.5 419t312.5 137q78 0 140.5 -32.5t105.5 -93.5l117 584h239l-312 -1560h-206l6 107q-61 -64 -129.5 -96t-148.5 -32q-178 -1 -264 155q-56 101 -56 235q0 73 17 156zM339 525q-16 -77 -16 -139q-1 -68 19 -116q36 -92 154 -93q62 0 113 35 t95 100l95 479q-22 54 -66.5 83t-112.5 29q-107 0 -175.5 -95t-101.5 -262z" />
<glyph unicode="e" horiz-adv-x="1022" d="M101 516l6 40q40 250 187 398q146 148 340 148h3q202 0 291 -132q64 -94 64 -236q0 -56 -10 -120l-23 -143h-625q-3 -32 -4 -60q0 -97 38 -158q48 -79 163 -79q90 0 159.5 24t135.5 68l42 -166q-65 -52 -161 -86t-222 -34q-211 0 -317 149q-77 109 -78 265q0 58 11 122z M368 649h383l4 25q6 36 6 67q1 63 -23 104q-34 62 -132 62q-77 0 -140 -71t-98 -187z" />
<glyph unicode="f" horiz-adv-x="684" d="M116 0l180 902h-152l36 180h152l26 126q38 194 144.5 283.5t279.5 89.5q32 0 66 -5.5t73 -15.5l-61 -188q-17 4 -39 7t-49 3q-68 0 -113.5 -44.5t-61.5 -129.5l-26 -126h200l-36 -180h-200l-180 -902h-239z" />
<glyph unicode="g" horiz-adv-x="1091" d="M34 -355l89 191q49 -31 112.5 -48.5t135.5 -17.5q111 0 183 67t97 187l11 54l-3 2q-54 -50 -116.5 -75.5t-135.5 -25.5q-178 0 -265 155q-57 102 -57 236q0 73 16 155l4 21q56 281 175.5 418.5t314.5 137.5q85 0 150.5 -37t108.5 -108l43 125h205l-211 -1059 q-47 -230 -188.5 -345t-370.5 -115q-71 0 -153.5 22.5t-144.5 59.5zM340 525q-15 -75 -15 -135q0 -70 21 -120q38 -93 155 -93q63 0 114 34t93 98l96 483q-23 54 -66.5 82.5t-112.5 28.5q-107 0 -177.5 -95.5t-103.5 -261.5z" />
<glyph unicode="h" d="M33 0l312 1560h239l-121 -603l3 -2q63 71 139 109t163 38q154 0 226 -108q44 -66 44 -178q0 -70 -17 -157l-132 -659h-239l132 661q12 63 12 108q0 55 -18 83q-32 52 -128 51q-60 0 -115.5 -29t-102.5 -82l-158 -792h-239z" />
<glyph unicode="i" horiz-adv-x="511" d="M51 0l216 1082h239l-216 -1082h-239zM320 1347l43 213h239l-43 -213h-239z" />
<glyph unicode="j" horiz-adv-x="516" d="M-233 -420l52 194q16 -5 38 -8.5t40 -3.5q53 0 93.5 42t58.5 133l229 1145h239l-229 -1145q-39 -194 -141 -284t-265 -90q-32 0 -59.5 4t-55.5 13zM326 1350l42 210h240l-42 -210h-240z" />
<glyph unicode="k" horiz-adv-x="1014" d="M37 0l312 1560h238l-179 -892h97l319 414h279l-420 -494l247 -588h-277l-184 473h-100l-94 -473h-238z" />
<glyph unicode="l" horiz-adv-x="511" d="M51 0l312 1560h239l-312 -1560h-239z" />
<glyph unicode="m" horiz-adv-x="1662" d="M37 0l216 1082h218l-13 -128l2 -1q62 72 141.5 110.5t177.5 38.5q91 0 152 -46t81 -140q65 89 149 137.5t187 48.5q146 0 214 -112q41 -67 41 -176q0 -72 -18 -162l-130 -652h-239l131 653q15 76 15 126q0 51 -15 75q-30 50 -119 49q-65 0 -120.5 -41.5t-93.5 -113.5 q-2 -11 -3.5 -21t-4.5 -26l-140 -701h-239l131 653q14 70 14 119q0 52 -16 78q-31 52 -119 53q-62 0 -112 -28t-90 -80l-159 -795h-239z" />
<glyph unicode="n" d="M34 0l216 1082h218l-15 -144l2 -1q65 79 145.5 122t173.5 43q151 0 222 -102q44 -64 44 -172q0 -66 -16 -148l-136 -680h-239l136 678q11 58 11 100q0 53 -18 79q-34 46 -131 46q-60 0 -116 -31t-101 -87l-157 -785h-239z" />
<glyph unicode="o" d="M97 530l3 21q41 256 184 403.5t366 147.5q213 0 314 -154q73 -112 73 -270q0 -60 -10 -127l-3 -21q-42 -258 -185 -404t-366 -146q-213 0 -315 152q-73 109 -72 267q0 62 11 131zM336 530q-11 -70 -11 -128q-1 -80 21 -134q38 -94 158 -94q111 0 183 98.5t98 257.5l3 21 q10 67 10 122q0 83 -22 139q-38 96 -157 95q-112 0 -183.5 -100t-96.5 -256z" />
<glyph unicode="p" d="M-47 -416l299 1498h214l-8 -101l3 -1q57 59 124.5 90.5t147.5 31.5q179 0 263 -170q51 -104 51 -242q0 -85 -20 -184l-4 -21q-52 -257 -167.5 -381.5t-306.5 -124.5q-82 0 -146.5 30t-107.5 90l-103 -515h-239zM330 274q21 -50 65 -75.5t117 -25.5q107 0 175 82t98 230 l4 21q18 88 18 158q0 75 -20 130q-38 109 -154 109q-61 0 -111.5 -34.5t-92.5 -97.5z" />
<glyph unicode="q" d="M99 525l4 21q56 282 174.5 419t312.5 137q82 0 145.5 -34.5t106.5 -100.5l41 115h206l-299 -1498h-239l98 491l-3 2q-53 -48 -113.5 -73t-130.5 -25q-177 0 -264 155q-56 101 -56 235q0 73 17 156zM339 525q-16 -77 -16 -139q0 -69 19 -118q37 -95 154 -95q59 0 107 31.5 t90 90.5l102 514q-23 48 -66 73t-109 25q-106 0 -174.5 -96.5t-102.5 -264.5z" />
<glyph unicode="r" horiz-adv-x="692" d="M36 0l216 1082h219l-13 -137l2 -1q52 76 116.5 117t142.5 41q21 0 44 -3.5t36 -8.5l-74 -230l-110 4q-60 0 -107 -29.5t-83 -84.5l-150 -750h-239z" />
<glyph unicode="s" horiz-adv-x="1004" d="M64 341h231q-2 -19 -3 -36q0 -69 40 -101q49 -42 133 -42q81 0 132.5 35t62.5 97q2 12 2 23q0 43 -28 71q-36 35 -153 64q-178 42 -258 116q-63 58 -63 152q0 26 5 54q22 144 143 236t302 92q182 0 278 -98q77 -78 78 -189q0 -28 -5 -58h-238q3 17 3 32q0 50 -28 85 q-36 46 -117 46q-76 0 -124 -39.5t-57 -96.5q-2 -14 -3 -26q0 -40 26 -65q33 -32 151 -59q188 -44 266 -118q61 -59 62 -154q0 -26 -5 -55q-25 -154 -148.5 -240.5t-315.5 -86.5q-193 0 -293 108q-81 87 -81 198q0 27 5 55z" />
<glyph unicode="t" horiz-adv-x="634" d="M122 902l36 180h135l53 263h239l-53 -263h178l-36 -180h-178l-119 -598q-7 -35 -7 -59q0 -26 8 -39q16 -25 55 -25q21 0 44 3.5t41 9.5l-11 -178q-35 -16 -81.5 -26t-93.5 -10q-116 0 -172 78q-35 49 -35 132q0 51 13 114l119 598h-135z" />
<glyph unicode="u" d="M118 435l129 647h238l-129 -649q-16 -80 -16 -132q0 -49 14 -73q28 -50 115 -50q75 0 134 31.5t105 92.5l156 780h239l-216 -1082h-212l13 132l-3 1q-62 -76 -140 -114.5t-173 -38.5q-156 0 -229 110q-44 66 -44 178q0 74 19 167z" />
<glyph unicode="v" horiz-adv-x="980" d="M137 1082h247l84 -716l2 -82h3l30 82l306 716h247l-528 -1082h-207z" />
<glyph unicode="w" horiz-adv-x="1432" d="M167 1082h229l8 -708l-3 -47l3 -1l16 46l338 710h173l55 -710l-3 -64h3l25 71l282 703h229l-490 -1082h-195l-55 667l-1 91l-3 1l-36 -91l-322 -668h-195z" />
<glyph unicode="x" horiz-adv-x="980" d="M-36 0l410 547l-228 535h271l114 -371l235 371h274l-399 -535l234 -547h-271l-122 380l-245 -380h-273z" />
<glyph unicode="y" horiz-adv-x="980" d="M-71 -417l64 188q12 -1 33.5 -3t33.5 -2q58 0 96 33.5t87 115.5l56 97l-150 1070h261l52 -648l1 -95l3 -1l362 744h262l-663 -1246q-61 -113 -150 -193t-226 -80q-27 0 -60 6t-62 14z" />
<glyph unicode="z" horiz-adv-x="980" d="M-1 0l32 159l649 727h-495l39 196h789l-30 -154l-657 -734h532l-39 -194h-820z" />
<glyph unicode="{" horiz-adv-x="651" d="M71 529l6 37l22 141q88 0 140.5 57.5t70.5 164.5l32 203q28 180 121.5 294t291.5 171l24 -140q-95 -34 -143 -116t-68 -209l-32 -203q-19 -111 -71 -189.5t-144 -123.5q74 -48 102.5 -127t12.5 -180l-32 -203q-22 -132 -0.5 -211.5t107.5 -113.5l-70 -141 q-177 56 -234.5 174t-28.5 292l32 203q18 110 -14.5 165t-124.5 55z" />
<glyph unicode="|" horiz-adv-x="496" d="M53 -270l276 1726h164l-276 -1726h-164z" />
<glyph unicode="}" horiz-adv-x="651" d="M-73 -219q94 34 142.5 116t69.5 209l32 203q18 112 72 190t152 122q-81 45 -111.5 124t-12.5 184l32 203q21 132 -1 211.5t-107 113.5l70 140q177 -56 233.5 -173.5t28.5 -291.5l-32 -203q-19 -112 14 -167t127 -55l-21 -135h-1l-6 -43q-89 0 -142.5 -58t-70.5 -162 l-32 -203q-29 -181 -122 -295.5t-290 -170.5z" />
<glyph unicode="~" horiz-adv-x="1272" d="M115 460q25 159 120 257t225 98q78 0 144 -33.5t129 -101.5q42 -49 76.5 -69.5t78.5 -20.5q51 0 99.5 54t61.5 129l162 -23q-26 -160 -122.5 -261.5t-225.5 -101.5q-79 0 -142 32t-129 104q-44 47 -79 68.5t-78 21.5q-53 0 -99.5 -51t-58.5 -124z" />
<glyph unicode="&#xa1;" horiz-adv-x="524" d="M-24 -374l193 964h240l-193 -964h-240zM222 847l47 235h236l-47 -235h-236z" />
<glyph unicode="&#xa2;" horiz-adv-x="1081" d="M113 523l5 35q35 226 154 369t316 169l45 222h196l-47 -231q129 -37 193 -141t40 -252h-225q15 91 -26.5 152t-130.5 61q-120 0 -186 -98.5t-90 -250.5l-5 -35q-27 -163 4.5 -256t159.5 -93q79 0 143.5 51.5t76.5 132.5h225q-22 -141 -134.5 -245t-264.5 -127l-46 -231 h-196l48 241q-157 42 -222.5 184.5t-32.5 342.5z" />
<glyph unicode="&#xa3;" horiz-adv-x="1135" d="M55 0l39 194h9q45 13 82 100.5t57 183.5l20 121h-146l39 196h139l39 238q44 225 171 334.5t318 109.5q186 0 278 -110t56 -291h-240q23 115 -15 160.5t-118 45.5q-72 0 -129.5 -65.5t-80.5 -183.5l-39 -238h354l-39 -196h-348l-18 -113q-18 -89 -52.5 -162.5 t-85.5 -129.5h672l-40 -194h-922z" />
<glyph unicode="&#xa4;" horiz-adv-x="1342" d="M29 118l159 142q-33 77 -40.5 163.5t12.5 184.5q21 109 64 201t106 169l-101 142l167 144l98 -137q80 53 166 80t178 27q84 0 157.5 -30.5t134.5 -87.5l166 149l110 -145l-172 -155q34 -79 43 -168.5t-11 -188.5q-22 -104 -61 -191.5t-96 -162.5l97 -136l-168 -145 l-90 126q-84 -60 -174.5 -89.5t-186.5 -29.5q-88 0 -164 32.5t-136 95.5l-149 -134zM341 608q-41 -201 40.5 -322t242.5 -121q146 0 284 129t176 314q39 200 -41.5 320t-241.5 120q-148 0 -286 -128t-174 -312z" />
<glyph unicode="&#xa5;" horiz-adv-x="1174" d="M110 306l29 146h326l29 143h-326l29 147h262l-226 714h267l165 -622l413 622h267l-511 -714h251l-29 -147h-323l-29 -143h323l-29 -146h-323l-61 -306h-239l61 306h-326z" />
<glyph unicode="&#xa6;" horiz-adv-x="490" d="M-10 -270l159 795h225l-159 -795h-225zM184 698l151 758h225l-151 -758h-225z" />
<glyph unicode="&#xa7;" horiz-adv-x="1196" d="M-8 -50l238 1q-27 -133 36.5 -182.5t179.5 -49.5q104 0 178.5 49.5t90.5 126.5q16 84 -32.5 124t-215.5 99q-217 65 -303 155.5t-50 268.5q19 97 72 165t138 111q-52 51 -69 118.5t3 165.5q36 184 180 279.5t369 95.5q213 0 322 -112.5t68 -317.5h-239q22 110 -26 172.5 t-164 62.5q-111 0 -182.5 -50.5t-86.5 -127.5q-19 -93 25 -131t220 -93q218 -68 303.5 -158t50.5 -267q-21 -100 -73 -167.5t-137 -108.5q52 -51 68.5 -117.5t-2.5 -164.5q-38 -190 -179.5 -281.5t-367.5 -91.5q-204 0 -331.5 100.5t-83.5 325.5zM356 558 q-20 -96 23.5 -136.5t215.5 -98.5q43 -15 72.5 -24.5t56.5 -20.5q53 23 88 64t47 97q17 86 -31.5 130t-212.5 104q-40 12 -72 23t-60 24q-52 -23 -84.5 -65t-42.5 -97z" />
<glyph unicode="&#xa8;" horiz-adv-x="1001" d="M288 1252l33 204h232l-33 -204h-232zM738 1252l33 204h233l-33 -204h-233z" />
<glyph unicode="&#xa9;" horiz-adv-x="1497" d="M130 729q53 334 274 540.5t506 206.5q268 0 429 -214.5t111 -532.5q-54 -335 -275.5 -542.5t-503.5 -207.5q-271 0 -432 215.5t-109 534.5zM248 729q-46 -280 81.5 -452.5t361.5 -172.5q220 0 409 179.5t232 445.5q44 279 -82.5 450.5t-359.5 171.5q-223 0 -411.5 -178.5 t-230.5 -443.5zM441 669l19 119q29 183 131 285t257 102q145 0 217 -79.5t48 -234.5h-152q15 99 -18 139t-117 40q-83 0 -140.5 -68.5t-75.5 -182.5l-19 -120q-20 -122 14 -187t122 -65q81 0 128 41t62 138h152q-27 -164 -119 -239t-245 -75q-147 0 -220 105.5t-44 281.5z " />
<glyph unicode="&#xaa;" horiz-adv-x="860" d="M210 920q24 120 111 175.5t245 55.5h122l10 51q13 67 -5 97t-71 30q-56 0 -94 -26t-47 -73l-167 14q22 110 111.5 171.5t225.5 61.5q121 0 183 -71t35 -205l-63 -314q-11 -54 -13.5 -95.5t1.5 -85.5h-173q-3 22 -3 44.5t3 44.5l-3 1q-39 -46 -95 -75t-128 -29 q-105 0 -156 61.5t-29 166.5zM382 924q-10 -46 10.5 -67t74.5 -21q42 0 96.5 28.5t79.5 63.5l21 106h-120q-63 0 -108.5 -32.5t-53.5 -77.5z" />
<glyph unicode="&#xab;" horiz-adv-x="941" d="M94 506l1 6l3 13l346 390h162l-307 -400l147 -399h-162zM436 506l1 6l3 13l346 390h162l-307 -400l147 -399h-162z" />
<glyph unicode="&#xac;" horiz-adv-x="1066" d="M165 634l34 171h780l-16 -77h1l-19 -94l-52 -260h-196l52 260h-584z" />
<glyph unicode="&#xad;" horiz-adv-x="640" d="M91 521l39 196h492l-39 -196h-492z" />
<glyph unicode="&#xae;" horiz-adv-x="1497" d="M131 729q53 334 274 540.5t505 206.5q269 0 430 -214.5t111 -532.5q-54 -335 -275.5 -542.5t-504.5 -207.5q-270 0 -431 215.5t-109 534.5zM249 729q-46 -280 81 -452.5t361 -172.5q220 0 409 179.5t232 445.5q44 279 -82.5 450.5t-359.5 171.5q-223 0 -411 -178.5 t-230 -443.5zM446 316l136 850h265q139 0 211 -66t52 -194q-10 -63 -45.5 -106.5t-97.5 -74.5q53 -30 71 -83t7 -127l-9 -56q-7 -43 -8.5 -74.5t4.5 -52.5l-2 -16h-151q-5 22 -0.5 63t11.5 81l8 54q12 75 -12.5 107t-95.5 32h-143l-53 -337h-148zM669 787h128q63 0 109.5 30 t55.5 86q12 76 -17 103t-120 27h-117z" />
<glyph unicode="&#xaf;" horiz-adv-x="940" d="M272 1298l25 158h683l-25 -158h-683z" />
<glyph unicode="&#xb0;" horiz-adv-x="733" d="M278 1208q23 119 109 194t192 75q95 0 153 -79.5t37 -189.5q-25 -120 -108.5 -192t-187.5 -72q-98 0 -158 77t-37 187zM413 1208q-12 -58 13.5 -91t74.5 -33q43 0 82.5 35t51.5 89q11 59 -13 93.5t-71 34.5q-45 0 -86.5 -37t-51.5 -91z" />
<glyph unicode="&#xb1;" horiz-adv-x="1034" d="M58 0l39 196h776l-39 -196h-776zM138 707l32 199h326l62 384h211l-62 -384h315l-32 -199h-314l-63 -395h-211l63 395h-327z" />
<glyph unicode="&#xb2;" horiz-adv-x="819" d="M165 667l29 145l333 256q71 55 95 89t32 76q9 48 -7 74t-65 26q-51 0 -86.5 -30t-44.5 -78h-186q23 116 115.5 185t233.5 69q125 0 188 -65t40 -182q-18 -89 -69.5 -141t-195.5 -163l-140 -113l1 -3h324l-29 -145h-568z" />
<glyph unicode="&#xb3;" horiz-adv-x="819" d="M187 894h187q-10 -47 14.5 -70.5t81.5 -23.5q54 0 93.5 26t49.5 71q12 60 -13 85.5t-89 25.5h-115l16 77l3 14l8 40h115q54 0 87.5 26.5t43.5 74.5q8 42 -15 67t-79 25q-45 0 -77.5 -22t-38.5 -56h-188q21 111 111.5 167.5t218.5 56.5q133 0 206 -59.5t51 -169.5 q-13 -60 -54 -104.5t-105 -69.5q60 -26 86 -72t13 -112q-25 -122 -117.5 -179t-238.5 -57q-123 0 -201 60.5t-54 178.5z" />
<glyph unicode="&#xb4;" horiz-adv-x="663" d="M242 1212l217 266h271l-304 -266h-184z" />
<glyph unicode="&#xb5;" horiz-adv-x="1143" d="M-29 -416l299 1498h238l-130 -649q-29 -163 3.5 -210.5t121.5 -47.5q74 0 129 31.5t97 93.5l156 782h239l-216 -1082h-220l9 72q-51 -47 -108 -70t-125 -23q-53 0 -93.5 13t-71.5 42l-90 -450h-238z" />
<glyph unicode="&#xb6;" horiz-adv-x="984" d="M173 988q44 224 185 346t366 122h313l-291 -1456h-239l104 520h-74q-207 0 -306.5 130t-57.5 338z" />
<glyph unicode="&#xb7;" horiz-adv-x="555" d="M187 594l48 240h234l-48 -240h-234z" />
<glyph unicode="&#xb8;" horiz-adv-x="504" d="M-45 -447l20 137q53 0 91 22t48 67q9 48 -17.5 64t-103.5 21l58 139h174l-22 -54q57 -11 88 -51.5t15 -121.5q-23 -111 -110 -167t-241 -56z" />
<glyph unicode="&#xb9;" horiz-adv-x="542" d="M263 665l128 639h-116l30 150l308 23l-162 -812h-188z" />
<glyph unicode="&#xba;" horiz-adv-x="881" d="M234 1025l23 117q32 160 135 247.5t256 87.5q142 0 215 -93.5t44 -241.5l-23 -117q-32 -162 -134.5 -248t-256.5 -86q-142 0 -215.5 93t-43.5 241zM405 1025q-18 -92 10 -140t107 -48q70 0 121.5 52t69.5 136l23 117q18 90 -11 138.5t-106 48.5q-71 0 -122.5 -52.5 t-68.5 -134.5z" />
<glyph unicode="&#xbb;" horiz-adv-x="941" d="M33 151l306 399l-146 400h162l189 -390l-2 -6h1l-3 -13l-345 -390h-162zM387 151l306 399l-146 400h162l189 -390l-2 -6h1l-3 -13l-345 -390h-162z" />
<glyph unicode="&#xbc;" horiz-adv-x="1451" d="M232 189l890 1138l107 -72l-889 -1138zM314 664l128 639h-116l30 150l308 23l-162 -812h-188zM657 145l13 116l500 540h187l-102 -511h102l-29 -145h-102l-29 -145h-187l29 145h-382zM868 290h200l55 277l-3 2l-15 -20z" />
<glyph unicode="&#xbd;" horiz-adv-x="1547" d="M237 189l890 1138l107 -72l-889 -1138zM306 664l128 639h-116l30 150l308 23l-162 -812h-188zM747 0l29 145l333 256q71 55 95 89t32 76q9 48 -7 74t-65 26q-51 0 -86.5 -30t-44.5 -78h-186q23 116 115.5 185t233.5 69q125 0 188 -65t40 -182q-18 -89 -69.5 -141 t-195.5 -163l-140 -113l1 -3h324l-29 -145h-568z" />
<glyph unicode="&#xbe;" horiz-adv-x="1641" d="M190 895h187q-10 -47 14.5 -70.5t81.5 -23.5q54 0 93.5 26t49.5 71q12 60 -13 85.5t-89 25.5h-115l16 77l3 14l8 40h115q54 0 87.5 26.5t43.5 74.5q8 42 -15 67t-79 25q-45 0 -77.5 -22t-38.5 -56h-188q21 111 111.5 167.5t218.5 56.5q133 0 206 -59.5t51 -169.5 q-13 -60 -54 -104.5t-105 -69.5q60 -26 86 -72t13 -112q-25 -122 -117.5 -179t-238.5 -57q-123 0 -201 60.5t-54 178.5zM415 189l890 1138l107 -72l-889 -1138zM829 145l13 116l500 540h187l-102 -511h102l-29 -145h-102l-29 -145h-187l29 145h-382zM1040 290h200l55 277 l-3 2l-15 -20z" />
<glyph unicode="&#xbf;" horiz-adv-x="971" d="M11 8q27 138 111.5 237.5t215.5 196.5q63 50 85.5 94t40.5 133h238q-32 -147 -72.5 -205.5t-165.5 -152.5q-91 -83 -144.5 -149t-69.5 -150q-22 -105 14 -154.5t128 -49.5q69 0 131.5 45.5t82.5 135.5h239q-41 -186 -175 -284.5t-319 -98.5q-190 0 -284 107t-56 295z M498 849l46 233h242l-46 -233h-242z" />
<glyph unicode="&#xc0;" horiz-adv-x="1270" d="M-56 0l788 1456h226l199 -1456h-243l-40 348h-508l-180 -348h-242zM467 543h385l-69 603h-3zM577 1826h269l128 -266h-191z" />
<glyph unicode="&#xc1;" horiz-adv-x="1270" d="M-56 0l788 1456h226l199 -1456h-243l-40 348h-508l-180 -348h-242zM467 543h385l-69 603h-3zM751 1559l217 266h271l-304 -266h-184z" />
<glyph unicode="&#xc2;" horiz-adv-x="1270" d="M-56 0l788 1456h226l199 -1456h-243l-40 348h-508l-180 -348h-242zM467 543h385l-69 603h-3zM551 1597l6 26l298 240h137l202 -242l-5 -24h-183l-107 146l-166 -146h-182z" />
<glyph unicode="&#xc3;" horiz-adv-x="1270" d="M-56 0l788 1456h226l199 -1456h-243l-40 348h-508l-180 -348h-242zM467 543h385l-69 603h-3zM540 1637q15 99 80 166t153 67q50 0 126.5 -44.5t126.5 -44.5q34 0 65 32t38 78l121 -39q-17 -100 -82.5 -164.5t-152.5 -64.5q-63 0 -133 44.5t-119 44.5q-35 0 -65 -32 t-37 -78z" />
<glyph unicode="&#xc4;" horiz-adv-x="1270" d="M-56 0l788 1456h226l199 -1456h-243l-40 348h-508l-180 -348h-242zM467 543h385l-69 603h-3zM528 1601l33 204h232l-33 -204h-232zM978 1601l33 204h233l-33 -204h-233z" />
<glyph unicode="&#xc5;" horiz-adv-x="1270" d="M-56 0l788 1456h226l199 -1456h-243l-40 348h-508l-180 -348h-242zM467 543h385l-69 603h-3zM696 1737q18 92 86 145t156 53q79 0 127.5 -57t31.5 -141q-19 -93 -84.5 -143.5t-152.5 -50.5q-82 0 -132 54t-32 140zM802 1737q-9 -47 12.5 -74t63.5 -27q37 0 70.5 28.5 t42.5 72.5q10 49 -10.5 76.5t-61.5 27.5q-39 0 -73.5 -29.5t-43.5 -74.5z" />
<glyph unicode="&#xc6;" horiz-adv-x="1808" d="M-94 0l1065 1456h938l-39 -197h-599l-66 -408h507l-39 -197h-499l-74 -458h614l-39 -196h-845l54 340h-455l-237 -340h-286zM580 555h339l100 623l-3 1z" />
<glyph unicode="&#xc7;" horiz-adv-x="1229" d="M135 596l55 276q58 294 215.5 449.5t397.5 155.5q229 0 355.5 -139t101.5 -374h-240q14 153 -43.5 235.5t-198.5 82.5q-126 0 -219 -113.5t-129 -294.5l-56 -278q-39 -194 24.5 -308.5t207.5 -114.5q125 0 196 71t119 226h239q-68 -239 -205 -365t-371 -126 q-230 0 -366 176t-83 441zM374 -452l20 137q53 0 91 22t48 67q9 48 -17.5 64t-103.5 21l58 139h174l-22 -54q57 -11 88 -51.5t15 -121.5q-23 -111 -110 -167t-241 -56z" />
<glyph unicode="&#xc8;" horiz-adv-x="1115" d="M65 0l291 1456h913l-39 -195h-674l-82 -411h586l-39 -195h-586l-92 -461h681l-39 -194h-920zM521 1826h269l128 -266h-191z" />
<glyph unicode="&#xc9;" horiz-adv-x="1115" d="M65 0l291 1456h913l-39 -195h-674l-82 -411h586l-39 -195h-586l-92 -461h681l-39 -194h-920zM695 1559l217 266h271l-304 -266h-184z" />
<glyph unicode="&#xca;" horiz-adv-x="1115" d="M65 0l291 1456h913l-39 -195h-674l-82 -411h586l-39 -195h-586l-92 -461h681l-39 -194h-920zM495 1597l6 26l298 240h137l202 -242l-5 -24h-183l-107 146l-166 -146h-182z" />
<glyph unicode="&#xcb;" horiz-adv-x="1115" d="M65 0l291 1456h913l-39 -195h-674l-82 -411h586l-39 -195h-586l-92 -461h681l-39 -194h-920zM472 1601l33 204h232l-33 -204h-232zM922 1601l33 204h233l-33 -204h-233z" />
<glyph unicode="&#xcc;" horiz-adv-x="562" d="M76 0l291 1456h239l-291 -1456h-239zM223 1826h269l128 -266h-191z" />
<glyph unicode="&#xcd;" horiz-adv-x="562" d="M76 0l291 1456h239l-291 -1456h-239zM396 1559l217 266h271l-304 -266h-184z" />
<glyph unicode="&#xce;" horiz-adv-x="562" d="M76 0l291 1456h239l-291 -1456h-239zM197 1597l6 26l298 240h137l202 -242l-5 -24h-183l-107 146l-166 -146h-182z" />
<glyph unicode="&#xcf;" horiz-adv-x="562" d="M76 0l291 1456h239l-291 -1456h-239zM174 1601l33 204h232l-33 -204h-232zM624 1601l33 204h233l-33 -204h-233z" />
<glyph unicode="&#xd0;" horiz-adv-x="1324" d="M82 657l34 170h144l126 629h407q250 0 398.5 -179t95.5 -449l-45 -221q-60 -300 -229.5 -453.5t-436.5 -153.5h-481l131 657h-144zM373 194h235q155 0 255.5 110.5t139.5 302.5l45 223q39 197 -43.5 314t-257.5 117h-161l-87 -434h231l-34 -170h-231z" />
<glyph unicode="&#xd1;" horiz-adv-x="1365" d="M65 0l291 1456h239l374 -1047l3 1l209 1046h239l-291 -1456h-239l-374 1048l-3 -1l-209 -1047h-239zM585 1637q15 99 80 166t153 67q50 0 126.5 -44.5t126.5 -44.5q34 0 65 32t38 78l121 -39q-17 -100 -82.5 -164.5t-152.5 -64.5q-63 0 -133 44.5t-119 44.5 q-35 0 -65 -32t-37 -78z" />
<glyph unicode="&#xd2;" horiz-adv-x="1338" d="M135 603l52 262q58 292 224 452t417 160q240 0 381.5 -181t88.5 -444l-52 -262q-59 -292 -230.5 -451.5t-428.5 -159.5q-235 0 -370.5 179.5t-81.5 444.5zM373 603q-40 -196 31 -310.5t223 -114.5q141 0 242 112.5t139 299.5l53 264q38 193 -38.5 308t-234.5 115 q-134 0 -230 -112t-133 -298zM617 1847h269l128 -266h-191z" />
<glyph unicode="&#xd3;" horiz-adv-x="1338" d="M135 603l52 262q58 292 224 452t417 160q240 0 381.5 -181t88.5 -444l-52 -262q-59 -292 -230.5 -451.5t-428.5 -159.5q-235 0 -370.5 179.5t-81.5 444.5zM373 603q-40 -196 31 -310.5t223 -114.5q141 0 242 112.5t139 299.5l53 264q38 193 -38.5 308t-234.5 115 q-134 0 -230 -112t-133 -298zM791 1580l217 266h271l-304 -266h-184z" />
<glyph unicode="&#xd4;" horiz-adv-x="1338" d="M135 603l52 262q58 292 224 452t417 160q240 0 381.5 -181t88.5 -444l-52 -262q-59 -292 -230.5 -451.5t-428.5 -159.5q-235 0 -370.5 179.5t-81.5 444.5zM373 603q-40 -196 31 -310.5t223 -114.5q141 0 242 112.5t139 299.5l53 264q38 193 -38.5 308t-234.5 115 q-134 0 -230 -112t-133 -298zM591 1618l6 26l298 240h137l202 -242l-5 -24h-183l-107 146l-166 -146h-182z" />
<glyph unicode="&#xd5;" horiz-adv-x="1338" d="M135 603l52 262q58 292 224 452t417 160q240 0 381.5 -181t88.5 -444l-52 -262q-59 -292 -230.5 -451.5t-428.5 -159.5q-235 0 -370.5 179.5t-81.5 444.5zM373 603q-40 -196 31 -310.5t223 -114.5q141 0 242 112.5t139 299.5l53 264q38 193 -38.5 308t-234.5 115 q-134 0 -230 -112t-133 -298zM580 1658q15 99 80 166t153 67q50 0 126.5 -44.5t126.5 -44.5q34 0 65 32t38 78l121 -39q-17 -100 -82.5 -164.5t-152.5 -64.5q-63 0 -133 44.5t-119 44.5q-35 0 -65 -32t-37 -78z" />
<glyph unicode="&#xd6;" horiz-adv-x="1338" d="M135 603l52 262q58 292 224 452t417 160q240 0 381.5 -181t88.5 -444l-52 -262q-59 -292 -230.5 -451.5t-428.5 -159.5q-235 0 -370.5 179.5t-81.5 444.5zM373 603q-40 -196 31 -310.5t223 -114.5q141 0 242 112.5t139 299.5l53 264q38 193 -38.5 308t-234.5 115 q-134 0 -230 -112t-133 -298zM568 1622l33 204h232l-33 -204h-232zM1018 1622l33 204h233l-33 -204h-233z" />
<glyph unicode="&#xd7;" horiz-adv-x="1028" d="M63 364l357 321l-230 323l176 150l226 -319l355 319l115 -150l-360 -323l229 -321l-175 -150l-226 316l-352 -316z" />
<glyph unicode="&#xd8;" horiz-adv-x="1317" d="M50 -95l174 234q-69 88 -93 204t4 254l53 262q56 284 238 451t434 167q84 0 155.5 -25.5t130.5 -73.5l105 140h143l-169 -226q60 -88 80.5 -197.5t-3.5 -235.5l-53 -262q-57 -285 -242.5 -451.5t-444.5 -166.5q-74 0 -137 20t-117 60l-115 -154h-143zM357.5 457 q0.5 -63 17.5 -115l637 856q-34 38 -81.5 58.5t-110.5 20.5q-137 0 -248 -119.5t-146 -296.5l-53 -264q-16 -77 -15.5 -140zM439 235q30 -29 70 -43t93 -14q142 0 257 119.5t151 299.5l53 264q12 63 13 117t-9 101z" />
<glyph unicode="&#xd9;" horiz-adv-x="1310" d="M137 480l195 976h239l-195 -976q-34 -166 27 -236.5t198 -70.5q131 0 229 76.5t129 230.5l195 976h239l-195 -976q-53 -263 -219.5 -382t-416.5 -119q-224 0 -349 129.5t-76 371.5zM598 1826h269l128 -266h-191z" />
<glyph unicode="&#xda;" horiz-adv-x="1310" d="M137 480l195 976h239l-195 -976q-34 -166 27 -236.5t198 -70.5q131 0 229 76.5t129 230.5l195 976h239l-195 -976q-53 -263 -219.5 -382t-416.5 -119q-224 0 -349 129.5t-76 371.5zM772 1559l217 266h271l-304 -266h-184z" />
<glyph unicode="&#xdb;" horiz-adv-x="1310" d="M137 480l195 976h239l-195 -976q-34 -166 27 -236.5t198 -70.5q131 0 229 76.5t129 230.5l195 976h239l-195 -976q-53 -263 -219.5 -382t-416.5 -119q-224 0 -349 129.5t-76 371.5zM572 1597l6 26l298 240h137l202 -242l-5 -24h-183l-107 146l-166 -146h-182z" />
<glyph unicode="&#xdc;" horiz-adv-x="1310" d="M137 480l195 976h239l-195 -976q-34 -166 27 -236.5t198 -70.5q131 0 229 76.5t129 230.5l195 976h239l-195 -976q-53 -263 -219.5 -382t-416.5 -119q-224 0 -349 129.5t-76 371.5zM549 1601l33 204h232l-33 -204h-232zM999 1601l33 204h233l-33 -204h-233z" />
<glyph unicode="&#xdd;" horiz-adv-x="1207" d="M227 1456h267l176 -691l455 691h266l-656 -947l-102 -509h-238l105 527zM722 1559l217 266h271l-304 -266h-184z" />
<glyph unicode="&#xde;" horiz-adv-x="1151" d="M54 0l291 1456h239l-56 -280h220q216 0 324.5 -121.5t70.5 -316.5q-44 -213 -188.5 -325.5t-381.5 -112.5h-220l-60 -300h-239zM392 495h220q115 0 193 70t98 171q22 112 -23 178.5t-171 66.5h-218l-2 2z" />
<glyph unicode="&#xdf;" horiz-adv-x="1182" d="M45 0l219 1093q48 244 183.5 359t334.5 115q155 0 243 -91t54 -265q-26 -127 -99.5 -224t-85.5 -158q-16 -78 105.5 -214.5t93.5 -275.5q-40 -196 -153 -277.5t-309 -81.5q-71 0 -147 18t-108 44l87 196q36 -26 85.5 -45t108.5 -19q79 0 129.5 41t64.5 112 q17 87 -105 219.5t-93 278.5q19 96 98 195.5t95 174.5q17 87 -16 132t-92 45q-78 0 -144 -74t-93 -207l-218 -1091h-238z" />
<glyph unicode="&#xe0;" horiz-adv-x="1048" d="M69 305q34 171 160.5 251.5t343.5 80.5h158l19 95q18 92 -15.5 136.5t-119.5 44.5q-73 0 -127 -40t-66 -103h-239q29 144 160.5 238t323.5 94q170 0 264.5 -96t58.5 -276l-96 -481q-15 -74 -18.5 -131t4.5 -118h-242q-4 32 -4.5 64.5t2.5 64.5l-3 2q-61 -67 -140 -109 t-166 -42q-146 0 -217.5 87.5t-40.5 237.5zM309 309q-14 -68 13 -101t97 -33q67 0 135 35.5t109 86.5l38 188h-162q-88 0 -152 -52.5t-78 -123.5zM396 1504h269l128 -266h-191z" />
<glyph unicode="&#xe1;" horiz-adv-x="1048" d="M69 305q34 171 160.5 251.5t343.5 80.5h158l19 95q18 92 -15.5 136.5t-119.5 44.5q-73 0 -127 -40t-66 -103h-239q29 144 160.5 238t323.5 94q170 0 264.5 -96t58.5 -276l-96 -481q-15 -74 -18.5 -131t4.5 -118h-242q-4 32 -4.5 64.5t2.5 64.5l-3 2q-61 -67 -140 -109 t-166 -42q-146 0 -217.5 87.5t-40.5 237.5zM309 309q-14 -68 13 -101t97 -33q67 0 135 35.5t109 86.5l38 188h-162q-88 0 -152 -52.5t-78 -123.5zM570 1237l217 266h271l-304 -266h-184z" />
<glyph unicode="&#xe2;" horiz-adv-x="1048" d="M69 305q34 171 160.5 251.5t343.5 80.5h158l19 95q18 92 -15.5 136.5t-119.5 44.5q-73 0 -127 -40t-66 -103h-239q29 144 160.5 238t323.5 94q170 0 264.5 -96t58.5 -276l-96 -481q-15 -74 -18.5 -131t4.5 -118h-242q-4 32 -4.5 64.5t2.5 64.5l-3 2q-61 -67 -140 -109 t-166 -42q-146 0 -217.5 87.5t-40.5 237.5zM309 309q-14 -68 13 -101t97 -33q67 0 135 35.5t109 86.5l38 188h-162q-88 0 -152 -52.5t-78 -123.5zM370 1275l6 26l298 240h137l202 -242l-5 -24h-183l-107 146l-166 -146h-182z" />
<glyph unicode="&#xe3;" horiz-adv-x="1048" d="M69 305q34 171 160.5 251.5t343.5 80.5h158l19 95q18 92 -15.5 136.5t-119.5 44.5q-73 0 -127 -40t-66 -103h-239q29 144 160.5 238t323.5 94q170 0 264.5 -96t58.5 -276l-96 -481q-15 -74 -18.5 -131t4.5 -118h-242q-4 32 -4.5 64.5t2.5 64.5l-3 2q-61 -67 -140 -109 t-166 -42q-146 0 -217.5 87.5t-40.5 237.5zM309 309q-14 -68 13 -101t97 -33q67 0 135 35.5t109 86.5l38 188h-162q-88 0 -152 -52.5t-78 -123.5zM359 1315q15 99 80 166t153 67q50 0 126.5 -44.5t126.5 -44.5q34 0 65 32t38 78l121 -39q-17 -100 -82.5 -164.5t-152.5 -64.5 q-63 0 -133 44.5t-119 44.5q-35 0 -65 -32t-37 -78z" />
<glyph unicode="&#xe4;" horiz-adv-x="1048" d="M69 305q34 171 160.5 251.5t343.5 80.5h158l19 95q18 92 -15.5 136.5t-119.5 44.5q-73 0 -127 -40t-66 -103h-239q29 144 160.5 238t323.5 94q170 0 264.5 -96t58.5 -276l-96 -481q-15 -74 -18.5 -131t4.5 -118h-242q-4 32 -4.5 64.5t2.5 64.5l-3 2q-61 -67 -140 -109 t-166 -42q-146 0 -217.5 87.5t-40.5 237.5zM309 309q-14 -68 13 -101t97 -33q67 0 135 35.5t109 86.5l38 188h-162q-88 0 -152 -52.5t-78 -123.5zM347 1279l33 204h232l-33 -204h-232zM797 1279l33 204h233l-33 -204h-233z" />
<glyph unicode="&#xe5;" horiz-adv-x="1048" d="M69 305q34 171 160.5 251.5t343.5 80.5h158l19 95q18 92 -15.5 136.5t-119.5 44.5q-73 0 -127 -40t-66 -103h-239q29 144 160.5 238t323.5 94q170 0 264.5 -96t58.5 -276l-96 -481q-15 -74 -18.5 -131t4.5 -118h-242q-4 32 -4.5 64.5t2.5 64.5l-3 2q-61 -67 -140 -109 t-166 -42q-146 0 -217.5 87.5t-40.5 237.5zM309 309q-14 -68 13 -101t97 -33q67 0 135 35.5t109 86.5l38 188h-162q-88 0 -152 -52.5t-78 -123.5zM515 1415q18 92 86 145t156 53q79 0 127.5 -57t31.5 -141q-19 -93 -84.5 -143.5t-152.5 -50.5q-82 0 -132 54t-32 140z M621 1415q-9 -47 12.5 -74t63.5 -27q37 0 70.5 28.5t42.5 72.5q10 49 -10.5 76.5t-61.5 27.5q-39 0 -73.5 -29.5t-43.5 -74.5z" />
<glyph unicode="&#xe6;" horiz-adv-x="1618" d="M27 312q34 172 158.5 251t349.5 79h187l14 71q19 98 -11 146t-109 48q-77 0 -135.5 -45t-71.5 -110l-234 19q31 157 159 244t323 87q92 0 163 -31t114 -92q72 62 155.5 92.5t180.5 30.5q192 0 281 -131.5t43 -358.5l-28 -141h-633q-22 -146 24.5 -222t176.5 -76 q86 0 152.5 24t147.5 68l38 -165q-62 -46 -163 -83.5t-228 -37.5q-117 0 -202 44.5t-135 129.5q-70 -76 -179 -125t-251 -49q-161 0 -239 89.5t-48 243.5zM267 308q-15 -71 16.5 -107.5t114.5 -36.5q56 0 130 36t122 85l38 190h-184q-91 0 -157.5 -49t-79.5 -118zM971 642 h393l6 30q23 114 -8.5 174.5t-130.5 60.5q-88 0 -155 -72t-105 -193z" />
<glyph unicode="&#xe7;" horiz-adv-x="1012" d="M93 523l5 35q39 249 178 396.5t370 147.5q181 0 279.5 -113.5t69.5 -294.5h-225q15 91 -26.5 152t-130.5 61q-120 0 -186 -98.5t-90 -250.5l-5 -35q-27 -163 4.5 -256t159.5 -93q79 0 143.5 51.5t76.5 132.5h225q-25 -160 -162.5 -269t-310.5 -109q-220 0 -317 153 t-58 390zM262 -452l20 137q53 0 91 22t48 67q9 48 -17.5 64t-103.5 21l58 139h174l-22 -54q57 -11 88 -51.5t15 -121.5q-23 -111 -110 -167t-241 -56z" />
<glyph unicode="&#xe8;" horiz-adv-x="1022" d="M101 516l6 40q40 250 187 398.5t343 147.5q202 0 291 -131.5t54 -356.5l-23 -143h-625q-14 -139 33.5 -218t163.5 -79q90 0 159.5 24t135.5 68l42 -166q-65 -52 -161 -86t-222 -34q-212 0 -317.5 149t-66.5 387zM359 1505h269l128 -266h-191zM368 649h383l4 25 q17 109 -17.5 171t-131.5 62q-77 0 -140 -71t-98 -187z" />
<glyph unicode="&#xe9;" horiz-adv-x="1022" d="M101 516l6 40q40 250 187 398.5t343 147.5q202 0 291 -131.5t54 -356.5l-23 -143h-625q-14 -139 33.5 -218t163.5 -79q90 0 159.5 24t135.5 68l42 -166q-65 -52 -161 -86t-222 -34q-212 0 -317.5 149t-66.5 387zM368 649h383l4 25q17 109 -17.5 171t-131.5 62 q-77 0 -140 -71t-98 -187zM533 1238l217 266h271l-304 -266h-184z" />
<glyph unicode="&#xea;" horiz-adv-x="1022" d="M101 516l6 40q40 250 187 398.5t343 147.5q202 0 291 -131.5t54 -356.5l-23 -143h-625q-14 -139 33.5 -218t163.5 -79q90 0 159.5 24t135.5 68l42 -166q-65 -52 -161 -86t-222 -34q-212 0 -317.5 149t-66.5 387zM333 1276l6 26l298 240h137l202 -242l-5 -24h-183 l-107 146l-166 -146h-182zM368 649h383l4 25q17 109 -17.5 171t-131.5 62q-77 0 -140 -71t-98 -187z" />
<glyph unicode="&#xeb;" horiz-adv-x="1022" d="M101 516l6 40q40 250 187 398.5t343 147.5q202 0 291 -131.5t54 -356.5l-23 -143h-625q-14 -139 33.5 -218t163.5 -79q90 0 159.5 24t135.5 68l42 -166q-65 -52 -161 -86t-222 -34q-212 0 -317.5 149t-66.5 387zM310 1280l33 204h232l-33 -204h-232zM368 649h383l4 25 q17 109 -17.5 171t-131.5 62q-77 0 -140 -71t-98 -187zM760 1280l33 204h233l-33 -204h-233z" />
<glyph unicode="&#xec;" horiz-adv-x="520" d="M50 0l216 1082h240l-216 -1082h-240zM130 1483h269l128 -266h-191z" />
<glyph unicode="&#xed;" horiz-adv-x="520" d="M50 0l216 1082h240l-216 -1082h-240zM303 1216l217 266h271l-304 -266h-184z" />
<glyph unicode="&#xee;" horiz-adv-x="520" d="M50 0l216 1082h240l-216 -1082h-240zM104 1254l6 26l298 240h137l202 -242l-5 -24h-183l-107 146l-166 -146h-182z" />
<glyph unicode="&#xef;" horiz-adv-x="520" d="M50 0l216 1082h240l-216 -1082h-240zM81 1258l33 204h232l-33 -204h-232zM531 1258l33 204h233l-33 -204h-233z" />
<glyph unicode="&#xf0;" horiz-adv-x="1137" d="M65 468q48 246 198.5 375.5t365.5 129.5q70 0 130 -28.5t105 -79.5q0 98 -21.5 171t-61.5 130l-264 -142l-54 109l227 122q-29 20 -60 36t-66 30l112 196q71 -20 131 -54.5t111 -83.5l226 122l54 -109l-202 -109q77 -121 99 -279.5t-16 -354.5l-18 -87 q-56 -279 -222.5 -431t-386.5 -152q-204 0 -316.5 141t-70.5 348zM305 468q-27 -130 22 -212.5t168 -82.5q107 0 200 110t127 279l18 89l5 26q-23 48 -81 78t-152 30q-106 0 -193.5 -90.5t-113.5 -226.5z" />
<glyph unicode="&#xf1;" d="M34 0l216 1082h218l-15 -144l2 -1q65 79 145.5 122t173.5 43q151 0 222 -102t28 -320l-136 -680h-239l136 678q26 133 -7.5 179t-130.5 46q-60 0 -116 -31t-101 -87l-157 -785h-239zM383 1315q15 99 80 166t153 67q50 0 126.5 -44.5t126.5 -44.5q34 0 65 32t38 78 l121 -39q-17 -100 -82.5 -164.5t-152.5 -64.5q-63 0 -133 44.5t-119 44.5q-35 0 -65 -32t-37 -78z" />
<glyph unicode="&#xf2;" d="M97 530l3 21q41 256 184 403.5t366 147.5q213 0 314 -153.5t63 -397.5l-3 -21q-42 -258 -185 -404t-366 -146q-213 0 -314.5 152.5t-61.5 397.5zM336 530q-27 -168 10.5 -262t157.5 -94q111 0 183 98.5t98 257.5l3 21q26 165 -12.5 260.5t-156.5 95.5q-112 0 -183.5 -100 t-96.5 -256zM384 1504h269l128 -266h-191z" />
<glyph unicode="&#xf3;" d="M97 530l3 21q41 256 184 403.5t366 147.5q213 0 314 -153.5t63 -397.5l-3 -21q-42 -258 -185 -404t-366 -146q-213 0 -314.5 152.5t-61.5 397.5zM336 530q-27 -168 10.5 -262t157.5 -94q111 0 183 98.5t98 257.5l3 21q26 165 -12.5 260.5t-156.5 95.5q-112 0 -183.5 -100 t-96.5 -256zM558 1237l217 266h271l-304 -266h-184z" />
<glyph unicode="&#xf4;" d="M97 530l3 21q41 256 184 403.5t366 147.5q213 0 314 -153.5t63 -397.5l-3 -21q-42 -258 -185 -404t-366 -146q-213 0 -314.5 152.5t-61.5 397.5zM336 530q-27 -168 10.5 -262t157.5 -94q111 0 183 98.5t98 257.5l3 21q26 165 -12.5 260.5t-156.5 95.5q-112 0 -183.5 -100 t-96.5 -256zM358 1275l6 26l298 240h137l202 -242l-5 -24h-183l-107 146l-166 -146h-182z" />
<glyph unicode="&#xf5;" d="M97 530l3 21q41 256 184 403.5t366 147.5q213 0 314 -153.5t63 -397.5l-3 -21q-42 -258 -185 -404t-366 -146q-213 0 -314.5 152.5t-61.5 397.5zM336 530q-27 -168 10.5 -262t157.5 -94q111 0 183 98.5t98 257.5l3 21q26 165 -12.5 260.5t-156.5 95.5q-112 0 -183.5 -100 t-96.5 -256zM347 1315q15 99 80 166t153 67q50 0 126.5 -44.5t126.5 -44.5q34 0 65 32t38 78l121 -39q-17 -100 -82.5 -164.5t-152.5 -64.5q-63 0 -133 44.5t-119 44.5q-35 0 -65 -32t-37 -78z" />
<glyph unicode="&#xf6;" d="M97 530l3 21q41 256 184 403.5t366 147.5q213 0 314 -153.5t63 -397.5l-3 -21q-42 -258 -185 -404t-366 -146q-213 0 -314.5 152.5t-61.5 397.5zM335 1279l33 204h232l-33 -204h-232zM336 530q-27 -168 10.5 -262t157.5 -94q111 0 183 98.5t98 257.5l3 21 q26 165 -12.5 260.5t-156.5 95.5q-112 0 -183.5 -100t-96.5 -256zM785 1279l33 204h233l-33 -204h-233z" />
<glyph unicode="&#xf7;" horiz-adv-x="1098" d="M98 582l43 212h942l-43 -212h-942zM370 170l44 221h236l-44 -221h-236zM533 985l44 221h236l-44 -221h-236z" />
<glyph unicode="&#xf8;" horiz-adv-x="1093" d="M62 -138l144 219q-77 74 -105 188.5t-4 260.5l3 21q41 256 184 403.5t366 147.5q56 0 104 -12t91 -35l103 157h140l-152 -232q65 -77 88.5 -186t2.5 -243l-3 -21q-42 -258 -185 -404t-366 -146q-49 0 -91 9t-81 26l-100 -153h-139zM324 394q1 -60 17 -107l385 587 q-22 16 -48 24.5t-59 8.5q-112 0 -183.5 -100t-96.5 -256l-3 -21q-13 -76 -12 -136zM418 192q18 -10 39 -14t47 -4q111 0 183 98.5t98 257.5l3 21q9 61 9.5 112.5t-7.5 95.5z" />
<glyph unicode="&#xf9;" d="M118 435l129 647h238l-129 -649q-31 -154 -2.5 -204.5t115.5 -50.5q75 0 134 31.5t105 92.5l156 780h239l-216 -1082h-212l13 132l-3 1q-62 -76 -140 -114.5t-173 -38.5q-156 0 -229 110t-25 345zM416 1483h269l128 -266h-191z" />
<glyph unicode="&#xfa;" d="M118 435l129 647h238l-129 -649q-31 -154 -2.5 -204.5t115.5 -50.5q75 0 134 31.5t105 92.5l156 780h239l-216 -1082h-212l13 132l-3 1q-62 -76 -140 -114.5t-173 -38.5q-156 0 -229 110t-25 345zM590 1216l217 266h271l-304 -266h-184z" />
<glyph unicode="&#xfb;" d="M118 435l129 647h238l-129 -649q-31 -154 -2.5 -204.5t115.5 -50.5q75 0 134 31.5t105 92.5l156 780h239l-216 -1082h-212l13 132l-3 1q-62 -76 -140 -114.5t-173 -38.5q-156 0 -229 110t-25 345zM390 1254l6 26l298 240h137l202 -242l-5 -24h-183l-107 146l-166 -146 h-182z" />
<glyph unicode="&#xfc;" d="M118 435l129 647h238l-129 -649q-31 -154 -2.5 -204.5t115.5 -50.5q75 0 134 31.5t105 92.5l156 780h239l-216 -1082h-212l13 132l-3 1q-62 -76 -140 -114.5t-173 -38.5q-156 0 -229 110t-25 345zM367 1258l33 204h232l-33 -204h-232zM817 1258l33 204h233l-33 -204h-233 z" />
<glyph unicode="&#xfd;" horiz-adv-x="980" d="M-71 -417l64 188q12 -1 33.5 -3t33.5 -2q58 0 96 33.5t87 115.5l56 97l-150 1070h261l52 -648l1 -95l3 -1l362 744h262l-663 -1246q-61 -113 -150 -193t-226 -80q-27 0 -60 6t-62 14zM535 1216l217 266h271l-304 -266h-184z" />
<glyph unicode="&#xfe;" horiz-adv-x="1107" d="M-40 -416l83 416l16 83l200 999l96 478h239l-112 -562l3 -2q54 51 117 78.5t138 27.5q179 0 262.5 -169.5t31.5 -426.5l-4 -21q-52 -257 -167.5 -381.5t-306.5 -124.5q-82 0 -146.5 30t-107.5 90l-20 -99l-83 -416h-239zM337 274q21 -50 65 -75.5t117 -25.5q107 0 175 82 t98 230l4 21q36 180 -2 288.5t-154 108.5q-61 0 -111.5 -35t-92.5 -97z" />
<glyph unicode="&#xff;" horiz-adv-x="980" d="M-71 -417l64 188q12 -1 33.5 -3t33.5 -2q58 0 96 33.5t87 115.5l56 97l-150 1070h261l52 -648l1 -95l3 -1l362 744h262l-663 -1246q-61 -113 -150 -193t-226 -80q-27 0 -60 6t-62 14zM312 1258l33 204h232l-33 -204h-232zM762 1258l33 204h233l-33 -204h-233z" />
<glyph unicode="&#x152;" horiz-adv-x="1851" d="M128 576l61 304q57 288 233 442.5t430 154.5q60 0 126.5 -6t136.5 -15h841l-39 -195h-674l-82 -411h586l-39 -195h-586l-92 -461h681l-39 -194h-848q-89 -10 -148 -15.5t-121 -5.5q-232 0 -356 165.5t-71 431.5zM366 576q-43 -213 17 -307.5t211 -94.5q45 0 94 3.5 t102 11.5l215 1077q-52 7 -98 11.5t-94 4.5q-138 0 -242.5 -102.5t-143.5 -297.5z" />
<glyph unicode="&#x153;" horiz-adv-x="1725" d="M111 530l4 21q52 263 199.5 407t371.5 144q106 0 184 -44t126 -125q78 84 171 126.5t198 42.5q197 0 283.5 -133t42.5 -355l-29 -143h-626q-20 -143 25 -220.5t162 -77.5q85 0 157.5 24.5t139.5 68.5l45 -159q-69 -56 -168.5 -92t-226.5 -36q-108 0 -187 42.5t-128 123.5 q-78 -83 -175 -124.5t-216 -41.5q-207 0 -304.5 154t-48.5 397zM349 265.5q34 -92.5 154 -92.5q108 0 185.5 99.5t109.5 257.5l4 21q34 168 -1 262t-154 94q-108 0 -186 -101t-108 -255l-4 -21q-34 -172 0 -264.5zM1077 649h385l5 25q22 111 -10.5 172t-130.5 61 q-74 0 -141 -71.5t-108 -186.5z" />
<glyph unicode="&#x178;" horiz-adv-x="1207" d="M227 1456h267l176 -691l455 691h266l-656 -947l-102 -509h-238l105 527zM499 1601l33 204h232l-33 -204h-232zM949 1601l33 204h233l-33 -204h-233z" />
<glyph unicode="&#x2c6;" horiz-adv-x="952" d="M314 1252l6 26l298 240h137l202 -242l-5 -24h-183l-107 146l-166 -146h-182z" />
<glyph unicode="&#x2dc;" horiz-adv-x="937" d="M262 1273q15 99 80 166t153 67q50 0 126.5 -44.5t126.5 -44.5q34 0 65 32t38 78l121 -39q-17 -100 -82.5 -164.5t-152.5 -64.5q-63 0 -133 44.5t-119 44.5q-35 0 -65 -32t-37 -78z" />
<glyph unicode="&#x2000;" horiz-adv-x="967" />
<glyph unicode="&#x2001;" horiz-adv-x="1935" />
<glyph unicode="&#x2002;" horiz-adv-x="967" />
<glyph unicode="&#x2003;" horiz-adv-x="1935" />
<glyph unicode="&#x2004;" horiz-adv-x="645" />
<glyph unicode="&#x2005;" horiz-adv-x="483" />
<glyph unicode="&#x2006;" horiz-adv-x="322" />
<glyph unicode="&#x2007;" horiz-adv-x="322" />
<glyph unicode="&#x2008;" horiz-adv-x="241" />
<glyph unicode="&#x2009;" horiz-adv-x="387" />
<glyph unicode="&#x200a;" horiz-adv-x="107" />
<glyph unicode="&#x2010;" horiz-adv-x="640" d="M91 521l39 196h492l-39 -196h-492z" />
<glyph unicode="&#x2011;" horiz-adv-x="640" d="M91 521l39 196h492l-39 -196h-492z" />
<glyph unicode="&#x2012;" horiz-adv-x="640" d="M91 521l39 196h492l-39 -196h-492z" />
<glyph unicode="&#x2013;" horiz-adv-x="1326" d="M210 621l51 196h1009l-51 -196h-1009z" />
<glyph unicode="&#x2014;" horiz-adv-x="1558" d="M197 621l62 196h1242l-63 -196h-1241z" />
<glyph unicode="&#x2018;" horiz-adv-x="436" d="M211 1011l37 185q21 109 89.5 213t163.5 177l110 -77q-57 -72 -92.5 -146t-52.5 -165l-38 -187h-217z" />
<glyph unicode="&#x2019;" horiz-adv-x="432" d="M178 1059q55 71 90 145t54 166l38 190h218l-38 -188q-22 -109 -90.5 -213.5t-163.5 -176.5z" />
<glyph unicode="&#x201a;" horiz-adv-x="451" d="M-81 -240q56 71 90 145t53 165l40 199h219l-41 -198q-22 -107 -90 -211t-163 -178z" />
<glyph unicode="&#x201c;" horiz-adv-x="763" d="M213 1011l37 185q21 109 89.5 213t163.5 177l110 -77q-57 -72 -92.5 -146t-52.5 -165l-38 -187h-217zM533 1011l37 185q21 109 89.5 213t163.5 177l110 -77q-57 -72 -92.5 -146t-52.5 -165l-38 -187h-217z" />
<glyph unicode="&#x201d;" horiz-adv-x="770" d="M191 1059q55 71 90 145t54 166l38 190h218l-38 -188q-22 -109 -90.5 -213.5t-163.5 -176.5zM508 1059q55 71 90 145t54 166l38 190h218l-38 -188q-22 -109 -90.5 -213.5t-163.5 -176.5z" />
<glyph unicode="&#x201e;" horiz-adv-x="752" d="M-81 -240q56 71 90 145t53 165l40 199h219l-41 -198q-22 -107 -90 -211t-163 -178zM229 -240q55 72 90 145.5t54 164.5l40 199h218l-40 -198q-22 -107 -90.5 -211t-163.5 -178z" />
<glyph unicode="&#x2022;" horiz-adv-x="681" d="M190 724l15 77q20 103 87 159t166 56q92 0 139.5 -60t28.5 -155l-15 -77q-21 -104 -87.5 -158.5t-166.5 -54.5q-91 0 -138.5 59t-28.5 154z" />
<glyph unicode="&#x2026;" horiz-adv-x="1368" d="M61 0l47 233h236l-47 -233h-236zM492 0l47 233h236l-47 -233h-236zM908 0l47 233h236l-47 -233h-236z" />
<glyph unicode="&#x202f;" horiz-adv-x="387" />
<glyph unicode="&#x2039;" horiz-adv-x="594" d="M128 541l1 6l3 13l346 390h162l-307 -400l147 -399h-162z" />
<glyph unicode="&#x203a;" horiz-adv-x="585" d="M27 151l306 399l-146 400h162l189 -390l-2 -6h1l-3 -13l-345 -390h-162z" />
<glyph unicode="&#x205f;" horiz-adv-x="483" />
<glyph unicode="&#x20ac;" horiz-adv-x="1037" d="M88 496l29 142h133l31 156h-133l28 142h133l3 12q52 262 210.5 395.5t389.5 133.5q54 0 108.5 -8t113.5 -23l-60 -199q-48 16 -97.5 25.5t-103.5 9.5q-114 0 -203 -89.5t-119 -242.5l-3 -14h419l-28 -142h-419l-31 -156h419l-29 -142h-419v-2q-33 -163 18 -242t176 -79 q51 0 105.5 8.5t106.5 25.5l-19 -197q-58 -15 -115.5 -23t-116.5 -8q-213 0 -327.5 139t-66.5 376v2h-133z" />
<glyph unicode="&#x2122;" horiz-adv-x="1212" d="M286 1361l19 95h364l-19 -95h-127l-88 -443h-113l88 443h-124zM629 916l108 540h132l54 -376l3 -1l206 377h126l-108 -540h-106l63 316l-3 1l-183 -317h-57l-59 328h-3l-65 -328h-108z" />
<glyph unicode="&#x25fc;" horiz-adv-x="1080" d="M0 0v1080h1080v-1080h-1080z" />
<glyph unicode="&#xfb02;" horiz-adv-x="1195" d="M116 0l180 902h-152l36 180h152l26 126q38 194 144.5 283.5t279.5 89.5q32 0 66 -5.5t73 -15.5l-61 -188q-17 4 -39 7t-49 3q-68 0 -113.5 -44.5t-61.5 -129.5l-26 -126h200l-36 -180h-200l-180 -902h-239zM735 0l312 1560h239l-312 -1560h-239z" />
<glyph unicode="&#xfb03;" horiz-adv-x="1811" d="M116 0l180 902h-152l36 180h152l26 126q38 194 144.5 283.5t279.5 89.5q32 0 66 -5.5t73 -15.5l-61 -188q-17 4 -39 7t-49 3q-68 0 -113.5 -44.5t-61.5 -129.5l-26 -126h200l-36 -180h-200l-180 -902h-239zM775 0l180 902h-152l36 180h152l19 92q42 212 166.5 309.5 t329.5 97.5q65 0 130 -15.5t145 -44.5l-77 -201q-51 21 -104.5 34.5t-118.5 13.5q-96 0 -154.5 -48.5t-77.5 -145.5l-19 -92h193l-36 -180h-193l-180 -902h-239zM1350 0l216 1082h239l-216 -1082h-239z" />
<glyph unicode="&#xfb04;" horiz-adv-x="1879" d="M116 0l180 902h-152l36 180h152l26 126q38 194 144.5 283.5t279.5 89.5q32 0 66 -5.5t73 -15.5l-61 -188q-17 4 -39 7t-49 3q-68 0 -113.5 -44.5t-61.5 -129.5l-26 -126h200l-36 -180h-200l-180 -902h-239zM800 0l180 902h-152l36 180h152l26 126q38 194 144.5 283.5 t279.5 89.5q32 0 66 -5.5t73 -15.5l-61 -188q-17 4 -39 7t-49 3q-68 0 -113.5 -44.5t-61.5 -129.5l-26 -126h200l-36 -180h-200l-180 -902h-239zM1419 0l312 1560h239l-312 -1560h-239z" />
<hkern u1="&#x22;" u2="w" k="-11" />
<hkern u1="&#x27;" u2="w" k="-11" />
<hkern u1="&#x28;" u2="&#x178;" k="-22" />
<hkern u1="&#x28;" u2="&#xdd;" k="-22" />
<hkern u1="&#x28;" u2="Y" k="-22" />
<hkern u1="&#x28;" u2="W" k="-38" />
<hkern u1="&#x28;" u2="V" k="-20" />
<hkern u1="&#x2f;" u2="&#x2f;" k="248" />
<hkern u1="A" u2="w" k="33" />
<hkern u1="A" u2="t" k="17" />
<hkern u1="A" u2="&#x3f;" k="81" />
<hkern u1="C" u2="&#x7d;" k="17" />
<hkern u1="C" u2="]" k="12" />
<hkern u1="C" u2="&#x29;" k="26" />
<hkern u1="D" u2="&#xc6;" k="33" />
<hkern u1="E" u2="w" k="22" />
<hkern u1="E" u2="f" k="18" />
<hkern u1="F" u2="&#x2026;" k="274" />
<hkern u1="F" u2="&#x201e;" k="274" />
<hkern u1="F" u2="&#x201a;" k="274" />
<hkern u1="F" u2="&#x153;" k="21" />
<hkern u1="F" u2="&#xff;" k="24" />
<hkern u1="F" u2="&#xfd;" k="24" />
<hkern u1="F" u2="&#xfc;" k="22" />
<hkern u1="F" u2="&#xfb;" k="22" />
<hkern u1="F" u2="&#xfa;" k="22" />
<hkern u1="F" u2="&#xf9;" k="22" />
<hkern u1="F" u2="&#xf6;" k="21" />
<hkern u1="F" u2="&#xf5;" k="21" />
<hkern u1="F" u2="&#xf4;" k="21" />
<hkern u1="F" u2="&#xf3;" k="21" />
<hkern u1="F" u2="&#xf2;" k="21" />
<hkern u1="F" u2="&#xeb;" k="21" />
<hkern u1="F" u2="&#xea;" k="21" />
<hkern u1="F" u2="&#xe9;" k="21" />
<hkern u1="F" u2="&#xe8;" k="21" />
<hkern u1="F" u2="&#xe7;" k="21" />
<hkern u1="F" u2="&#xe5;" k="34" />
<hkern u1="F" u2="&#xe4;" k="34" />
<hkern u1="F" u2="&#xe3;" k="34" />
<hkern u1="F" u2="&#xe2;" k="34" />
<hkern u1="F" u2="&#xe1;" k="34" />
<hkern u1="F" u2="&#xe0;" k="34" />
<hkern u1="F" u2="&#xc5;" k="192" />
<hkern u1="F" u2="&#xc4;" k="192" />
<hkern u1="F" u2="&#xc3;" k="192" />
<hkern u1="F" u2="&#xc2;" k="192" />
<hkern u1="F" u2="&#xc1;" k="192" />
<hkern u1="F" u2="&#xc0;" k="192" />
<hkern u1="F" u2="y" k="24" />
<hkern u1="F" u2="v" k="24" />
<hkern u1="F" u2="u" k="22" />
<hkern u1="F" u2="r" k="26" />
<hkern u1="F" u2="q" k="21" />
<hkern u1="F" u2="o" k="21" />
<hkern u1="F" u2="g" k="21" />
<hkern u1="F" u2="e" k="21" />
<hkern u1="F" u2="d" k="21" />
<hkern u1="F" u2="c" k="21" />
<hkern u1="F" u2="a" k="34" />
<hkern u1="F" u2="T" k="-20" />
<hkern u1="F" u2="J" k="208" />
<hkern u1="F" u2="A" k="192" />
<hkern u1="F" u2="&#x2e;" k="274" />
<hkern u1="F" u2="&#x2c;" k="274" />
<hkern u1="K" u2="w" k="63" />
<hkern u1="L" u2="w" k="52" />
<hkern u1="O" u2="&#xc6;" k="33" />
<hkern u1="P" u2="&#xc6;" k="297" />
<hkern u1="P" u2="t" k="-14" />
<hkern u1="Q" u2="&#x178;" k="35" />
<hkern u1="Q" u2="&#xdd;" k="35" />
<hkern u1="Q" u2="Y" k="35" />
<hkern u1="Q" u2="W" k="20" />
<hkern u1="Q" u2="V" k="28" />
<hkern u1="Q" u2="T" k="33" />
<hkern u1="R" u2="&#x178;" k="48" />
<hkern u1="R" u2="&#xdd;" k="48" />
<hkern u1="R" u2="Y" k="48" />
<hkern u1="R" u2="V" k="19" />
<hkern u1="R" u2="T" k="50" />
<hkern u1="T" u2="&#xf8;" k="95" />
<hkern u1="T" u2="&#xe6;" k="84" />
<hkern u1="T" u2="&#xc6;" k="189" />
<hkern u1="T" u2="&#xbb;" k="146" />
<hkern u1="T" u2="&#xab;" k="148" />
<hkern u1="T" u2="w" k="47" />
<hkern u1="T" u2="r" k="65" />
<hkern u1="V" u2="&#x7d;" k="-19" />
<hkern u1="V" u2="r" k="30" />
<hkern u1="V" u2="]" k="-17" />
<hkern u1="V" u2="&#x29;" k="-20" />
<hkern u1="W" u2="&#x7d;" k="-14" />
<hkern u1="W" u2="r" k="21" />
<hkern u1="W" u2="]" k="-12" />
<hkern u1="W" u2="&#x29;" k="-15" />
<hkern u1="Y" u2="&#x2022;" k="45" />
<hkern u1="Y" u2="&#xf8;" k="64" />
<hkern u1="Y" u2="&#xe6;" k="63" />
<hkern u1="Y" u2="&#xc6;" k="96" />
<hkern u1="Y" u2="&#xbb;" k="51" />
<hkern u1="Y" u2="&#xab;" k="82" />
<hkern u1="Y" u2="&#x7d;" k="-19" />
<hkern u1="Y" u2="t" k="22" />
<hkern u1="Y" u2="r" k="40" />
<hkern u1="Y" u2="f" k="22" />
<hkern u1="Y" u2="]" k="-18" />
<hkern u1="Y" u2="&#x2a;" k="49" />
<hkern u1="Y" u2="&#x29;" k="-20" />
<hkern u1="Y" u2="&#x26;" k="30" />
<hkern u1="Z" u2="w" k="27" />
<hkern u1="[" u2="&#xdc;" k="18" />
<hkern u1="[" u2="&#xdb;" k="18" />
<hkern u1="[" u2="&#xda;" k="18" />
<hkern u1="[" u2="&#xd9;" k="18" />
<hkern u1="[" u2="U" k="18" />
<hkern u1="[" u2="J" k="18" />
<hkern u1="f" u2="&#x201d;" k="-16" />
<hkern u1="f" u2="&#x201c;" k="-16" />
<hkern u1="f" u2="&#x2019;" k="-16" />
<hkern u1="f" u2="&#x2018;" k="-16" />
<hkern u1="f" u2="&#x153;" k="24" />
<hkern u1="f" u2="&#xeb;" k="24" />
<hkern u1="f" u2="&#xea;" k="24" />
<hkern u1="f" u2="&#xe9;" k="24" />
<hkern u1="f" u2="&#xe8;" k="24" />
<hkern u1="f" u2="&#xe7;" k="24" />
<hkern u1="f" u2="&#x7d;" k="-19" />
<hkern u1="f" u2="q" k="24" />
<hkern u1="f" u2="g" k="24" />
<hkern u1="f" u2="e" k="24" />
<hkern u1="f" u2="d" k="24" />
<hkern u1="f" u2="c" k="24" />
<hkern u1="f" u2="]" k="-18" />
<hkern u1="f" u2="&#x29;" k="-20" />
<hkern u1="f" u2="&#x27;" k="-16" />
<hkern u1="f" u2="&#x22;" k="-16" />
<hkern u1="k" u2="&#x153;" k="20" />
<hkern u1="k" u2="&#xeb;" k="20" />
<hkern u1="k" u2="&#xea;" k="20" />
<hkern u1="k" u2="&#xe9;" k="20" />
<hkern u1="k" u2="&#xe8;" k="20" />
<hkern u1="k" u2="&#xe7;" k="20" />
<hkern u1="k" u2="q" k="20" />
<hkern u1="k" u2="g" k="20" />
<hkern u1="k" u2="e" k="20" />
<hkern u1="k" u2="d" k="20" />
<hkern u1="k" u2="c" k="20" />
<hkern u1="r" u2="w" k="-17" />
<hkern u1="r" u2="t" k="-24" />
<hkern u1="r" u2="f" k="-20" />
<hkern u1="t" u2="&#xf6;" k="30" />
<hkern u1="t" u2="&#xf5;" k="30" />
<hkern u1="t" u2="&#xf4;" k="30" />
<hkern u1="t" u2="&#xf3;" k="30" />
<hkern u1="t" u2="&#xf2;" k="30" />
<hkern u1="t" u2="o" k="30" />
<hkern u1="v" u2="f" k="-13" />
<hkern u1="w" u2="&#x2026;" k="124" />
<hkern u1="w" u2="&#x201e;" k="124" />
<hkern u1="w" u2="&#x201a;" k="124" />
<hkern u1="w" u2="&#x2e;" k="124" />
<hkern u1="w" u2="&#x2c;" k="124" />
<hkern u1="y" u2="f" k="-13" />
<hkern u1="&#x7b;" u2="&#xdc;" k="20" />
<hkern u1="&#x7b;" u2="&#xdb;" k="20" />
<hkern u1="&#x7b;" u2="&#xda;" k="20" />
<hkern u1="&#x7b;" u2="&#xd9;" k="20" />
<hkern u1="&#x7b;" u2="U" k="20" />
<hkern u1="&#x7b;" u2="J" k="20" />
<hkern u1="&#xc0;" u2="w" k="33" />
<hkern u1="&#xc0;" u2="t" k="17" />
<hkern u1="&#xc0;" u2="&#x3f;" k="81" />
<hkern u1="&#xc1;" u2="w" k="33" />
<hkern u1="&#xc1;" u2="t" k="17" />
<hkern u1="&#xc1;" u2="&#x3f;" k="81" />
<hkern u1="&#xc2;" u2="w" k="33" />
<hkern u1="&#xc2;" u2="t" k="17" />
<hkern u1="&#xc2;" u2="&#x3f;" k="81" />
<hkern u1="&#xc3;" u2="w" k="33" />
<hkern u1="&#xc3;" u2="t" k="17" />
<hkern u1="&#xc3;" u2="&#x3f;" k="81" />
<hkern u1="&#xc4;" u2="w" k="33" />
<hkern u1="&#xc4;" u2="t" k="17" />
<hkern u1="&#xc4;" u2="&#x3f;" k="81" />
<hkern u1="&#xc5;" u2="w" k="33" />
<hkern u1="&#xc5;" u2="t" k="17" />
<hkern u1="&#xc5;" u2="&#x3f;" k="81" />
<hkern u1="&#xc7;" u2="&#x7d;" k="17" />
<hkern u1="&#xc7;" u2="]" k="12" />
<hkern u1="&#xc7;" u2="&#x29;" k="26" />
<hkern u1="&#xc8;" u2="w" k="22" />
<hkern u1="&#xc8;" u2="f" k="18" />
<hkern u1="&#xc9;" u2="w" k="22" />
<hkern u1="&#xc9;" u2="f" k="18" />
<hkern u1="&#xca;" u2="w" k="22" />
<hkern u1="&#xca;" u2="f" k="18" />
<hkern u1="&#xcb;" u2="w" k="22" />
<hkern u1="&#xcb;" u2="f" k="18" />
<hkern u1="&#xd0;" u2="&#xc6;" k="33" />
<hkern u1="&#xd2;" u2="&#xc6;" k="33" />
<hkern u1="&#xd3;" u2="&#xc6;" k="33" />
<hkern u1="&#xd4;" u2="&#xc6;" k="33" />
<hkern u1="&#xd5;" u2="&#xc6;" k="33" />
<hkern u1="&#xd6;" u2="&#xc6;" k="33" />
<hkern u1="&#xdd;" u2="&#x2022;" k="45" />
<hkern u1="&#xdd;" u2="&#xf8;" k="64" />
<hkern u1="&#xdd;" u2="&#xe6;" k="63" />
<hkern u1="&#xdd;" u2="&#xc6;" k="96" />
<hkern u1="&#xdd;" u2="&#xbb;" k="51" />
<hkern u1="&#xdd;" u2="&#xab;" k="82" />
<hkern u1="&#xdd;" u2="&#x7d;" k="-19" />
<hkern u1="&#xdd;" u2="t" k="22" />
<hkern u1="&#xdd;" u2="r" k="40" />
<hkern u1="&#xdd;" u2="f" k="22" />
<hkern u1="&#xdd;" u2="]" k="-18" />
<hkern u1="&#xdd;" u2="&#x2a;" k="49" />
<hkern u1="&#xdd;" u2="&#x29;" k="-20" />
<hkern u1="&#xdd;" u2="&#x26;" k="30" />
<hkern u1="&#xfd;" u2="f" k="-13" />
<hkern u1="&#xff;" u2="f" k="-13" />
<hkern u1="&#x178;" u2="&#x2022;" k="45" />
<hkern u1="&#x178;" u2="&#xf8;" k="64" />
<hkern u1="&#x178;" u2="&#xe6;" k="63" />
<hkern u1="&#x178;" u2="&#xc6;" k="96" />
<hkern u1="&#x178;" u2="&#xbb;" k="51" />
<hkern u1="&#x178;" u2="&#xab;" k="82" />
<hkern u1="&#x178;" u2="&#x7d;" k="-19" />
<hkern u1="&#x178;" u2="t" k="22" />
<hkern u1="&#x178;" u2="r" k="40" />
<hkern u1="&#x178;" u2="f" k="22" />
<hkern u1="&#x178;" u2="]" k="-18" />
<hkern u1="&#x178;" u2="&#x2a;" k="49" />
<hkern u1="&#x178;" u2="&#x29;" k="-20" />
<hkern u1="&#x178;" u2="&#x26;" k="30" />
<hkern u1="&#x2018;" u2="w" k="-11" />
<hkern u1="&#x2019;" u2="w" k="-11" />
<hkern u1="&#x201c;" u2="w" k="-11" />
<hkern u1="&#x201d;" u2="w" k="-11" />
<hkern g1="A,Agrave,Aacute,Acircumflex,Atilde,Adieresis,Aring" 	g2="z" 	k="-12" />
<hkern g1="A,Agrave,Aacute,Acircumflex,Atilde,Adieresis,Aring" 	g2="o,ograve,oacute,ocircumflex,otilde,odieresis" 	k="12" />
<hkern g1="A,Agrave,Aacute,Acircumflex,Atilde,Adieresis,Aring" 	g2="v,y,yacute,ydieresis" 	k="50" />
<hkern g1="A,Agrave,Aacute,Acircumflex,Atilde,Adieresis,Aring" 	g2="C,G,O,Q,Ccedilla,Ograve,Oacute,Ocircumflex,Otilde,Odieresis,Oslash,OE" 	k="11" />
<hkern g1="A,Agrave,Aacute,Acircumflex,Atilde,Adieresis,Aring" 	g2="V" 	k="77" />
<hkern g1="A,Agrave,Aacute,Acircumflex,Atilde,Adieresis,Aring" 	g2="U,Ugrave,Uacute,Ucircumflex,Udieresis" 	k="17" />
<hkern g1="A,Agrave,Aacute,Acircumflex,Atilde,Adieresis,Aring" 	g2="m,n,p,ntilde" 	k="48" />
<hkern g1="A,Agrave,Aacute,Acircumflex,Atilde,Adieresis,Aring" 	g2="Y,Yacute,Ydieresis" 	k="150" />
<hkern g1="A,Agrave,Aacute,Acircumflex,Atilde,Adieresis,Aring" 	g2="quotedbl,quotesingle,quoteleft,quoteright,quotedblleft,quotedblright" 	k="120" />
<hkern g1="A,Agrave,Aacute,Acircumflex,Atilde,Adieresis,Aring" 	g2="T" 	k="89" />
<hkern g1="A,Agrave,Aacute,Acircumflex,Atilde,Adieresis,Aring" 	g2="u,ugrave,uacute,ucircumflex,udieresis" 	k="11" />
<hkern g1="A,Agrave,Aacute,Acircumflex,Atilde,Adieresis,Aring" 	g2="W" 	k="39" />
<hkern g1="B" 	g2="V" 	k="24" />
<hkern g1="B" 	g2="Y,Yacute,Ydieresis" 	k="55" />
<hkern g1="B" 	g2="T" 	k="27" />
<hkern g1="H,I,M,N,Igrave,Iacute,Icircumflex,Idieresis,Ntilde" 	g2="Y,Yacute,Ydieresis" 	k="28" />
<hkern g1="H,I,M,N,Igrave,Iacute,Icircumflex,Idieresis,Ntilde" 	g2="T" 	k="29" />
<hkern g1="H,I,M,N,Igrave,Iacute,Icircumflex,Idieresis,Ntilde" 	g2="A,Agrave,Aacute,Acircumflex,Atilde,Adieresis,Aring" 	k="-18" />
<hkern g1="H,I,M,N,Igrave,Iacute,Icircumflex,Idieresis,Ntilde" 	g2="X" 	k="-17" />
<hkern g1="D,O,Eth,Ograve,Oacute,Ocircumflex,Otilde,Odieresis" 	g2="V" 	k="22" />
<hkern g1="D,O,Eth,Ograve,Oacute,Ocircumflex,Otilde,Odieresis" 	g2="Y,Yacute,Ydieresis" 	k="43" />
<hkern g1="D,O,Eth,Ograve,Oacute,Ocircumflex,Otilde,Odieresis" 	g2="T" 	k="27" />
<hkern g1="D,O,Eth,Ograve,Oacute,Ocircumflex,Otilde,Odieresis" 	g2="A,Agrave,Aacute,Acircumflex,Atilde,Adieresis,Aring" 	k="21" />
<hkern g1="D,O,Eth,Ograve,Oacute,Ocircumflex,Otilde,Odieresis" 	g2="X" 	k="22" />
<hkern g1="D,O,Eth,Ograve,Oacute,Ocircumflex,Otilde,Odieresis" 	g2="Z" 	k="23" />
<hkern g1="D,O,Eth,Ograve,Oacute,Ocircumflex,Otilde,Odieresis" 	g2="comma,period,quotesinglbase,quotedblbase,ellipsis" 	k="122" />
<hkern g1="C,Ccedilla" 	g2="T" 	k="29" />
<hkern g1="E,Egrave,Eacute,Ecircumflex,Edieresis" 	g2="o,ograve,oacute,ocircumflex,otilde,odieresis" 	k="19" />
<hkern g1="E,Egrave,Eacute,Ecircumflex,Edieresis" 	g2="v,y,yacute,ydieresis" 	k="26" />
<hkern g1="E,Egrave,Eacute,Ecircumflex,Edieresis" 	g2="T" 	k="-20" />
<hkern g1="E,Egrave,Eacute,Ecircumflex,Edieresis" 	g2="u,ugrave,uacute,ucircumflex,udieresis" 	k="17" />
<hkern g1="E,Egrave,Eacute,Ecircumflex,Edieresis" 	g2="c,d,e,g,q,ccedilla,egrave,eacute,ecircumflex,edieresis,oe" 	k="19" />
<hkern g1="T" 	g2="z" 	k="60" />
<hkern g1="T" 	g2="o,ograve,oacute,ocircumflex,otilde,odieresis" 	k="79" />
<hkern g1="T" 	g2="v,y,yacute,ydieresis" 	k="82" />
<hkern g1="T" 	g2="C,G,O,Q,Ccedilla,Ograve,Oacute,Ocircumflex,Otilde,Odieresis,Oslash,OE" 	k="28" />
<hkern g1="T" 	g2="V" 	k="-16" />
<hkern g1="T" 	g2="m,n,p,ntilde" 	k="89" />
<hkern g1="T" 	g2="Y,Yacute,Ydieresis" 	k="-16" />
<hkern g1="T" 	g2="T" 	k="-16" />
<hkern g1="T" 	g2="u,ugrave,uacute,ucircumflex,udieresis" 	k="65" />
<hkern g1="T" 	g2="W" 	k="-15" />
<hkern g1="T" 	g2="A,Agrave,Aacute,Acircumflex,Atilde,Adieresis,Aring" 	k="109" />
<hkern g1="T" 	g2="comma,period,quotesinglbase,quotedblbase,ellipsis" 	k="258" />
<hkern g1="T" 	g2="c,d,e,g,q,ccedilla,egrave,eacute,ecircumflex,edieresis,oe" 	k="89" />
<hkern g1="T" 	g2="x" 	k="77" />
<hkern g1="T" 	g2="s" 	k="76" />
<hkern g1="T" 	g2="hyphen,uni00AD,endash,emdash" 	k="272" />
<hkern g1="T" 	g2="S" 	k="16" />
<hkern g1="T" 	g2="a,agrave,aacute,acircumflex,atilde,adieresis,aring" 	k="83" />
<hkern g1="T" 	g2="J" 	k="216" />
<hkern g1="K" 	g2="o,ograve,oacute,ocircumflex,otilde,odieresis" 	k="27" />
<hkern g1="K" 	g2="v,y,yacute,ydieresis" 	k="40" />
<hkern g1="K" 	g2="C,G,O,Q,Ccedilla,Ograve,Oacute,Ocircumflex,Otilde,Odieresis,Oslash,OE" 	k="31" />
<hkern g1="K" 	g2="u,ugrave,uacute,ucircumflex,udieresis" 	k="23" />
<hkern g1="K" 	g2="c,d,e,g,q,ccedilla,egrave,eacute,ecircumflex,edieresis,oe" 	k="26" />
<hkern g1="K" 	g2="hyphen,uni00AD,endash,emdash" 	k="164" />
<hkern g1="L" 	g2="v,y,yacute,ydieresis" 	k="123" />
<hkern g1="L" 	g2="C,G,O,Q,Ccedilla,Ograve,Oacute,Ocircumflex,Otilde,Odieresis,Oslash,OE" 	k="25" />
<hkern g1="L" 	g2="V" 	k="206" />
<hkern g1="L" 	g2="U,Ugrave,Uacute,Ucircumflex,Udieresis" 	k="24" />
<hkern g1="L" 	g2="Y,Yacute,Ydieresis" 	k="279" />
<hkern g1="L" 	g2="quotedbl,quotesingle,quoteleft,quoteright,quotedblleft,quotedblright" 	k="258" />
<hkern g1="L" 	g2="T" 	k="205" />
<hkern g1="L" 	g2="u,ugrave,uacute,ucircumflex,udieresis" 	k="14" />
<hkern g1="L" 	g2="W" 	k="93" />
<hkern g1="L" 	g2="A,Agrave,Aacute,Acircumflex,Atilde,Adieresis,Aring" 	k="-19" />
<hkern g1="P" 	g2="o,ograve,oacute,ocircumflex,otilde,odieresis" 	k="13" />
<hkern g1="P" 	g2="v,y,yacute,ydieresis" 	k="-15" />
<hkern g1="P" 	g2="A,Agrave,Aacute,Acircumflex,Atilde,Adieresis,Aring" 	k="178" />
<hkern g1="P" 	g2="X" 	k="51" />
<hkern g1="P" 	g2="Z" 	k="36" />
<hkern g1="P" 	g2="comma,period,quotesinglbase,quotedblbase,ellipsis" 	k="404" />
<hkern g1="P" 	g2="c,d,e,g,q,ccedilla,egrave,eacute,ecircumflex,edieresis,oe" 	k="13" />
<hkern g1="P" 	g2="a,agrave,aacute,acircumflex,atilde,adieresis,aring" 	k="11" />
<hkern g1="P" 	g2="J" 	k="184" />
<hkern g1="J,U,Ugrave,Uacute,Ucircumflex,Udieresis" 	g2="A,Agrave,Aacute,Acircumflex,Atilde,Adieresis,Aring" 	k="22" />
<hkern g1="V" 	g2="o,ograve,oacute,ocircumflex,otilde,odieresis" 	k="46" />
<hkern g1="V" 	g2="v,y,yacute,ydieresis" 	k="11" />
<hkern g1="V" 	g2="C,G,O,Q,Ccedilla,Ograve,Oacute,Ocircumflex,Otilde,Odieresis,Oslash,OE" 	k="13" />
<hkern g1="V" 	g2="u,ugrave,uacute,ucircumflex,udieresis" 	k="28" />
<hkern g1="V" 	g2="A,Agrave,Aacute,Acircumflex,Atilde,Adieresis,Aring" 	k="75" />
<hkern g1="V" 	g2="comma,period,quotesinglbase,quotedblbase,ellipsis" 	k="215" />
<hkern g1="V" 	g2="c,d,e,g,q,ccedilla,egrave,eacute,ecircumflex,edieresis,oe" 	k="44" />
<hkern g1="V" 	g2="hyphen,uni00AD,endash,emdash" 	k="157" />
<hkern g1="V" 	g2="a,agrave,aacute,acircumflex,atilde,adieresis,aring" 	k="46" />
<hkern g1="X" 	g2="o,ograve,oacute,ocircumflex,otilde,odieresis" 	k="21" />
<hkern g1="X" 	g2="v,y,yacute,ydieresis" 	k="31" />
<hkern g1="X" 	g2="C,G,O,Q,Ccedilla,Ograve,Oacute,Ocircumflex,Otilde,Odieresis,Oslash,OE" 	k="25" />
<hkern g1="X" 	g2="V" 	k="-14" />
<hkern g1="X" 	g2="u,ugrave,uacute,ucircumflex,udieresis" 	k="21" />
<hkern g1="X" 	g2="c,d,e,g,q,ccedilla,egrave,eacute,ecircumflex,edieresis,oe" 	k="26" />
<hkern g1="X" 	g2="hyphen,uni00AD,endash,emdash" 	k="156" />
<hkern g1="Y,Yacute,Ydieresis" 	g2="z" 	k="30" />
<hkern g1="Y,Yacute,Ydieresis" 	g2="o,ograve,oacute,ocircumflex,otilde,odieresis" 	k="65" />
<hkern g1="Y,Yacute,Ydieresis" 	g2="v,y,yacute,ydieresis" 	k="20" />
<hkern g1="Y,Yacute,Ydieresis" 	g2="C,G,O,Q,Ccedilla,Ograve,Oacute,Ocircumflex,Otilde,Odieresis,Oslash,OE" 	k="29" />
<hkern g1="Y,Yacute,Ydieresis" 	g2="V" 	k="-18" />
<hkern g1="Y,Yacute,Ydieresis" 	g2="U,Ugrave,Uacute,Ucircumflex,Udieresis" 	k="96" />
<hkern g1="Y,Yacute,Ydieresis" 	g2="m,n,p,ntilde" 	k="40" />
<hkern g1="Y,Yacute,Ydieresis" 	g2="Y,Yacute,Ydieresis" 	k="-18" />
<hkern g1="Y,Yacute,Ydieresis" 	g2="T" 	k="-17" />
<hkern g1="Y,Yacute,Ydieresis" 	g2="u,ugrave,uacute,ucircumflex,udieresis" 	k="39" />
<hkern g1="Y,Yacute,Ydieresis" 	g2="W" 	k="-17" />
<hkern g1="Y,Yacute,Ydieresis" 	g2="A,Agrave,Aacute,Acircumflex,Atilde,Adieresis,Aring" 	k="150" />
<hkern g1="Y,Yacute,Ydieresis" 	g2="X" 	k="-13" />
<hkern g1="Y,Yacute,Ydieresis" 	g2="comma,period,quotesinglbase,quotedblbase,ellipsis" 	k="231" />
<hkern g1="Y,Yacute,Ydieresis" 	g2="c,d,e,g,q,ccedilla,egrave,eacute,ecircumflex,edieresis,oe" 	k="65" />
<hkern g1="Y,Yacute,Ydieresis" 	g2="x" 	k="23" />
<hkern g1="Y,Yacute,Ydieresis" 	g2="s" 	k="58" />
<hkern g1="Y,Yacute,Ydieresis" 	g2="hyphen,uni00AD,endash,emdash" 	k="152" />
<hkern g1="Y,Yacute,Ydieresis" 	g2="S" 	k="16" />
<hkern g1="Y,Yacute,Ydieresis" 	g2="a,agrave,aacute,acircumflex,atilde,adieresis,aring" 	k="63" />
<hkern g1="Y,Yacute,Ydieresis" 	g2="J" 	k="96" />
<hkern g1="W" 	g2="o,ograve,oacute,ocircumflex,otilde,odieresis" 	k="31" />
<hkern g1="W" 	g2="T" 	k="-14" />
<hkern g1="W" 	g2="u,ugrave,uacute,ucircumflex,udieresis" 	k="19" />
<hkern g1="W" 	g2="A,Agrave,Aacute,Acircumflex,Atilde,Adieresis,Aring" 	k="43" />
<hkern g1="W" 	g2="comma,period,quotesinglbase,quotedblbase,ellipsis" 	k="143" />
<hkern g1="W" 	g2="c,d,e,g,q,ccedilla,egrave,eacute,ecircumflex,edieresis,oe" 	k="31" />
<hkern g1="W" 	g2="hyphen,uni00AD,endash,emdash" 	k="60" />
<hkern g1="W" 	g2="a,agrave,aacute,acircumflex,atilde,adieresis,aring" 	k="33" />
<hkern g1="Z" 	g2="o,ograve,oacute,ocircumflex,otilde,odieresis" 	k="21" />
<hkern g1="Z" 	g2="v,y,yacute,ydieresis" 	k="27" />
<hkern g1="Z" 	g2="C,G,O,Q,Ccedilla,Ograve,Oacute,Ocircumflex,Otilde,Odieresis,Oslash,OE" 	k="26" />
<hkern g1="Z" 	g2="u,ugrave,uacute,ucircumflex,udieresis" 	k="19" />
<hkern g1="Z" 	g2="A,Agrave,Aacute,Acircumflex,Atilde,Adieresis,Aring" 	k="-13" />
<hkern g1="Z" 	g2="c,d,e,g,q,ccedilla,egrave,eacute,ecircumflex,edieresis,oe" 	k="21" />
<hkern g1="a,agrave,aacute,acircumflex,atilde,adieresis,aring" 	g2="v,y,yacute,ydieresis" 	k="15" />
<hkern g1="a,agrave,aacute,acircumflex,atilde,adieresis,aring" 	g2="quotedbl,quotesingle,quoteleft,quoteright,quotedblleft,quotedblright" 	k="17" />
<hkern g1="c,ccedilla" 	g2="quotedbl,quotesingle,quoteleft,quoteright,quotedblleft,quotedblright" 	k="11" />
<hkern g1="b,p,thorn" 	g2="z" 	k="15" />
<hkern g1="b,p,thorn" 	g2="v,y,yacute,ydieresis" 	k="11" />
<hkern g1="b,p,thorn" 	g2="quotedbl,quotesingle,quoteleft,quoteright,quotedblleft,quotedblright" 	k="29" />
<hkern g1="b,p,thorn" 	g2="x" 	k="15" />
<hkern g1="e,egrave,eacute,ecircumflex,edieresis" 	g2="v,y,yacute,ydieresis" 	k="13" />
<hkern g1="e,egrave,eacute,ecircumflex,edieresis" 	g2="quotedbl,quotesingle,quoteleft,quoteright,quotedblleft,quotedblright" 	k="14" />
<hkern g1="h,m,n,ntilde" 	g2="quotedbl,quotesingle,quoteleft,quoteright,quotedblleft,quotedblright" 	k="16" />
<hkern g1="o,ograve,oacute,ocircumflex,otilde,odieresis" 	g2="z" 	k="16" />
<hkern g1="o,ograve,oacute,ocircumflex,otilde,odieresis" 	g2="v,y,yacute,ydieresis" 	k="15" />
<hkern g1="o,ograve,oacute,ocircumflex,otilde,odieresis" 	g2="quotedbl,quotesingle,quoteleft,quoteright,quotedblleft,quotedblright" 	k="20" />
<hkern g1="o,ograve,oacute,ocircumflex,otilde,odieresis" 	g2="x" 	k="21" />
<hkern g1="v,y,yacute,ydieresis" 	g2="o,ograve,oacute,ocircumflex,otilde,odieresis" 	k="15" />
<hkern g1="v,y,yacute,ydieresis" 	g2="quotedbl,quotesingle,quoteleft,quoteright,quotedblleft,quotedblright" 	k="-15" />
<hkern g1="v,y,yacute,ydieresis" 	g2="comma,period,quotesinglbase,quotedblbase,ellipsis" 	k="167" />
<hkern g1="v,y,yacute,ydieresis" 	g2="c,d,e,g,q,ccedilla,egrave,eacute,ecircumflex,edieresis,oe" 	k="13" />
<hkern g1="v,y,yacute,ydieresis" 	g2="a,agrave,aacute,acircumflex,atilde,adieresis,aring" 	k="15" />
<hkern g1="r" 	g2="o,ograve,oacute,ocircumflex,otilde,odieresis" 	k="20" />
<hkern g1="r" 	g2="v,y,yacute,ydieresis" 	k="-18" />
<hkern g1="r" 	g2="quotedbl,quotesingle,quoteleft,quoteright,quotedblleft,quotedblright" 	k="-16" />
<hkern g1="r" 	g2="comma,period,quotesinglbase,quotedblbase,ellipsis" 	k="173" />
<hkern g1="r" 	g2="c,d,e,g,q,ccedilla,egrave,eacute,ecircumflex,edieresis,oe" 	k="19" />
<hkern g1="r" 	g2="a,agrave,aacute,acircumflex,atilde,adieresis,aring" 	k="20" />
<hkern g1="x" 	g2="o,ograve,oacute,ocircumflex,otilde,odieresis" 	k="40" />
<hkern g1="x" 	g2="c,d,e,g,q,ccedilla,egrave,eacute,ecircumflex,edieresis,oe" 	k="20" />
<hkern g1="z" 	g2="o,ograve,oacute,ocircumflex,otilde,odieresis" 	k="16" />
<hkern g1="z" 	g2="c,d,e,g,q,ccedilla,egrave,eacute,ecircumflex,edieresis,oe" 	k="16" />
<hkern g1="quotedbl,quotesingle,quoteleft,quoteright,quotedblleft,quotedblright" 	g2="o,ograve,oacute,ocircumflex,otilde,odieresis" 	k="91" />
<hkern g1="quotedbl,quotesingle,quoteleft,quoteright,quotedblleft,quotedblright" 	g2="m,n,p,ntilde" 	k="20" />
<hkern g1="quotedbl,quotesingle,quoteleft,quoteright,quotedblleft,quotedblright" 	g2="quotedbl,quotesingle,quoteleft,quoteright,quotedblleft,quotedblright" 	k="37" />
<hkern g1="quotedbl,quotesingle,quoteleft,quoteright,quotedblleft,quotedblright" 	g2="A,Agrave,Aacute,Acircumflex,Atilde,Adieresis,Aring" 	k="120" />
<hkern g1="quotedbl,quotesingle,quoteleft,quoteright,quotedblleft,quotedblright" 	g2="c,d,e,g,q,ccedilla,egrave,eacute,ecircumflex,edieresis,oe" 	k="59" />
<hkern g1="quotedbl,quotesingle,quoteleft,quoteright,quotedblleft,quotedblright" 	g2="s" 	k="92" />
<hkern g1="quotedbl,quotesingle,quoteleft,quoteright,quotedblleft,quotedblright" 	g2="a,agrave,aacute,acircumflex,atilde,adieresis,aring" 	k="50" />
<hkern g1="comma,period,quotesinglbase,quotedblbase,ellipsis" 	g2="quotedbl,quotesingle,quoteleft,quoteright,quotedblleft,quotedblright" 	k="285" />
</font>
</defs></svg> 