<?xml version="1.0" standalone="no"?>
<!DOCTYPE svg PUBLIC "-//W3C//DTD SVG 1.1//EN" "http://www.w3.org/Graphics/SVG/1.1/DTD/svg11.dtd" >
<svg xmlns="http://www.w3.org/2000/svg" xmlns:xlink="http://www.w3.org/1999/xlink" version="1.1">
<metadata></metadata>
<defs>
<font id="robotoblack" horiz-adv-x="1151" >
<font-face units-per-em="2048" ascent="1536" descent="-512" />
<missing-glyph horiz-adv-x="510" />
<glyph unicode="&#xfb01;" horiz-adv-x="1302" d="M16 848v234h157v52q0 220 130.5 333.5t380.5 113.5q86 0 167 -14.5t185 -43.5l-46 -266q-88 23 -144 33.5t-142 10.5q-94 0 -143.5 -42.5t-49.5 -124.5v-52h212v-234h-212v-848h-338v848h-157zM852 0v1082h339v-1082h-339z" />
<glyph horiz-adv-x="0" />
<glyph unicode="&#xd;" horiz-adv-x="510" />
<glyph horiz-adv-x="0" />
<glyph unicode="&#x9;" horiz-adv-x="0" />
<glyph unicode=" "  horiz-adv-x="510" />
<glyph unicode="&#x09;" horiz-adv-x="510" />
<glyph unicode="&#xa0;" horiz-adv-x="510" />
<glyph unicode="!" horiz-adv-x="565" d="M115 0v283h339v-283h-339zM115 516v940h339v-940h-339z" />
<glyph unicode="&#x22;" horiz-adv-x="649" d="M43 992v568h230v-139l-63 -429h-167zM378 992v568h229v-139l-64 -429h-165z" />
<glyph unicode="#" horiz-adv-x="1190" d="M37 410v183h252l44 264h-221v183h251l69 416h198l-68 -416h161l69 416h199l-69 -416h231v-183h-261l-44 -264h229v-183h-259l-67 -410h-199l67 410h-161l-67 -410h-199l67 410h-222zM488 593h161l44 264h-161z" />
<glyph unicode="$" horiz-adv-x="1186" d="M83 467h337q0 -127 53 -180t141 -53q73 0 109.5 41.5t36.5 110.5q0 81 -37 123t-136 85q-240 96 -345.5 190t-105.5 284q0 172 112.5 280t305.5 126v211h159v-215q183 -27 287.5 -147t104.5 -317h-338q0 111 -41.5 163.5t-112.5 52.5q-72 0 -105.5 -43t-33.5 -113 t35.5 -112t137.5 -87q236 -101 343 -196.5t107 -282.5q0 -178 -108 -282t-296 -123v-201h-159v202q-198 19 -324.5 134t-126.5 349z" />
<glyph unicode="%" horiz-adv-x="1521" d="M91 1099v77q0 132 82.5 216.5t240.5 84.5q160 0 242.5 -84t82.5 -217v-77q0 -132 -82.5 -215.5t-240.5 -83.5q-159 0 -242 83.5t-83 215.5zM307 1099q0 -50 27.5 -83.5t81.5 -33.5q52 0 79 33t27 84v77q0 51 -27.5 85t-80.5 34q-52 0 -79.5 -34t-27.5 -85v-77zM312 188 l711 1138l157 -79l-711 -1138zM782 280v77q0 131 83.5 215.5t241.5 84.5q160 0 242 -84t82 -216v-77q0 -133 -82 -216.5t-240 -83.5q-159 0 -243 84t-84 216zM999 280q0 -49 31.5 -83.5t78.5 -34.5q64 0 85 30.5t21 87.5v77q0 50 -28 84t-80 34q-54 0 -81 -34t-27 -84v-77z " />
<glyph unicode="&#x26;" horiz-adv-x="1380" d="M60 391q0 118 60.5 198t191.5 176l3 2q-65 91 -96 164.5t-31 152.5q0 177 111 285t301 108q162 0 260 -100.5t98 -249.5q0 -100 -45 -182.5t-124 -139.5l-87 -61l244 -280q35 57 54 122.5t19 141.5h238q0 -145 -31 -260.5t-101 -209.5l225 -258h-376l-74 84 q-89 -55 -173.5 -80t-190.5 -25q-223 0 -349.5 112.5t-126.5 299.5zM399 414q0 -78 46 -126.5t114 -48.5q44 0 86.5 9t85.5 28l-267 302l-9 -6q-31 -39 -43.5 -75.5t-12.5 -82.5zM480 1088q0 -40 18.5 -79.5t57.5 -88.5l60 38q57 36 75.5 70t18.5 75q0 45 -30 79.5t-81 34.5 q-59 0 -89 -36t-30 -93z" />
<glyph unicode="'" horiz-adv-x="316" d="M43 985v575h240v-162l-73 -413h-167z" />
<glyph unicode="(" horiz-adv-x="727" d="M120 564v28q0 397 146 663.5t353 350.5l64 -166q-130 -96 -212 -301.5t-82 -544.5v-32q0 -340 82 -545t212 -301l-64 -166q-207 84 -353 350t-146 664z" />
<glyph unicode=")" horiz-adv-x="726" d="M44 -284q128 97 211 302t83 544v32q0 339 -82.5 544.5t-211.5 301.5l64 166q212 -83 367 -358t155 -656v-28q0 -382 -155 -656.5t-367 -357.5z" />
<glyph unicode="*" horiz-adv-x="919" d="M26 1048l61 188l298 -130l-22 350h200l-25 -357l291 127l60 -190l-309 -90l205 -264l-161 -117l-173 293l-171 -283l-162 112l214 271z" />
<glyph unicode="+" horiz-adv-x="1094" d="M45 537v289h342v380h315v-380h341v-289h-341v-391h-315v391h-342z" />
<glyph unicode="," horiz-adv-x="552" d="M77 -312q35 71 54 143t19 170v253h293l-2 -234q0 -107 -60.5 -221.5t-144.5 -190.5z" />
<glyph unicode="-" horiz-adv-x="921" d="M152 497v261h601v-261h-601z" />
<glyph unicode="." horiz-adv-x="619" d="M136 0v284h337v-284h-337z" />
<glyph unicode="/" horiz-adv-x="719" d="M-29 -125l497 1581h240l-498 -1581h-239z" />
<glyph unicode="0" horiz-adv-x="1186" d="M86 575v306q0 301 133.5 448.5t372.5 147.5q237 0 372.5 -148t135.5 -448v-306q0 -301 -134.5 -448.5t-371.5 -147.5q-239 0 -373.5 147.5t-134.5 448.5zM423 554q0 -174 42 -244.5t129 -70.5q84 0 126.5 70.5t42.5 244.5v350q0 170 -43 241.5t-128 71.5t-127 -71.5 t-42 -241.5v-350z" />
<glyph unicode="1" horiz-adv-x="1186" d="M172 1107v218l634 132v-1457h-337v1107h-297z" />
<glyph unicode="2" horiz-adv-x="1186" d="M59 988q0 211 135 350t366 139q245 0 377 -116t132 -325q0 -141 -69.5 -243.5t-265.5 -315.5l-202 -217h576v-260h-1019v220l468 492q91 104 132 182.5t41 138.5q0 85 -42 134.5t-128 49.5q-78 0 -120.5 -63.5t-42.5 -165.5h-338z" />
<glyph unicode="3" horiz-adv-x="1186" d="M47 404h339q0 -71 54 -118t133 -47q91 0 143 49t52 127q0 108 -54.5 155.5t-157.5 47.5h-159v251h159q93 0 141 48t48 137q0 71 -43.5 117t-128.5 46q-67 0 -116.5 -37t-49.5 -99h-337q0 182 141.5 289t349.5 107q242 0 381.5 -106.5t139.5 -309.5q0 -101 -60 -183 t-166 -130q120 -44 184.5 -129.5t64.5 -210.5q0 -204 -150.5 -316.5t-393.5 -112.5q-209 0 -361.5 106.5t-152.5 318.5z" />
<glyph unicode="4" horiz-adv-x="1186" d="M58 515l584 938v3h338v-887h147v-262h-147v-307h-338v307h-564zM360 569h282v454l-3 1l-29 -46z" />
<glyph unicode="5" horiz-adv-x="1186" d="M81 403l338 21q0 -89 47.5 -137t129.5 -48q93 0 131 63.5t38 164.5q0 122 -42.5 190t-136.5 68q-69 0 -109.5 -28.5t-57.5 -73.5l-303 17l84 816h854v-262h-579l-37 -303q38 30 94 47.5t126 19.5q219 4 331.5 -122t112.5 -367q0 -209 -128.5 -349.5t-377.5 -140.5 q-212 0 -363.5 114t-151.5 310z" />
<glyph unicode="6" horiz-adv-x="1186" d="M83 566v293q0 293 167 455.5t438 162.5q88 0 153.5 -14.5t147.5 -46.5l-56 -246q-72 22 -123 32t-120 10q-123 0 -195 -84t-74 -256q53 54 125.5 82t167.5 28q199 0 305.5 -138t106.5 -362q0 -221 -141 -362t-369 -141q-243 0 -388 154.5t-145 432.5zM421 566 q0 -162 50.5 -244.5t144.5 -82.5q77 0 124.5 71t47.5 172q0 113 -46 177.5t-121 64.5q-72 0 -121.5 -18.5t-78.5 -53.5v-86z" />
<glyph unicode="7" horiz-adv-x="1186" d="M52 1196v260h1050v-260q-223 -254 -303.5 -485t-114.5 -570l-14 -141h-338l13 141q31 318 135.5 580t297.5 475h-726z" />
<glyph unicode="8" horiz-adv-x="1186" d="M86 401q0 117 62 204.5t175 139.5q-101 49 -154.5 131t-53.5 191q0 199 129 304.5t348 105.5q220 0 349 -105.5t129 -304.5q0 -109 -54 -191t-153 -131q113 -52 175 -139.5t62 -204.5q0 -208 -137.5 -315t-368.5 -107t-369.5 107.5t-138.5 314.5zM424 428 q0 -89 45.5 -139t124.5 -50q78 0 123.5 50t45.5 139t-46 138t-125 49q-78 0 -123 -49t-45 -138zM454 1049q0 -82 35.5 -128t104.5 -46t104 45.5t35 128.5q0 80 -35.5 124t-105.5 44q-69 0 -103.5 -43.5t-34.5 -124.5z" />
<glyph unicode="9" horiz-adv-x="1186" d="M81 957q0 222 140 371t368 149q224 0 364.5 -156.5t140.5 -439.5v-346q0 -257 -159.5 -406.5t-410.5 -149.5q-76 0 -155.5 16.5t-153.5 46.5l35 241q72 -23 133 -33.5t141 -10.5q103 0 168 71t65 202v60l-3 1q-48 -59 -111.5 -88.5t-137.5 -29.5q-203 0 -313.5 132.5 t-110.5 369.5zM419 957q0 -122 39.5 -190.5t120.5 -68.5q59 0 103 20t75 55v150q0 146 -47 220t-122 74q-80 0 -124.5 -78t-44.5 -182z" />
<glyph unicode=":" horiz-adv-x="613" d="M136 0v284h337v-284h-337zM136 798v284h337v-284h-337z" />
<glyph unicode=";" horiz-adv-x="579" d="M98 -312q35 71 54 143t19 170v253h293l-2 -234q0 -107 -60.5 -221.5t-144.5 -190.5zM122 798v284h337v-284h-337z" />
<glyph unicode="&#x3c;" horiz-adv-x="1044" d="M46 478v266l884 360v-306l-556 -187v-3l556 -183v-307z" />
<glyph unicode="=" horiz-adv-x="1195" d="M128 283v260h926v-260h-926zM128 722v260h926v-260h-926z" />
<glyph unicode="&#x3e;" horiz-adv-x="1050" d="M111 117v306l552 187v3l-552 184v306l879 -360v-266z" />
<glyph unicode="?" horiz-adv-x="1043" d="M11 1054q2 217 136.5 320t360.5 103q243 0 377 -118t134 -326q0 -127 -73.5 -230.5t-190.5 -164.5q-66 -43 -87.5 -90t-21.5 -132h-338q1 142 49 209.5t180 160.5q68 43 106 103.5t38 143.5q0 85 -44 134.5t-129 49.5q-68 0 -112.5 -40.5t-46.5 -122.5h-338zM309 0v270 h336v-270h-336z" />
<glyph unicode="@" horiz-adv-x="1809" d="M43 478q18 438 254 685t642 247q399 0 602.5 -234t187.5 -656q-9 -225 -129.5 -383t-369.5 -158q-83 0 -140.5 44.5t-82.5 129.5q-42 -87 -103.5 -128.5t-146.5 -41.5q-152 0 -229.5 116.5t-56.5 316.5q26 256 145 404.5t294 148.5q123 0 195 -25.5t161 -80.5l-3 -4h5 l-51 -566q-5 -89 11 -120.5t45 -31.5q114 0 180 105.5t75 273.5q16 346 -130 532t-463 186q-308 0 -482.5 -200t-190.5 -560q-17 -350 141.5 -545.5t466.5 -195.5q85 0 174.5 18.5t156.5 46.5l38 -166q-68 -43 -170 -66t-203 -23q-412 0 -626 244.5t-197 686.5zM719 416 q-9 -122 17 -182.5t87 -60.5q55 0 96.5 29t74.5 112l40 452q-22 5 -42.5 8.5t-42.5 3.5q-106 0 -159 -88.5t-71 -273.5z" />
<glyph unicode="A" horiz-adv-x="1298" d="M-2 0l468 1456h364l470 -1456h-340l-81 283h-463l-79 -283h-339zM489 543h317l-158 557h-3z" />
<glyph unicode="B" horiz-adv-x="1315" d="M114 0v1456h511q276 0 420 -98t144 -302q0 -106 -47 -185.5t-148 -119.5v-3q127 -29 186 -115t59 -202q0 -218 -135.5 -324.5t-406.5 -106.5h-583zM453 260h244q106 0 155.5 47t49.5 128q0 93 -45.5 141.5t-148.5 48.5h-255v-365zM453 849h179q115 2 166.5 43t51.5 126 q0 96 -52 137t-173 41h-172v-347z" />
<glyph unicode="C" horiz-adv-x="1320" d="M85 576v304q0 270 157.5 433.5t422.5 163.5q282 0 427.5 -132.5t169.5 -387.5h-337q-7 134 -64.5 197t-195.5 63q-117 0 -180 -90.5t-63 -244.5v-306q0 -159 58.5 -248t184.5 -89q128 0 189.5 61t68.5 191h337q-15 -252 -166 -382t-429 -130q-273 0 -426.5 161.5 t-153.5 435.5z" />
<glyph unicode="D" horiz-adv-x="1350" d="M114 0v1456h481q309 0 489.5 -173.5t180.5 -463.5v-182q0 -291 -180 -464t-488 -173h-483zM453 260h122q185 0 268.5 98.5t83.5 278.5v184q0 179 -83.5 277t-271.5 98h-119v-936z" />
<glyph unicode="E" horiz-adv-x="1165" d="M114 0v1456h1014v-260h-675v-313h571v-260h-571v-363h673v-260h-1012z" />
<glyph unicode="F" horiz-adv-x="1165" d="M114 0v1456h1013v-260h-674v-350h572v-260h-572v-586h-339z" />
<glyph unicode="G" horiz-adv-x="1353" d="M85 576v304q0 269 162 433t426 164q286 0 423.5 -128.5t162.5 -362.5h-326q-17 117 -73 174t-176 57q-121 0 -191.5 -91.5t-70.5 -243.5v-306q0 -155 69.5 -246t199.5 -91q95 0 147.5 14.5t83.5 40.5v230h-229v224h567v-567q-74 -82 -212.5 -142t-356.5 -60 q-275 0 -440.5 163t-165.5 434z" />
<glyph unicode="H" horiz-adv-x="1444" d="M114 0v1456h339v-610h539v610h337v-1456h-337v586h-539v-586h-339z" />
<glyph unicode="I" horiz-adv-x="611" d="M137 0v1456h337v-1456h-337z" />
<glyph unicode="J" horiz-adv-x="1188" d="M55 436h338q0 -112 41.5 -154.5t133.5 -42.5q86 0 127.5 53t41.5 165v999h337v-999q0 -224 -142.5 -351t-363.5 -127q-242 0 -377.5 112.5t-135.5 344.5z" />
<glyph unicode="K" horiz-adv-x="1325" d="M114 0v1456h339v-570h115l320 570h420l-438 -666l477 -790h-412l-326 584h-156v-584h-339z" />
<glyph unicode="L" horiz-adv-x="1117" d="M114 0v1456h339v-1196h627v-260h-966z" />
<glyph unicode="M" horiz-adv-x="1780" d="M114 0v1456h444l328 -1023h3l331 1023h446v-1456h-339v361l32 675l-2 1l-355 -1037h-228l-351 1028l-2 -1l32 -666v-361h-339z" />
<glyph unicode="N" horiz-adv-x="1444" d="M114 0v1456h339l536 -933l3 1v932h337v-1456h-337l-536 933l-3 -1v-932h-339z" />
<glyph unicode="O" horiz-adv-x="1407" d="M85 597v262q0 274 168 446t450 172q280 0 449.5 -172.5t169.5 -445.5v-262q0 -274 -168.5 -446t-447.5 -172q-282 0 -451.5 172t-169.5 446zM422 597q0 -162 72 -260t212 -98q136 0 207.5 98.5t71.5 259.5v264q0 160 -72.5 258t-209.5 98q-140 0 -210.5 -97.5 t-70.5 -258.5v-264z" />
<glyph unicode="P" horiz-adv-x="1344" d="M114 0v1456h591q264 0 413.5 -130t149.5 -349t-149.5 -348.5t-413.5 -129.5h-252v-499h-339zM453 759h252q112 0 168.5 59.5t56.5 156.5q0 99 -56 160t-169 61h-252v-437z" />
<glyph unicode="Q" horiz-adv-x="1407" d="M85 597v262q0 274 168 446t450 172q280 0 449.5 -172.5t169.5 -445.5v-262q0 -146 -51 -264.5t-147 -204.5l240 -203l-211 -178l-289 249q-39 -8 -78 -12.5t-80 -4.5q-282 0 -451.5 172t-169.5 446zM422 597q0 -162 72 -260t212 -98q136 0 207.5 98.5t71.5 259.5v264 q0 160 -72.5 258t-209.5 98q-140 0 -210.5 -97.5t-70.5 -258.5v-264z" />
<glyph unicode="R" horiz-adv-x="1329" d="M114 0v1456h594q256 0 385.5 -109.5t129.5 -319.5q0 -126 -66.5 -203t-195.5 -125l1 -3q135 -38 190.5 -125.5t55.5 -224.5v-92q0 -57 16.5 -125t59.5 -99v-30h-347q-40 32 -53.5 111t-13.5 145v88q0 108 -47.5 161t-154.5 53h-215v-558h-339zM453 818h223 q104 0 157 45.5t53 134.5q0 92 -49.5 145t-151.5 53h-232v-378z" />
<glyph unicode="S" horiz-adv-x="1293" d="M67 468h338q0 -129 66.5 -181.5t207.5 -52.5q107 0 157.5 41t50.5 111q0 79 -49.5 119.5t-184.5 88.5q-282 89 -412 186t-130 288q0 187 156 298t405 111q247 0 400 -123t153 -328h-337q0 89 -58 142.5t-164 53.5q-104 0 -161 -44t-57 -112q0 -65 57 -102.5t221 -96.5 q253 -76 376 -181t123 -298q0 -196 -147 -302.5t-399 -106.5q-253 0 -432.5 123t-179.5 366z" />
<glyph unicode="T" horiz-adv-x="1340" d="M37 1196v260h1265v-260h-464v-1196h-339v1196h-462z" />
<glyph unicode="U" horiz-adv-x="1417" d="M107 502v954h339v-954q0 -137 68 -200t196 -63q127 0 193.5 62.5t66.5 200.5v954h339v-954q0 -254 -162.5 -388.5t-436.5 -134.5q-276 0 -439.5 134.5t-163.5 388.5z" />
<glyph unicode="V" horiz-adv-x="1302" d="M-2 1456h353l285 -1061l12 -60h3l11 56l289 1065h354l-472 -1456h-365z" />
<glyph unicode="W" horiz-adv-x="1780" d="M56 1456h325l165 -938h3l227 938h229l228 -937h3l165 937h324l-303 -1456h-314l-216 875h-3l-215 -875h-314z" />
<glyph unicode="X" horiz-adv-x="1307" d="M2 0l429 734l-417 722h387l236 -491l240 491h390l-417 -722l449 -734h-410l-248 501l-248 -501h-391z" />
<glyph unicode="Y" horiz-adv-x="1310" d="M-3 1456h365l292 -643l293 643h367l-495 -944v-512h-337v529z" />
<glyph unicode="Z" horiz-adv-x="1196" d="M64 1196v260h1073v-146l-654 -1050h663v-260h-1079v152l651 1044h-654z" />
<glyph unicode="[" horiz-adv-x="577" d="M108 -349v2055h456v-246h-118v-1564h118v-245h-456z" />
<glyph unicode="\" horiz-adv-x="871" d="M-16 1456h338l608 -1581h-339z" />
<glyph unicode="]" horiz-adv-x="577" d="M14 -104h119v1564h-119v246h456v-2055h-456v245z" />
<glyph unicode="^" horiz-adv-x="916" d="M36 729l299 727h249l300 -727h-254l-165 413l-5 24h-4l-5 -24l-162 -413h-253z" />
<glyph unicode="_" horiz-adv-x="904" d="M0 0h903v-251h-903v251z" />
<glyph unicode="`" horiz-adv-x="695" d="M68 1478h355l208 -266h-275z" />
<glyph unicode="a" horiz-adv-x="1086" d="M45 305q0 164 118 250t369 86h123v77q0 71 -32 107t-101 36q-60 0 -87.5 -26.5t-27.5 -85.5h-337q0 156 128.5 254.5t346.5 98.5q204 0 326.5 -98t122.5 -288v-408q0 -88 14 -161t44 -147h-334q-15 26 -26 57t-19 68q-49 -68 -115.5 -106.5t-165.5 -38.5 q-157 0 -252 87.5t-95 237.5zM382 323q0 -47 31 -75t82 -28t92.5 20t67.5 52v169h-120q-82 0 -117.5 -38.5t-35.5 -99.5z" />
<glyph unicode="b" d="M96 0v1560h338v-578l3 -1q43 58 101.5 89.5t137.5 31.5q214 0 318 -150.5t104 -412.5v-21q0 -252 -104 -395t-316 -143q-91 0 -155.5 37.5t-111.5 111.5l-22 -129h-293zM434 308q24 -35 62.5 -52t96.5 -17q102 0 135 68t33 211v21q0 147 -35 225t-135 78q-57 0 -95.5 -20 t-61.5 -60v-454z" />
<glyph unicode="c" horiz-adv-x="1046" d="M45 529v23q0 249 128 399.5t377 150.5q210 0 334.5 -114t124.5 -320h-317q0 78 -37.5 126t-112.5 48q-98 0 -129 -75t-31 -215v-23q0 -144 31.5 -216.5t130.5 -72.5q71 0 109.5 37.5t38.5 108.5h317q0 -185 -128 -295.5t-329 -110.5q-250 0 -378.5 149.5t-128.5 399.5z " />
<glyph unicode="d" d="M51 518v21q0 258 108.5 410.5t313.5 152.5q76 0 135 -33.5t106 -95.5l3 1v586h338v-1560h-293l-25 134q-50 -76 -115 -115t-151 -39q-204 0 -312 145t-108 393zM389 518q0 -135 37.5 -206.5t130.5 -71.5q53 0 93 19t67 57v437q-27 44 -66 66.5t-92 22.5q-91 0 -130.5 -82 t-39.5 -221v-21z" />
<glyph unicode="e" horiz-adv-x="1083" d="M66 505v38q0 252 128 406q127 153 369 153h3q224 0 347 -129.5t123 -360.5v-177h-627q17 -89 73.5 -142t153.5 -53q98 0 154.5 14.5t144.5 51.5l57 -226q-67 -44 -172 -72t-230 -28q-243 0 -383.5 147t-140.5 378zM408 646h298v26q0 84 -33.5 127t-106.5 43 q-75 0 -111 -51.5t-47 -144.5z" />
<glyph unicode="f" horiz-adv-x="743" d="M12 848v234h156v112q0 190 110 288.5t319 98.5q39 0 78 -5.5t89 -15.5l-25 -249q-28 5 -49 7.5t-52 2.5q-64 0 -97.5 -32.5t-33.5 -94.5v-112h210v-234h-210v-848h-339v848h-156z" />
<glyph unicode="g" d="M51 518v21q0 258 108 410.5t313 152.5q87 0 151 -40t112 -116l23 136h296v-1040q0 -222 -139.5 -350t-386.5 -128q-86 0 -180 22.5t-177 62.5l56 227q71 -31 134.5 -47t141.5 -16q106 0 159.5 61t53.5 170v50l-3 1q-45 -56 -104.5 -85.5t-138.5 -29.5q-204 0 -311.5 145 t-107.5 393zM388 518q0 -135 37.5 -206.5t130.5 -71.5q56 0 95 16.5t65 51.5v454q-25 39 -64 59.5t-94 20.5q-91 0 -130.5 -82t-39.5 -221v-21z" />
<glyph unicode="h" d="M86 0v1560h338v-607l3 -1q48 72 116.5 111t155.5 39q171 0 265.5 -114.5t94.5 -365.5v-622h-338v624q0 127 -37 172.5t-115 45.5q-50 0 -85 -14t-60 -41v-787h-338z" />
<glyph unicode="i" horiz-adv-x="561" d="M111 0v1082h339v-1082h-339zM111 1333v227h339v-227h-339z" />
<glyph unicode="j" horiz-adv-x="548" d="M-115 -420l14 255q29 -6 49 -9t52 -3q58 0 86.5 40.5t28.5 121.5v1097h339v-1097q0 -206 -106.5 -314t-303.5 -108q-44 0 -80 4t-79 13zM109 1334v226h339v-226h-339z" />
<glyph unicode="k" horiz-adv-x="1119" d="M96 0v1560h338v-875h56l219 397h388l-327 -490l358 -592h-386l-244 430h-64v-430h-338z" />
<glyph unicode="l" horiz-adv-x="561" d="M111 0v1560h339v-1560h-339z" />
<glyph unicode="m" horiz-adv-x="1764" d="M96 0v1082h318l12 -138l3 -1q50 77 125.5 118t177.5 41q103 0 174.5 -43t109.5 -135q51 87 128 132.5t184 45.5q161 0 250 -106.5t89 -336.5v-659h-339v659q0 107 -31.5 145t-98.5 38q-50 0 -87 -17t-63 -49q0 -17 1 -29t1 -25v-722h-338v659q0 107 -31.5 145t-99.5 38 q-47 0 -83.5 -17t-63.5 -49v-776h-338z" />
<glyph unicode="n" d="M90 0v1082h317l13 -147l3 -1q52 80 128.5 124t173.5 44q162 0 250 -101t88 -330v-671h-338v672q0 95 -37.5 132.5t-114.5 37.5q-48 0 -84 -16.5t-62 -47.5v-778h-337z" />
<glyph unicode="o" d="M51 530v21q0 249 135.5 400t387.5 151q253 0 388.5 -151t135.5 -400v-21q0 -250 -135.5 -400t-386.5 -150q-254 0 -389.5 150t-135.5 400zM389 530q0 -138 41.5 -214t145.5 -76q101 0 143 76t42 214v21q0 134 -42 212.5t-145 78.5q-102 0 -143.5 -78.5t-41.5 -212.5v-21z " />
<glyph unicode="p" d="M96 -416v1498h316l12 -119q46 68 107.5 103.5t144.5 35.5q205 0 313.5 -152.5t108.5 -410.5v-21q0 -248 -108 -393t-312 -145q-80 0 -139 29t-102 84l-3 -1v-508h-338zM434 309q24 -35 63 -52t98 -17q91 0 128.5 71.5t37.5 206.5v21q0 140 -39 221.5t-129 81.5 q-58 0 -96.5 -20.5t-62.5 -61.5v-451z" />
<glyph unicode="q" d="M51 518v21q0 258 108.5 410.5t313.5 152.5q87 0 151 -40t112 -116l27 136h293v-1498h-338v511l-3 1q-45 -57 -105 -86.5t-139 -29.5q-204 0 -312 145t-108 393zM389 518q0 -135 37.5 -206.5t130.5 -71.5q57 0 96.5 17t64.5 53v449q-25 41 -64 62t-95 21q-91 0 -130.5 -82 t-39.5 -221v-21z" />
<glyph unicode="r" horiz-adv-x="757" d="M96 0v1082h318l12 -152l2 -1q33 83 88 128t131 45q25 0 49.5 -3.5t43.5 -8.5l-33 -306l-123 1q-60 0 -96 -19t-54 -56v-710h-338z" />
<glyph unicode="s" horiz-adv-x="1048" d="M34 347h315q2 -78 45.5 -111t127.5 -33q70 0 104 25.5t34 75.5q0 41 -44.5 72t-166.5 56q-192 38 -286.5 114t-94.5 214q0 146 118 244t327 98q221 0 347.5 -96t126.5 -256h-338q0 65 -32 97.5t-105 32.5q-54 0 -89.5 -28.5t-35.5 -74.5q0 -43 40.5 -73t168.5 -54 q202 -39 295.5 -115t93.5 -221q0 -149 -127 -241.5t-345 -92.5q-225 0 -352 110.5t-127 256.5z" />
<glyph unicode="t" horiz-adv-x="705" d="M21 848v234h143v269h337v-269h177v-234h-177v-495q0 -59 24 -84t66 -25q26 0 40.5 2t37.5 8l24 -245q-46 -14 -90 -21.5t-97 -7.5q-172 0 -257 87t-85 284v497h-143z" />
<glyph unicode="u" d="M88 422v660h337v-662q0 -93 33.5 -136.5t99.5 -43.5q55 0 95 14.5t70 44.5v783h338v-1082h-295l-21 128q-53 -73 -127 -110.5t-171 -37.5q-172 0 -265.5 105.5t-93.5 336.5z" />
<glyph unicode="v" horiz-adv-x="1053" d="M0 1082h356l145 -636l22 -124h3l23 124l143 636h355l-352 -1082h-343z" />
<glyph unicode="w" horiz-adv-x="1485" d="M21 1082h312l116 -666h3l182 666h213l180 -653h3l118 653h312l-254 -1082h-286l-178 605h-3l-178 -605h-285z" />
<glyph unicode="x" horiz-adv-x="1053" d="M5 0l325 547l-315 535h377l135 -326l140 326h379l-314 -535l325 -547h-379l-147 336l-147 -336h-379z" />
<glyph unicode="y" horiz-adv-x="1053" d="M-5 1082h359l161 -605l2 -15h3l181 620h360l-431 -1243q-41 -118 -122.5 -197t-257.5 -79q-45 0 -72 5.5t-88 20.5l41 241l21 -4.5t18 -1.5q82 0 119 22.5t53 71.5l27 70z" />
<glyph unicode="z" horiz-adv-x="1053" d="M65 0v188l481 634h-460v260h888v-182l-482 -640h492v-260h-919z" />
<glyph unicode="{" horiz-adv-x="665" d="M40 505v227q84 0 123 50.5t39 146.5v203q0 174 80.5 291.5t279.5 173.5l63 -176q-74 -30 -102.5 -102.5t-28.5 -186.5v-203q0 -106 -45 -185t-140 -125q95 -48 140 -127t45 -183v-203q0 -114 28.5 -186.5t102.5 -102.5l-63 -177q-199 56 -279.5 174t-80.5 292v203 q0 94 -39 145t-123 51z" />
<glyph unicode="|" horiz-adv-x="523" d="M172 -270v1726h184v-1726h-184z" />
<glyph unicode="}" horiz-adv-x="665" d="M41 -183q73 30 102 102.5t29 186.5v203q0 105 44.5 184t141.5 126q-97 46 -141.5 125t-44.5 185v203q0 114 -29 186.5t-102 102.5l63 176q198 -56 279 -173.5t81 -291.5v-203q0 -96 38.5 -146.5t123.5 -50.5v-227q-85 0 -123.5 -51t-38.5 -145v-203q0 -174 -81 -292 t-279 -174z" />
<glyph unicode="~" horiz-adv-x="1295" d="M94 435q0 178 86 289.5t227 111.5q82 0 156 -32t147 -97q44 -43 76.5 -61t72.5 -18q44 0 75 49t31 123l232 -31q0 -178 -87.5 -290t-227.5 -112q-85 0 -154 30t-145 100q-49 44 -80.5 61.5t-73.5 17.5q-44 0 -74 -49.5t-30 -121.5z" />
<glyph unicode="&#xa1;" horiz-adv-x="615" d="M141 -374v940h339v-940h-339zM141 799v283h339v-283h-339z" />
<glyph unicode="&#xa2;" horiz-adv-x="1210" d="M98 529v23q0 224 104 369t309 174v223h200v-226q164 -29 257.5 -138t93.5 -286h-317q0 78 -37.5 126t-112.5 48q-98 0 -129 -75t-31 -215v-23q0 -144 31.5 -216.5t130.5 -72.5q71 0 109.5 37.5t38.5 108.5h317q0 -159 -95.5 -263.5t-255.5 -132.5v-235h-200v232 q-205 28 -309 172.5t-104 369.5z" />
<glyph unicode="&#xa3;" horiz-adv-x="1227" d="M103 575v261h154l-7 185q0 217 122 336.5t336 119.5q227 0 348 -113.5t121 -311.5h-338q0 87 -37 126t-95 39t-88.5 -50t-30.5 -146l9 -185h325v-261h-312l3 -51q0 -74 -34 -141t-99 -123h692v-260h-1006v260h10q48 12 71 86t23 157l-3 72h-164z" />
<glyph unicode="&#xa4;" horiz-adv-x="1397" d="M69 118l135 137q-50 78 -75 165.5t-25 187.5q0 103 27.5 194t81.5 171l-144 147l141 144l142 -145q76 56 162.5 85.5t185.5 29.5q98 0 185 -30t164 -87l144 148l142 -145l-148 -151q52 -79 79.5 -169t27.5 -192q0 -99 -25 -185.5t-73 -163.5l139 -141l-142 -145l-132 134 q-78 -63 -168.5 -95t-192.5 -32q-103 0 -193.5 31.5t-167.5 94.5l-129 -132zM290 608q0 -188 117 -311.5t293 -123.5q173 0 291 123.5t118 311.5q0 187 -118 310.5t-291 123.5q-176 0 -293 -123.5t-117 -310.5z" />
<glyph unicode="&#xa5;" horiz-adv-x="1258" d="M18 1456h367l246 -586l247 586h366l-366 -714h213v-184h-295v-106h295v-183h-295v-269h-337v269h-323v183h323v106h-323v184h249z" />
<glyph unicode="&#xa6;" horiz-adv-x="524" d="M119 -270v795h292v-795h-292zM119 698v758h292v-758h-292z" />
<glyph unicode="&#xa7;" horiz-adv-x="1301" d="M94 -25h338q0 -89 59 -123t157 -34q95 0 144 31.5t49 88.5t-53.5 91.5t-208.5 79.5q-252 65 -368.5 156t-116.5 263q0 90 39.5 157t117.5 113q-72 53 -106.5 122t-34.5 170q0 179 143 283t391 104q254 0 393 -109.5t139 -316.5h-337q0 74 -50 120t-145 46 q-101 0 -148 -34.5t-47 -90.5q0 -65 48 -97t211 -75q254 -63 371 -155t117 -265q0 -92 -39 -157.5t-116 -110.5q70 -54 104 -123t34 -170q0 -184 -141.5 -283t-389.5 -99q-242 0 -398 96.5t-156 321.5zM431 568q0 -72 47 -107t212 -85q33 -9 61.5 -17.5t56.5 -16.5 q27 21 41.5 51t14.5 69q0 63 -55 102t-212 88q-32 8 -60.5 17t-56.5 19q-26 -21 -37.5 -51t-11.5 -69z" />
<glyph unicode="&#xa8;" horiz-adv-x="1123" d="M148 1252v204h290v-204h-290zM663 1252v204h290v-204h-290z" />
<glyph unicode="&#xa9;" horiz-adv-x="1608" d="M85 729q0 321 204 534t506 213q301 0 505.5 -213t204.5 -534q0 -322 -205 -536t-505 -214q-302 0 -506 213.5t-204 536.5zM207 729q0 -269 169 -447t419 -178q249 0 418 178t169 447q0 268 -169 445t-418 177q-251 0 -419.5 -177t-168.5 -445zM432 669v119 q0 176 93 281.5t256 105.5q160 0 248 -79t88 -235h-156q0 95 -44 137t-136 42q-96 0 -145 -68t-49 -183v-120q0 -118 49 -185t145 -67q92 0 135.5 40.5t43.5 138.5h156q0 -158 -87 -236t-248 -78q-164 0 -256.5 104.5t-92.5 282.5z" />
<glyph unicode="&#xaa;" horiz-adv-x="904" d="M108 920q0 113 83 172t248 59h137v51q0 63 -28.5 95t-87.5 32q-67 0 -102.5 -25.5t-35.5 -73.5l-173 14q0 104 84 168.5t227 64.5q136 0 213.5 -70t77.5 -206v-314q0 -52 5.5 -95t20.5 -86h-177q-8 21 -13 44.5t-8 49.5q-34 -48 -88.5 -78t-133.5 -30q-121 0 -185 60 t-64 168zM283 924q0 -44 28.5 -66t88.5 -22q52 0 105.5 29.5t70.5 65.5v103h-136q-76 0 -116.5 -31.5t-40.5 -78.5z" />
<glyph unicode="&#xab;" horiz-adv-x="1054" d="M54 506v19l272 390h206l-232 -400l232 -399h-206zM478 506v19l272 390h206l-232 -400l232 -399h-206z" />
<glyph unicode="&#xac;" horiz-adv-x="1124" d="M125 634v171h835v-431h-200v260h-635z" />
<glyph unicode="&#xad;" horiz-adv-x="921" d="M152 497v261h601v-261h-601z" />
<glyph unicode="&#xae;" horiz-adv-x="1608" d="M85 729q0 321 204 534t506 213q301 0 505.5 -213t204.5 -534q0 -322 -205 -536t-505 -214q-302 0 -506 213.5t-204 536.5zM207 729q0 -269 169 -447t419 -178q249 0 418 178t169 447q0 268 -169 445t-418 177q-251 0 -419.5 -177t-168.5 -445zM500 316v850h281 q154 0 239.5 -67.5t85.5 -196.5q0 -57 -27 -98.5t-80 -71.5q56 -32 80 -86t24 -131v-56q0 -42 3.5 -74t13.5 -53v-16h-155q-9 22 -11 61.5t-2 82.5v54q0 73 -32.5 106t-110.5 33h-158v-337h-151zM651 787h128q76 0 126.5 29.5t50.5 86.5q0 74 -38 102t-137 28h-130v-246z " />
<glyph unicode="&#xaf;" horiz-adv-x="1065" d="M161 1285v173h734v-173h-734z" />
<glyph unicode="&#xb0;" horiz-adv-x="813" d="M125 1197q0 117 81.5 199t199.5 82q115 0 195 -82t80 -199q0 -118 -80 -197.5t-195 -79.5q-119 0 -200 79.5t-81 197.5zM280 1197q0 -54 36.5 -89t89.5 -35q52 0 86.5 34.5t34.5 89.5t-34.5 91.5t-86.5 36.5q-53 0 -89.5 -36.5t-36.5 -91.5z" />
<glyph unicode="&#xb1;" horiz-adv-x="1103" d="M84 723v271h311v339h293v-339h312v-271h-312v-368h-293v368h-311zM112 1v264h834v-264h-834z" />
<glyph unicode="&#xb2;" horiz-adv-x="856" d="M102 1209q0 116 89.5 193t243.5 77q151 0 230 -64.5t79 -184.5q0 -85 -57 -150t-188 -167l-93 -79h346v-167h-637v167l313 247q58 47 73 78t15 72q0 35 -21.5 58.5t-67.5 23.5q-50 0 -73.5 -28t-23.5 -76h-228z" />
<glyph unicode="&#xb3;" horiz-adv-x="846" d="M84 906h229q0 -42 28 -63t88 -21q49 0 79 21t30 64q0 46 -34 72t-99 26h-101v134h101q61 0 89 23t28 67q0 36 -24 59.5t-74 23.5t-74.5 -20.5t-24.5 -48.5h-228q0 111 89 173t230 62q157 0 246.5 -58.5t89.5 -170.5q0 -56 -35 -100.5t-97 -70.5q72 -24 109 -71t37 -116 q0 -115 -87.5 -175.5t-246.5 -60.5q-158 0 -253 64.5t-95 186.5z" />
<glyph unicode="&#xb4;" horiz-adv-x="762" d="M96 1212l206 266h356l-286 -266h-276z" />
<glyph unicode="&#xb5;" horiz-adv-x="1313" d="M132 -416v1498h338v-620q0 -130 38.5 -174.5t124.5 -44.5q67 0 110.5 23t70.5 68v748h337v-1082h-317l-5 53q-44 -37 -95.5 -55.5t-114.5 -18.5q-44 0 -80.5 8.5t-68.5 25.5v-429h-338z" />
<glyph unicode="&#xb6;" horiz-adv-x="1113" d="M60 988q0 211 127.5 339.5t364.5 128.5h422v-1456h-339v520h-83q-238 0 -365 127.5t-127 340.5z" />
<glyph unicode="&#xb7;" horiz-adv-x="657" d="M158 539v284h338v-284h-338z" />
<glyph unicode="&#xb8;" horiz-adv-x="569" d="M86 -136l31 146h256l-10 -61q65 -11 107.5 -51.5t42.5 -121.5q0 -116 -95.5 -182t-278.5 -66l-7 186q41 0 64.5 18.5t23.5 58.5q0 38 -30 53.5t-104 19.5z" />
<glyph unicode="&#xb9;" horiz-adv-x="579" d="M112 1284v170l355 23v-812h-228v619h-127z" />
<glyph unicode="&#xba;" horiz-adv-x="938" d="M117 1025v117q0 151 92.5 243t253.5 92q162 0 254.5 -92t92.5 -243v-117q0 -152 -92.5 -243t-252.5 -91q-162 0 -255 91t-93 243zM292 1025q0 -87 43 -137.5t130 -50.5q84 0 127 50.5t43 137.5v117q0 84 -43.5 135.5t-128.5 51.5t-128 -51.5t-43 -135.5v-117z" />
<glyph unicode="&#xbb;" horiz-adv-x="1054" d="M54 151l232 399l-232 400h207l272 -390v-19l-272 -390h-207zM490 151l232 399l-232 400h207l272 -390v-19l-272 -390h-207z" />
<glyph unicode="&#xbc;" horiz-adv-x="1441" d="M90 1283v170l355 23v-812h-228v619h-127zM204 196l711 1138l157 -79l-711 -1138zM673 271l423 527v3h230v-499h89v-168h-89v-134h-230v134h-407zM904 302h192v239l-3 1l-17 -24z" />
<glyph unicode="&#xbd;" horiz-adv-x="1473" d="M68 1283v170l355 23v-812h-228v619h-127zM193 196l711 1138l157 -79l-711 -1138zM781 542q0 116 89.5 193t243.5 77q151 0 230 -64.5t79 -184.5q0 -85 -57 -150t-188 -167l-93 -79h346v-167h-637v167l313 247q58 47 73 78t15 72q0 35 -21.5 58.5t-67.5 23.5 q-50 0 -73.5 -28t-23.5 -76h-228z" />
<glyph unicode="&#xbe;" horiz-adv-x="1665" d="M62 907h229q0 -42 28 -63t88 -21q49 0 79 21t30 64q0 46 -34 72t-99 26h-101v134h101q61 0 89 23t28 67q0 36 -24 59.5t-74 23.5t-74.5 -20.5t-24.5 -48.5h-228q0 111 89 173t230 62q157 0 246.5 -58.5t89.5 -170.5q0 -56 -35 -100.5t-97 -70.5q72 -24 109 -71t37 -116 q0 -115 -87.5 -175.5t-246.5 -60.5q-158 0 -253 64.5t-95 186.5zM435 196l711 1138l157 -79l-711 -1138zM859 271l423 527v3h230v-499h89v-168h-89v-134h-230v134h-407zM1090 302h192v239l-3 1l-17 -24z" />
<glyph unicode="&#xbf;" horiz-adv-x="1047" d="M55 49q0 126 73 229.5t191 165.5q65 42 87 89t22 133h338q-2 -143 -50 -210.5t-179 -159.5q-69 -44 -106.5 -104.5t-37.5 -142.5q0 -85 44 -134.5t130 -49.5q67 0 111 40.5t47 122.5h338q-3 -217 -137.5 -320t-358.5 -103q-245 0 -378.5 118t-133.5 326zM429 812v270h336 v-270h-336z" />
<glyph unicode="&#xc0;" horiz-adv-x="1298" d="M-2 0l468 1456h364l470 -1456h-340l-81 283h-463l-79 -283h-339zM259 1825h355l208 -266h-275zM489 543h317l-158 557h-3z" />
<glyph unicode="&#xc1;" horiz-adv-x="1298" d="M-2 0l468 1456h364l470 -1456h-340l-81 283h-463l-79 -283h-339zM465 1561l206 266h356l-286 -266h-276zM489 543h317l-158 557h-3z" />
<glyph unicode="&#xc2;" horiz-adv-x="1298" d="M-2 0l468 1456h364l470 -1456h-340l-81 283h-463l-79 -283h-339zM246 1587v26l300 240h193l305 -244v-22h-243l-159 146l-159 -146h-237zM489 543h317l-158 557h-3z" />
<glyph unicode="&#xc3;" horiz-adv-x="1298" d="M-2 0l468 1456h364l470 -1456h-340l-81 283h-463l-79 -283h-339zM254 1652q0 96 58.5 164.5t150.5 68.5q58 0 158 -41.5t153 -41.5q32 0 55 31.5t23 78.5l178 -51q0 -98 -59 -165.5t-151 -67.5q-72 0 -165 42t-146 42q-33 0 -55 -32t-22 -78zM489 543h317l-158 557h-3z " />
<glyph unicode="&#xc4;" horiz-adv-x="1298" d="M-2 0l468 1456h364l470 -1456h-340l-81 283h-463l-79 -283h-339zM240 1601v204h290v-204h-290zM489 543h317l-158 557h-3zM755 1601v204h290v-204h-290z" />
<glyph unicode="&#xc5;" horiz-adv-x="1298" d="M-2 0l468 1456h364l470 -1456h-340l-81 283h-463l-79 -283h-339zM430 1741q0 83 61 138t154 55q91 0 151 -55t60 -138q0 -84 -60 -136.5t-151 -52.5q-94 0 -154.5 53t-60.5 136zM489 543h317l-158 557h-3zM551 1741q0 -43 26 -68.5t68 -25.5q41 0 65 25t24 69t-24 70 t-65 26q-42 0 -68 -26.5t-26 -69.5z" />
<glyph unicode="&#xc6;" horiz-adv-x="1926" d="M16 0l735 1456h1039v-264h-549l13 -316h455v-264h-444l15 -348h571v-264h-897l-14 329h-382l-152 -329h-390zM683 599h246l-21 480h-3z" />
<glyph unicode="&#xc7;" horiz-adv-x="1320" d="M85 576v304q0 270 157.5 433.5t422.5 163.5q282 0 427.5 -132.5t169.5 -387.5h-337q-7 134 -64.5 197t-195.5 63q-117 0 -180 -90.5t-63 -244.5v-306q0 -159 58.5 -248t184.5 -89q128 0 189.5 61t68.5 191h337q-15 -252 -166 -382t-429 -130q-273 0 -426.5 161.5 t-153.5 435.5zM501 -136l31 146h256l-10 -61q65 -11 107.5 -51.5t42.5 -121.5q0 -116 -95.5 -182t-278.5 -66l-7 186q41 0 64.5 18.5t23.5 58.5q0 38 -30 53.5t-104 19.5z" />
<glyph unicode="&#xc8;" horiz-adv-x="1165" d="M114 0v1456h1014v-260h-675v-313h571v-260h-571v-363h673v-260h-1012zM208 1825h355l208 -266h-275z" />
<glyph unicode="&#xc9;" horiz-adv-x="1165" d="M114 0v1456h1014v-260h-675v-313h571v-260h-571v-363h673v-260h-1012zM414 1561l206 266h356l-286 -266h-276z" />
<glyph unicode="&#xca;" horiz-adv-x="1165" d="M114 0v1456h1014v-260h-675v-313h571v-260h-571v-363h673v-260h-1012zM195 1587v26l300 240h193l305 -244v-22h-243l-159 146l-159 -146h-237z" />
<glyph unicode="&#xcb;" horiz-adv-x="1165" d="M114 0v1456h1014v-260h-675v-313h571v-260h-571v-363h673v-260h-1012zM189 1601v204h290v-204h-290zM704 1601v204h290v-204h-290z" />
<glyph unicode="&#xcc;" horiz-adv-x="611" d="M-77 1825h355l208 -266h-275zM137 0v1456h337v-1456h-337z" />
<glyph unicode="&#xcd;" horiz-adv-x="611" d="M128 1561l206 266h356l-286 -266h-276zM137 0v1456h337v-1456h-337z" />
<glyph unicode="&#xce;" horiz-adv-x="611" d="M-90 1587v26l300 240h193l305 -244v-22h-243l-159 146l-159 -146h-237zM137 0v1456h337v-1456h-337z" />
<glyph unicode="&#xcf;" horiz-adv-x="611" d="M-96 1601v204h290v-204h-290zM137 0v1456h337v-1456h-337zM419 1601v204h290v-204h-290z" />
<glyph unicode="&#xd0;" horiz-adv-x="1380" d="M25 647v191h119v618h481q309 0 489.5 -173.5t180.5 -463.5v-182q0 -291 -180 -464t-488 -173h-483v647h-119zM483 260h122q185 0 268.5 98.5t83.5 278.5v184q0 179 -83.5 277t-271.5 98h-119v-358h228v-191h-228v-387z" />
<glyph unicode="&#xd1;" horiz-adv-x="1444" d="M114 0v1456h339l536 -933l3 1v932h337v-1456h-337l-536 933l-3 -1v-932h-339zM334 1652q0 96 58.5 164.5t150.5 68.5q58 0 158 -41.5t153 -41.5q32 0 55 31.5t23 78.5l178 -51q0 -98 -59 -165.5t-151 -67.5q-72 0 -165 42t-146 42q-33 0 -55 -32t-22 -78z" />
<glyph unicode="&#xd2;" horiz-adv-x="1407" d="M85 597v262q0 274 168 446t450 172q280 0 449.5 -172.5t169.5 -445.5v-262q0 -274 -168.5 -446t-447.5 -172q-282 0 -451.5 172t-169.5 446zM320 1846h355l208 -266h-275zM422 597q0 -162 72 -260t212 -98q136 0 207.5 98.5t71.5 259.5v264q0 160 -72.5 258t-209.5 98 q-140 0 -210.5 -97.5t-70.5 -258.5v-264z" />
<glyph unicode="&#xd3;" horiz-adv-x="1407" d="M85 597v262q0 274 168 446t450 172q280 0 449.5 -172.5t169.5 -445.5v-262q0 -274 -168.5 -446t-447.5 -172q-282 0 -451.5 172t-169.5 446zM422 597q0 -162 72 -260t212 -98q136 0 207.5 98.5t71.5 259.5v264q0 160 -72.5 258t-209.5 98q-140 0 -210.5 -97.5 t-70.5 -258.5v-264zM526 1582l206 266h356l-286 -266h-276z" />
<glyph unicode="&#xd4;" horiz-adv-x="1407" d="M85 597v262q0 274 168 446t450 172q280 0 449.5 -172.5t169.5 -445.5v-262q0 -274 -168.5 -446t-447.5 -172q-282 0 -451.5 172t-169.5 446zM307 1608v26l300 240h193l305 -244v-22h-243l-159 146l-159 -146h-237zM422 597q0 -162 72 -260t212 -98q136 0 207.5 98.5 t71.5 259.5v264q0 160 -72.5 258t-209.5 98q-140 0 -210.5 -97.5t-70.5 -258.5v-264z" />
<glyph unicode="&#xd5;" horiz-adv-x="1407" d="M85 597v262q0 274 168 446t450 172q280 0 449.5 -172.5t169.5 -445.5v-262q0 -274 -168.5 -446t-447.5 -172q-282 0 -451.5 172t-169.5 446zM315 1673q0 96 58.5 164.5t150.5 68.5q58 0 158 -41.5t153 -41.5q32 0 55 31.5t23 78.5l178 -51q0 -98 -59 -165.5t-151 -67.5 q-72 0 -165 42t-146 42q-33 0 -55 -32t-22 -78zM422 597q0 -162 72 -260t212 -98q136 0 207.5 98.5t71.5 259.5v264q0 160 -72.5 258t-209.5 98q-140 0 -210.5 -97.5t-70.5 -258.5v-264z" />
<glyph unicode="&#xd6;" horiz-adv-x="1407" d="M85 597v262q0 274 168 446t450 172q280 0 449.5 -172.5t169.5 -445.5v-262q0 -274 -168.5 -446t-447.5 -172q-282 0 -451.5 172t-169.5 446zM301 1622v204h290v-204h-290zM422 597q0 -162 72 -260t212 -98q136 0 207.5 98.5t71.5 259.5v264q0 160 -72.5 258t-209.5 98 q-140 0 -210.5 -97.5t-70.5 -258.5v-264zM816 1622v204h290v-204h-290z" />
<glyph unicode="&#xd7;" horiz-adv-x="1083" d="M53 381l299 305l-299 306l193 183l293 -299l293 299l193 -183l-300 -306l300 -305l-193 -183l-293 298l-293 -298z" />
<glyph unicode="&#xd8;" horiz-adv-x="1412" d="M87 597v262q0 274 168 446t450 172q100 0 186 -24t161 -71l78 136h140l-122 -212q86 -85 131 -198t45 -249v-262q0 -274 -168.5 -446t-447.5 -172q-83 0 -155 15.5t-136 47.5l-79 -137h-140l116 200q-111 85 -169 210t-58 282zM424 597q0 -64 11.5 -118.5t36.5 -99.5 l433 749q-37 43 -86.5 66t-113.5 23q-140 0 -210.5 -97.5t-70.5 -258.5v-264zM556 283q32 -22 69 -33t83 -11q136 0 207.5 98.5t71.5 259.5v264q0 37 -4.5 70.5t-12.5 66.5z" />
<glyph unicode="&#xd9;" horiz-adv-x="1417" d="M107 502v954h339v-954q0 -137 68 -200t196 -63q127 0 193.5 62.5t66.5 200.5v954h339v-954q0 -254 -162.5 -388.5t-436.5 -134.5q-276 0 -439.5 134.5t-163.5 388.5zM325 1825h355l208 -266h-275z" />
<glyph unicode="&#xda;" horiz-adv-x="1417" d="M107 502v954h339v-954q0 -137 68 -200t196 -63q127 0 193.5 62.5t66.5 200.5v954h339v-954q0 -254 -162.5 -388.5t-436.5 -134.5q-276 0 -439.5 134.5t-163.5 388.5zM531 1561l206 266h356l-286 -266h-276z" />
<glyph unicode="&#xdb;" horiz-adv-x="1417" d="M107 502v954h339v-954q0 -137 68 -200t196 -63q127 0 193.5 62.5t66.5 200.5v954h339v-954q0 -254 -162.5 -388.5t-436.5 -134.5q-276 0 -439.5 134.5t-163.5 388.5zM312 1587v26l300 240h193l305 -244v-22h-243l-159 146l-159 -146h-237z" />
<glyph unicode="&#xdc;" horiz-adv-x="1417" d="M107 502v954h339v-954q0 -137 68 -200t196 -63q127 0 193.5 62.5t66.5 200.5v954h339v-954q0 -254 -162.5 -388.5t-436.5 -134.5q-276 0 -439.5 134.5t-163.5 388.5zM306 1601v204h290v-204h-290zM821 1601v204h290v-204h-290z" />
<glyph unicode="&#xdd;" horiz-adv-x="1310" d="M-3 1456h365l292 -643l293 643h367l-495 -944v-512h-337v529zM487 1561l206 266h356l-286 -266h-276z" />
<glyph unicode="&#xde;" horiz-adv-x="1266" d="M116 0v1456h339v-258h198q271 0 416 -124.5t145 -335.5t-145 -335.5t-416 -124.5h-198v-278h-339zM455 538h198q114 0 168 55t54 143t-54 145t-168 57h-198v-400z" />
<glyph unicode="&#xdf;" horiz-adv-x="1330" d="M134 0v1112q0 231 131.5 350t379.5 119q194 0 319.5 -98.5t125.5 -281.5q0 -104 -47.5 -193t-47.5 -166q0 -44 138 -183t138 -282q0 -204 -117.5 -301t-359.5 -97q-82 0 -155 12t-113 36l59 256q36 -19 89 -31.5t122 -12.5q62 0 100.5 32.5t38.5 92.5q0 66 -138.5 193.5 t-138.5 269.5q0 98 47 191t47 169q0 54 -42.5 94.5t-97.5 40.5q-63 0 -101.5 -58t-38.5 -158v-1106h-338z" />
<glyph unicode="&#xe0;" horiz-adv-x="1086" d="M45 305q0 164 118 250t369 86h123v77q0 71 -32 107t-101 36q-60 0 -87.5 -26.5t-27.5 -85.5h-337q0 156 128.5 254.5t346.5 98.5q204 0 326.5 -98t122.5 -288v-408q0 -88 14 -161t44 -147h-334q-15 26 -26 57t-19 68q-49 -68 -115.5 -106.5t-165.5 -38.5 q-157 0 -252 87.5t-95 237.5zM155 1503h355l208 -266h-275zM382 323q0 -47 31 -75t82 -28t92.5 20t67.5 52v169h-120q-82 0 -117.5 -38.5t-35.5 -99.5z" />
<glyph unicode="&#xe1;" horiz-adv-x="1086" d="M45 305q0 164 118 250t369 86h123v77q0 71 -32 107t-101 36q-60 0 -87.5 -26.5t-27.5 -85.5h-337q0 156 128.5 254.5t346.5 98.5q204 0 326.5 -98t122.5 -288v-408q0 -88 14 -161t44 -147h-334q-15 26 -26 57t-19 68q-49 -68 -115.5 -106.5t-165.5 -38.5 q-157 0 -252 87.5t-95 237.5zM361 1239l206 266h356l-286 -266h-276zM382 323q0 -47 31 -75t82 -28t92.5 20t67.5 52v169h-120q-82 0 -117.5 -38.5t-35.5 -99.5z" />
<glyph unicode="&#xe2;" horiz-adv-x="1086" d="M45 305q0 164 118 250t369 86h123v77q0 71 -32 107t-101 36q-60 0 -87.5 -26.5t-27.5 -85.5h-337q0 156 128.5 254.5t346.5 98.5q204 0 326.5 -98t122.5 -288v-408q0 -88 14 -161t44 -147h-334q-15 26 -26 57t-19 68q-49 -68 -115.5 -106.5t-165.5 -38.5 q-157 0 -252 87.5t-95 237.5zM142 1265v26l300 240h193l305 -244v-22h-243l-159 146l-159 -146h-237zM382 323q0 -47 31 -75t82 -28t92.5 20t67.5 52v169h-120q-82 0 -117.5 -38.5t-35.5 -99.5z" />
<glyph unicode="&#xe3;" horiz-adv-x="1086" d="M45 305q0 164 118 250t369 86h123v77q0 71 -32 107t-101 36q-60 0 -87.5 -26.5t-27.5 -85.5h-337q0 156 128.5 254.5t346.5 98.5q204 0 326.5 -98t122.5 -288v-408q0 -88 14 -161t44 -147h-334q-15 26 -26 57t-19 68q-49 -68 -115.5 -106.5t-165.5 -38.5 q-157 0 -252 87.5t-95 237.5zM150 1330q0 96 58.5 164.5t150.5 68.5q58 0 158 -41.5t153 -41.5q32 0 55 31.5t23 78.5l178 -51q0 -98 -59 -165.5t-151 -67.5q-72 0 -165 42t-146 42q-33 0 -55 -32t-22 -78zM382 323q0 -47 31 -75t82 -28t92.5 20t67.5 52v169h-120 q-82 0 -117.5 -38.5t-35.5 -99.5z" />
<glyph unicode="&#xe4;" horiz-adv-x="1086" d="M45 305q0 164 118 250t369 86h123v77q0 71 -32 107t-101 36q-60 0 -87.5 -26.5t-27.5 -85.5h-337q0 156 128.5 254.5t346.5 98.5q204 0 326.5 -98t122.5 -288v-408q0 -88 14 -161t44 -147h-334q-15 26 -26 57t-19 68q-49 -68 -115.5 -106.5t-165.5 -38.5 q-157 0 -252 87.5t-95 237.5zM137 1279v204h290v-204h-290zM382 323q0 -47 31 -75t82 -28t92.5 20t67.5 52v169h-120q-82 0 -117.5 -38.5t-35.5 -99.5zM652 1279v204h290v-204h-290z" />
<glyph unicode="&#xe5;" horiz-adv-x="1086" d="M45 305q0 164 118 250t369 86h123v77q0 71 -32 107t-101 36q-60 0 -87.5 -26.5t-27.5 -85.5h-337q0 156 128.5 254.5t346.5 98.5q204 0 326.5 -98t122.5 -288v-408q0 -88 14 -161t44 -147h-334q-15 26 -26 57t-19 68q-49 -68 -115.5 -106.5t-165.5 -38.5 q-157 0 -252 87.5t-95 237.5zM326 1419q0 83 61 138t154 55q91 0 151 -55t60 -138q0 -84 -60 -136.5t-151 -52.5q-94 0 -154.5 53t-60.5 136zM382 323q0 -47 31 -75t82 -28t92.5 20t67.5 52v169h-120q-82 0 -117.5 -38.5t-35.5 -99.5zM447 1419q0 -43 26 -68.5t68 -25.5 q41 0 65 25t24 69t-24 70t-65 26q-42 0 -68 -26.5t-26 -69.5z" />
<glyph unicode="&#xe6;" horiz-adv-x="1730" d="M41 324q0 162 130 246.5t389 84.5h158v46q0 67 -34.5 104t-99.5 37q-72 0 -110.5 -28.5t-38.5 -73.5l-337 19q0 153 132 248t358 95q99 0 179.5 -22.5t142.5 -66.5q62 44 140 66.5t177 22.5q215 0 336.5 -130t121.5 -360v-177h-628q10 -95 63 -145.5t164 -50.5 q90 0 149 15.5t136 51.5l81 -206q-68 -52 -178.5 -86.5t-233.5 -34.5q-128 0 -224.5 36.5t-165.5 108.5q-61 -65 -156 -105t-228 -40q-207 0 -315 91t-108 254zM378 320q0 -53 36.5 -81t113.5 -28q50 0 103 23.5t87 58.5v141q-1 4 -1 7.5v9.5h-155q-89 0 -136.5 -38 t-47.5 -93zM1057 646h299v26q0 82 -33 126t-96 44q-87 0 -124.5 -49.5t-45.5 -146.5z" />
<glyph unicode="&#xe7;" horiz-adv-x="1046" d="M45 529v23q0 249 128 399.5t377 150.5q210 0 334.5 -114t124.5 -320h-317q0 78 -37.5 126t-112.5 48q-98 0 -129 -75t-31 -215v-23q0 -144 31.5 -216.5t130.5 -72.5q71 0 109.5 37.5t38.5 108.5h317q0 -185 -128 -295.5t-329 -110.5q-250 0 -378.5 149.5t-128.5 399.5z M403 -136l31 146h256l-10 -61q65 -11 107.5 -51.5t42.5 -121.5q0 -116 -95.5 -182t-278.5 -66l-7 186q41 0 64.5 18.5t23.5 58.5q0 38 -30 53.5t-104 19.5z" />
<glyph unicode="&#xe8;" horiz-adv-x="1083" d="M66 505v38q0 252 127.5 406t372.5 153q224 0 347 -129.5t123 -360.5v-177h-627q17 -89 73.5 -142t153.5 -53q98 0 154.5 14.5t144.5 51.5l57 -226q-67 -44 -172 -72t-230 -28q-243 0 -383.5 147t-140.5 378zM157 1504h355l208 -266h-275zM408 646h298v26q0 84 -33.5 127 t-106.5 43q-75 0 -111 -51.5t-47 -144.5z" />
<glyph unicode="&#xe9;" horiz-adv-x="1083" d="M66 505v38q0 252 127.5 406t372.5 153q224 0 347 -129.5t123 -360.5v-177h-627q17 -89 73.5 -142t153.5 -53q98 0 154.5 14.5t144.5 51.5l57 -226q-67 -44 -172 -72t-230 -28q-243 0 -383.5 147t-140.5 378zM363 1240l206 266h356l-286 -266h-276zM408 646h298v26 q0 84 -33.5 127t-106.5 43q-75 0 -111 -51.5t-47 -144.5z" />
<glyph unicode="&#xea;" horiz-adv-x="1083" d="M66 505v38q0 252 127.5 406t372.5 153q224 0 347 -129.5t123 -360.5v-177h-627q17 -89 73.5 -142t153.5 -53q98 0 154.5 14.5t144.5 51.5l57 -226q-67 -44 -172 -72t-230 -28q-243 0 -383.5 147t-140.5 378zM144 1266v26l300 240h193l305 -244v-22h-243l-159 146 l-159 -146h-237zM408 646h298v26q0 84 -33.5 127t-106.5 43q-75 0 -111 -51.5t-47 -144.5z" />
<glyph unicode="&#xeb;" horiz-adv-x="1083" d="M66 505v38q0 252 127.5 406t372.5 153q224 0 347 -129.5t123 -360.5v-177h-627q17 -89 73.5 -142t153.5 -53q98 0 154.5 14.5t144.5 51.5l57 -226q-67 -44 -172 -72t-230 -28q-243 0 -383.5 147t-140.5 378zM139 1280v204h290v-204h-290zM408 646h298v26q0 84 -33.5 127 t-106.5 43q-75 0 -111 -51.5t-47 -144.5zM654 1280v204h290v-204h-290z" />
<glyph unicode="&#xec;" horiz-adv-x="584" d="M-89 1482h355l208 -266h-275zM123 0v1082h339v-1082h-339z" />
<glyph unicode="&#xed;" horiz-adv-x="584" d="M116 1218l206 266h356l-286 -266h-276zM123 0v1082h339v-1082h-339z" />
<glyph unicode="&#xee;" horiz-adv-x="584" d="M-102 1245v26l300 240h193l305 -244v-22h-243l-159 146l-159 -146h-237zM123 0v1082h339v-1082h-339z" />
<glyph unicode="&#xef;" horiz-adv-x="584" d="M-108 1258v204h290v-204h-290zM123 0v1082h339v-1082h-339zM407 1258v204h290v-204h-290z" />
<glyph unicode="&#xf0;" horiz-adv-x="1226" d="M37 468q0 230 129.5 361.5t374.5 131.5q74 0 137.5 -18.5t117.5 -53.5l3 2q-23 71 -60 128.5t-88 106.5l-213 -116l-78 118l163 88q-35 18 -69 32t-70 25l107 244q92 -20 172.5 -55t154.5 -85l196 107l77 -118l-157 -86q114 -116 174 -267t60 -337v-63 q0 -285 -161 -459.5t-411 -174.5q-253 0 -406 138t-153 351zM374 468q0 -103 60.5 -166t165.5 -63q110 0 170 103t60 271v35q-34 32 -89.5 52t-130.5 20q-120 0 -178 -65t-58 -187z" />
<glyph unicode="&#xf1;" d="M90 0v1082h317l13 -147l3 -1q52 80 128.5 124t173.5 44q162 0 250 -101t88 -330v-671h-338v672q0 95 -37.5 132.5t-114.5 37.5q-48 0 -84 -16.5t-62 -47.5v-778h-337zM188 1330q0 96 58.5 164.5t150.5 68.5q58 0 158 -41.5t153 -41.5q32 0 55 31.5t23 78.5l178 -51 q0 -98 -59 -165.5t-151 -67.5q-72 0 -165 42t-146 42q-33 0 -55 -32t-22 -78z" />
<glyph unicode="&#xf2;" d="M51 530v21q0 249 135.5 400t387.5 151q253 0 388.5 -151t135.5 -400v-21q0 -250 -135.5 -400t-386.5 -150q-254 0 -389.5 150t-135.5 400zM192 1503h355l208 -266h-275zM389 530q0 -138 41.5 -214t145.5 -76q101 0 143 76t42 214v21q0 134 -42 212.5t-145 78.5 q-102 0 -143.5 -78.5t-41.5 -212.5v-21z" />
<glyph unicode="&#xf3;" d="M51 530v21q0 249 135.5 400t387.5 151q253 0 388.5 -151t135.5 -400v-21q0 -250 -135.5 -400t-386.5 -150q-254 0 -389.5 150t-135.5 400zM389 530q0 -138 41.5 -214t145.5 -76q101 0 143 76t42 214v21q0 134 -42 212.5t-145 78.5q-102 0 -143.5 -78.5t-41.5 -212.5v-21z M398 1239l206 266h356l-286 -266h-276z" />
<glyph unicode="&#xf4;" d="M51 530v21q0 249 135.5 400t387.5 151q253 0 388.5 -151t135.5 -400v-21q0 -250 -135.5 -400t-386.5 -150q-254 0 -389.5 150t-135.5 400zM179 1265v26l300 240h193l305 -244v-22h-243l-159 146l-159 -146h-237zM389 530q0 -138 41.5 -214t145.5 -76q101 0 143 76t42 214 v21q0 134 -42 212.5t-145 78.5q-102 0 -143.5 -78.5t-41.5 -212.5v-21z" />
<glyph unicode="&#xf5;" d="M51 530v21q0 249 135.5 400t387.5 151q253 0 388.5 -151t135.5 -400v-21q0 -250 -135.5 -400t-386.5 -150q-254 0 -389.5 150t-135.5 400zM187 1330q0 96 58.5 164.5t150.5 68.5q58 0 158 -41.5t153 -41.5q32 0 55 31.5t23 78.5l178 -51q0 -98 -59 -165.5t-151 -67.5 q-72 0 -165 42t-146 42q-33 0 -55 -32t-22 -78zM389 530q0 -138 41.5 -214t145.5 -76q101 0 143 76t42 214v21q0 134 -42 212.5t-145 78.5q-102 0 -143.5 -78.5t-41.5 -212.5v-21z" />
<glyph unicode="&#xf6;" d="M51 530v21q0 249 135.5 400t387.5 151q253 0 388.5 -151t135.5 -400v-21q0 -250 -135.5 -400t-386.5 -150q-254 0 -389.5 150t-135.5 400zM173 1279v204h290v-204h-290zM389 530q0 -138 41.5 -214t145.5 -76q101 0 143 76t42 214v21q0 134 -42 212.5t-145 78.5 q-102 0 -143.5 -78.5t-41.5 -212.5v-21zM688 1279v204h290v-204h-290z" />
<glyph unicode="&#xf7;" horiz-adv-x="1166" d="M59 563v244h1044v-244h-1044zM413 158v246h339v-246h-339zM413 961v245h339v-245h-339z" />
<glyph unicode="&#xf8;" horiz-adv-x="1152" d="M51 530v21q0 249 135.5 400t387.5 151q48 0 91.5 -6.5t85.5 -18.5l69 142h177l-103 -212q101 -74 152.5 -190t51.5 -266v-21q0 -250 -135.5 -400t-386.5 -150q-47 0 -89 6t-82 16l-71 -147h-177l104 215q-105 72 -157.5 189t-52.5 271zM389 530q0 -48 4 -87t15 -71 l224 461q-13 4 -27.5 6.5t-30.5 2.5q-102 0 -143.5 -78.5t-41.5 -212.5v-21zM524 246q11 -4 24 -5t28 -1q101 0 143 76t42 214v21q0 42 -4.5 78.5t-12.5 69.5z" />
<glyph unicode="&#xf9;" d="M88 422v660h337v-662q0 -93 33.5 -136.5t99.5 -43.5q55 0 95 14.5t70 44.5v783h338v-1082h-295l-21 128q-53 -73 -127 -110.5t-171 -37.5q-172 0 -265.5 105.5t-93.5 336.5zM191 1482h355l208 -266h-275z" />
<glyph unicode="&#xfa;" d="M88 422v660h337v-662q0 -93 33.5 -136.5t99.5 -43.5q55 0 95 14.5t70 44.5v783h338v-1082h-295l-21 128q-53 -73 -127 -110.5t-171 -37.5q-172 0 -265.5 105.5t-93.5 336.5zM397 1218l206 266h356l-286 -266h-276z" />
<glyph unicode="&#xfb;" d="M88 422v660h337v-662q0 -93 33.5 -136.5t99.5 -43.5q55 0 95 14.5t70 44.5v783h338v-1082h-295l-21 128q-53 -73 -127 -110.5t-171 -37.5q-172 0 -265.5 105.5t-93.5 336.5zM178 1245v26l300 240h193l305 -244v-22h-243l-159 146l-159 -146h-237z" />
<glyph unicode="&#xfc;" d="M88 422v660h337v-662q0 -93 33.5 -136.5t99.5 -43.5q55 0 95 14.5t70 44.5v783h338v-1082h-295l-21 128q-53 -73 -127 -110.5t-171 -37.5q-172 0 -265.5 105.5t-93.5 336.5zM172 1258v204h290v-204h-290zM687 1258v204h290v-204h-290z" />
<glyph unicode="&#xfd;" horiz-adv-x="1053" d="M-5 1082h359l161 -605l2 -15h3l181 620h360l-431 -1243q-41 -118 -122.5 -197t-257.5 -79q-45 0 -72 5.5t-88 20.5l41 241l21 -4.5t18 -1.5q82 0 119 22.5t53 71.5l27 70zM350 1218l206 266h356l-286 -266h-276z" />
<glyph unicode="&#xfe;" horiz-adv-x="1149" d="M95 -416v1976h339v-578l3 -1q43 59 101 90t137 31q205 0 313.5 -152.5t108.5 -410.5v-21q0 -248 -108 -393t-312 -145q-80 0 -138.5 28.5t-101.5 83.5l-3 -1v-91h-1v-416h-338zM434 307q24 -35 63 -51t97 -16q91 0 128.5 71.5t37.5 206.5v21q0 140 -39 221.5t-129 81.5 q-57 0 -95.5 -20.5t-62.5 -59.5v-455z" />
<glyph unicode="&#xff;" horiz-adv-x="1053" d="M-5 1082h359l161 -605l2 -15h3l181 620h360l-431 -1243q-41 -118 -122.5 -197t-257.5 -79q-45 0 -72 5.5t-88 20.5l41 241l21 -4.5t18 -1.5q82 0 119 22.5t53 71.5l27 70zM126 1258v204h290v-204h-290zM641 1258v204h290v-204h-290z" />
<glyph unicode="&#x152;" horiz-adv-x="1995" d="M93 576v304q0 270 171 433.5t456 163.5q70 0 140 -6t150 -15h923v-260h-675v-313h571v-260h-571v-363h673v-260h-921q-93 -10 -156.5 -15.5t-131.5 -5.5q-286 0 -457.5 163t-171.5 434zM430 576q0 -169 76 -253t216 -84q50 0 98.5 3t98.5 10v951q-53 6 -101.5 10t-97.5 4 q-140 0 -215 -83.5t-75 -251.5v-306z" />
<glyph unicode="&#x153;" horiz-adv-x="1845" d="M75 530v21q0 249 135 400t387 151q112 0 200 -31.5t157 -92.5q64 61 147.5 92.5t192.5 31.5q224 0 347 -129.5t123 -360.5v-177h-626q17 -90 73 -143t154 -53q97 0 152.5 14.5t145.5 52.5l80 -206q-71 -53 -182 -87t-242 -34q-111 0 -200.5 32.5t-158.5 95.5 q-68 -64 -157.5 -96t-203.5 -32q-253 0 -388.5 150.5t-135.5 400.5zM412 530q0 -138 41.5 -214.5t145.5 -76.5q101 0 143 76.5t42 214.5v21q0 134 -42 212.5t-145 78.5q-101 0 -143 -78.5t-42 -212.5v-21zM1137 646h298v26q0 84 -34 127t-107 43q-74 0 -110 -51.5 t-47 -144.5z" />
<glyph unicode="&#x178;" horiz-adv-x="1310" d="M-3 1456h365l292 -643l293 643h367l-495 -944v-512h-337v529zM262 1601v204h290v-204h-290zM777 1601v204h290v-204h-290z" />
<glyph unicode="&#x2c6;" horiz-adv-x="1033" d="M120 1252v26l300 240h193l305 -244v-22h-243l-159 146l-159 -146h-237z" />
<glyph unicode="&#x2dc;" horiz-adv-x="987" d="M111 1271q0 96 58.5 164.5t150.5 68.5q58 0 158 -41.5t153 -41.5q32 0 55 31.5t23 78.5l178 -51q0 -98 -59 -165.5t-151 -67.5q-72 0 -165 42t-146 42q-33 0 -55 -32t-22 -78z" />
<glyph unicode="&#x2000;" horiz-adv-x="967" />
<glyph unicode="&#x2001;" horiz-adv-x="1934" />
<glyph unicode="&#x2002;" horiz-adv-x="967" />
<glyph unicode="&#x2003;" horiz-adv-x="1934" />
<glyph unicode="&#x2004;" horiz-adv-x="644" />
<glyph unicode="&#x2005;" horiz-adv-x="483" />
<glyph unicode="&#x2006;" horiz-adv-x="322" />
<glyph unicode="&#x2007;" horiz-adv-x="322" />
<glyph unicode="&#x2008;" horiz-adv-x="241" />
<glyph unicode="&#x2009;" horiz-adv-x="386" />
<glyph unicode="&#x200a;" horiz-adv-x="107" />
<glyph unicode="&#x2010;" horiz-adv-x="921" d="M152 497v261h601v-261h-601z" />
<glyph unicode="&#x2011;" horiz-adv-x="921" d="M152 497v261h601v-261h-601z" />
<glyph unicode="&#x2012;" horiz-adv-x="921" d="M152 497v261h601v-261h-601z" />
<glyph unicode="&#x2013;" horiz-adv-x="1412" d="M156 578v264h1085v-264h-1085z" />
<glyph unicode="&#x2014;" horiz-adv-x="1675" d="M125 578v264h1334v-264h-1334z" />
<glyph unicode="&#x2018;" horiz-adv-x="511" d="M97 1006v202q0 102 53.5 211t129.5 181l159 -80q-37 -70 -55.5 -142.5t-18.5 -170.5v-201h-268z" />
<glyph unicode="&#x2019;" horiz-adv-x="497" d="M66 1054q36 69 55 141.5t19 171.5v193h268v-194q0 -103 -54 -211.5t-129 -180.5z" />
<glyph unicode="&#x201a;" horiz-adv-x="556" d="M83 -250q36 70 55 142.5t19 170.5v246h269l-1 -247q0 -102 -54 -210.5t-129 -181.5z" />
<glyph unicode="&#x201c;" horiz-adv-x="875" d="M105 1006v202q0 102 53.5 211t129.5 181l159 -80q-37 -70 -55.5 -142.5t-18.5 -170.5v-201h-268zM445 1006v202q0 102 53.5 211t129.5 181l159 -80q-37 -70 -55.5 -142.5t-18.5 -170.5v-201h-268z" />
<glyph unicode="&#x201d;" horiz-adv-x="881" d="M80 1054q36 69 55 141.5t19 171.5v193h268v-194q0 -103 -54 -211.5t-129 -180.5zM430 1054q36 69 55 141.5t19 171.5v193h268v-194q0 -103 -54 -211.5t-129 -180.5z" />
<glyph unicode="&#x201e;" horiz-adv-x="876" d="M83 -250q36 70 55 142.5t19 170.5v246h269l-1 -247q0 -102 -54 -210.5t-129 -181.5zM433 -250q36 70 55 142.5t19 170.5v246h270l-1 -247q0 -102 -54 -210.5t-129 -181.5z" />
<glyph unicode="&#x2022;" horiz-adv-x="757" d="M134 706v107q0 108 67.5 174.5t184.5 66.5q120 0 187.5 -66t67.5 -175v-107q0 -109 -67 -173.5t-186 -64.5q-118 0 -186 64.5t-68 173.5z" />
<glyph unicode="&#x2026;" horiz-adv-x="1587" d="M147 0v284h337v-284h-337zM636 0v284h337v-284h-337zM1124 0v284h337v-284h-337z" />
<glyph unicode="&#x202f;" horiz-adv-x="386" />
<glyph unicode="&#x2039;" horiz-adv-x="650" d="M108 541v19l272 390h206l-232 -400l232 -399h-206z" />
<glyph unicode="&#x203a;" horiz-adv-x="620" d="M76 151l232 399l-232 400h207l272 -390v-19l-272 -390h-207z" />
<glyph unicode="&#x205f;" horiz-adv-x="483" />
<glyph unicode="&#x20ac;" horiz-adv-x="1130" d="M67 472v166h146v144h-146v166h146v13q0 240 152 378t408 138q61 0 117.5 -8t125.5 -23l-21 -264q-54 16 -109 25.5t-113 9.5q-107 0 -164 -65.5t-57 -188.5v-15h396v-166h-396v-144h396v-166h-396v-14q0 -113 56.5 -166t166.5 -53q58 0 112.5 8t107.5 25l21 -262 q-59 -15 -118.5 -23t-122.5 -8q-257 0 -409.5 127.5t-152.5 351.5v14h-146z" />
<glyph unicode="&#x2122;" horiz-adv-x="1298" d="M92 1340v116h406v-116h-121v-423h-168v423h-117zM564 913v543h180l101 -353h3l101 353h175v-543h-147v252h-3l-86 -252h-83l-91 268h-3v-268h-147z" />
<glyph unicode="&#x25fc;" horiz-adv-x="1080" d="M0 0v1080h1080v-1080h-1080z" />
<glyph unicode="&#xfb02;" horiz-adv-x="1304" d="M12 848v234h156v112q0 190 110 288.5t319 98.5q39 0 78 -5.5t89 -15.5l-25 -249q-28 5 -49 7.5t-52 2.5q-64 0 -97.5 -32.5t-33.5 -94.5v-112h210v-234h-210v-848h-339v848h-156zM854 0v1560h339v-1560h-339z" />
<glyph unicode="&#xfb03;" horiz-adv-x="2045" d="M12 848v234h156v112q0 190 110 288.5t319 98.5q39 0 78 -5.5t89 -15.5l-25 -249q-28 5 -49 7.5t-52 2.5q-64 0 -97.5 -32.5t-33.5 -94.5v-112h210v-234h-210v-848h-339v848h-156zM759 848v234h157v52q0 220 130.5 333.5t380.5 113.5q86 0 167 -14.5t185 -43.5l-46 -266 q-88 23 -144 33.5t-142 10.5q-94 0 -143.5 -42.5t-49.5 -124.5v-52h212v-234h-212v-848h-338v848h-157zM1595 0v1082h339v-1082h-339z" />
<glyph unicode="&#xfb04;" horiz-adv-x="2047" d="M12 848v234h156v112q0 190 110 288.5t319 98.5q39 0 78 -5.5t89 -15.5l-25 -249q-28 5 -49 7.5t-52 2.5q-64 0 -97.5 -32.5t-33.5 -94.5v-112h210v-234h-210v-848h-339v848h-156zM755 848v234h156v112q0 190 110 288.5t319 98.5q39 0 78 -5.5t89 -15.5l-25 -249 q-28 5 -49 7.5t-52 2.5q-64 0 -97.5 -32.5t-33.5 -94.5v-112h210v-234h-210v-848h-339v848h-156zM1597 0v1560h339v-1560h-339z" />
<hkern u1="&#x22;" u2="w" k="-11" />
<hkern u1="&#x27;" u2="w" k="-11" />
<hkern u1="&#x28;" u2="&#x178;" k="-22" />
<hkern u1="&#x28;" u2="&#xdd;" k="-22" />
<hkern u1="&#x28;" u2="Y" k="-22" />
<hkern u1="&#x28;" u2="W" k="-38" />
<hkern u1="&#x28;" u2="V" k="-20" />
<hkern u1="&#x2f;" u2="&#x2f;" k="248" />
<hkern u1="A" u2="w" k="33" />
<hkern u1="A" u2="t" k="17" />
<hkern u1="A" u2="&#x3f;" k="81" />
<hkern u1="C" u2="&#x7d;" k="17" />
<hkern u1="C" u2="]" k="12" />
<hkern u1="C" u2="&#x29;" k="26" />
<hkern u1="D" u2="&#xc6;" k="33" />
<hkern u1="E" u2="w" k="22" />
<hkern u1="E" u2="f" k="18" />
<hkern u1="F" u2="&#x2026;" k="274" />
<hkern u1="F" u2="&#x201e;" k="274" />
<hkern u1="F" u2="&#x201a;" k="274" />
<hkern u1="F" u2="&#x153;" k="21" />
<hkern u1="F" u2="&#xff;" k="24" />
<hkern u1="F" u2="&#xfd;" k="24" />
<hkern u1="F" u2="&#xfc;" k="22" />
<hkern u1="F" u2="&#xfb;" k="22" />
<hkern u1="F" u2="&#xfa;" k="22" />
<hkern u1="F" u2="&#xf9;" k="22" />
<hkern u1="F" u2="&#xf6;" k="21" />
<hkern u1="F" u2="&#xf5;" k="21" />
<hkern u1="F" u2="&#xf4;" k="21" />
<hkern u1="F" u2="&#xf3;" k="21" />
<hkern u1="F" u2="&#xf2;" k="21" />
<hkern u1="F" u2="&#xeb;" k="21" />
<hkern u1="F" u2="&#xea;" k="21" />
<hkern u1="F" u2="&#xe9;" k="21" />
<hkern u1="F" u2="&#xe8;" k="21" />
<hkern u1="F" u2="&#xe7;" k="21" />
<hkern u1="F" u2="&#xe5;" k="34" />
<hkern u1="F" u2="&#xe4;" k="34" />
<hkern u1="F" u2="&#xe3;" k="34" />
<hkern u1="F" u2="&#xe2;" k="34" />
<hkern u1="F" u2="&#xe1;" k="34" />
<hkern u1="F" u2="&#xe0;" k="34" />
<hkern u1="F" u2="&#xc5;" k="192" />
<hkern u1="F" u2="&#xc4;" k="192" />
<hkern u1="F" u2="&#xc3;" k="192" />
<hkern u1="F" u2="&#xc2;" k="192" />
<hkern u1="F" u2="&#xc1;" k="192" />
<hkern u1="F" u2="&#xc0;" k="192" />
<hkern u1="F" u2="y" k="24" />
<hkern u1="F" u2="v" k="24" />
<hkern u1="F" u2="u" k="22" />
<hkern u1="F" u2="r" k="26" />
<hkern u1="F" u2="q" k="21" />
<hkern u1="F" u2="o" k="21" />
<hkern u1="F" u2="g" k="21" />
<hkern u1="F" u2="e" k="21" />
<hkern u1="F" u2="d" k="21" />
<hkern u1="F" u2="c" k="21" />
<hkern u1="F" u2="a" k="34" />
<hkern u1="F" u2="T" k="-20" />
<hkern u1="F" u2="J" k="208" />
<hkern u1="F" u2="A" k="192" />
<hkern u1="F" u2="&#x2e;" k="274" />
<hkern u1="F" u2="&#x2c;" k="274" />
<hkern u1="K" u2="w" k="63" />
<hkern u1="L" u2="w" k="52" />
<hkern u1="O" u2="&#xc6;" k="33" />
<hkern u1="P" u2="&#xc6;" k="297" />
<hkern u1="P" u2="t" k="-14" />
<hkern u1="Q" u2="&#x178;" k="35" />
<hkern u1="Q" u2="&#xdd;" k="35" />
<hkern u1="Q" u2="Y" k="35" />
<hkern u1="Q" u2="W" k="20" />
<hkern u1="Q" u2="V" k="28" />
<hkern u1="Q" u2="T" k="33" />
<hkern u1="R" u2="&#x178;" k="48" />
<hkern u1="R" u2="&#xdd;" k="48" />
<hkern u1="R" u2="Y" k="48" />
<hkern u1="R" u2="V" k="19" />
<hkern u1="R" u2="T" k="50" />
<hkern u1="T" u2="&#xf8;" k="95" />
<hkern u1="T" u2="&#xe6;" k="84" />
<hkern u1="T" u2="&#xc6;" k="189" />
<hkern u1="T" u2="&#xbb;" k="146" />
<hkern u1="T" u2="&#xab;" k="148" />
<hkern u1="T" u2="w" k="47" />
<hkern u1="T" u2="r" k="65" />
<hkern u1="V" u2="&#x7d;" k="-19" />
<hkern u1="V" u2="r" k="30" />
<hkern u1="V" u2="]" k="-17" />
<hkern u1="V" u2="&#x29;" k="-20" />
<hkern u1="W" u2="&#x7d;" k="-14" />
<hkern u1="W" u2="r" k="21" />
<hkern u1="W" u2="]" k="-12" />
<hkern u1="W" u2="&#x29;" k="-15" />
<hkern u1="Y" u2="&#x2022;" k="45" />
<hkern u1="Y" u2="&#xf8;" k="64" />
<hkern u1="Y" u2="&#xe6;" k="63" />
<hkern u1="Y" u2="&#xc6;" k="96" />
<hkern u1="Y" u2="&#xbb;" k="51" />
<hkern u1="Y" u2="&#xab;" k="82" />
<hkern u1="Y" u2="&#x7d;" k="-19" />
<hkern u1="Y" u2="t" k="22" />
<hkern u1="Y" u2="r" k="40" />
<hkern u1="Y" u2="f" k="22" />
<hkern u1="Y" u2="]" k="-18" />
<hkern u1="Y" u2="&#x2a;" k="49" />
<hkern u1="Y" u2="&#x29;" k="-20" />
<hkern u1="Y" u2="&#x26;" k="30" />
<hkern u1="Z" u2="w" k="27" />
<hkern u1="[" u2="&#xdc;" k="18" />
<hkern u1="[" u2="&#xdb;" k="18" />
<hkern u1="[" u2="&#xda;" k="18" />
<hkern u1="[" u2="&#xd9;" k="18" />
<hkern u1="[" u2="U" k="18" />
<hkern u1="[" u2="J" k="18" />
<hkern u1="f" u2="&#x201d;" k="-16" />
<hkern u1="f" u2="&#x201c;" k="-16" />
<hkern u1="f" u2="&#x2019;" k="-16" />
<hkern u1="f" u2="&#x2018;" k="-16" />
<hkern u1="f" u2="&#x153;" k="24" />
<hkern u1="f" u2="&#xeb;" k="24" />
<hkern u1="f" u2="&#xea;" k="24" />
<hkern u1="f" u2="&#xe9;" k="24" />
<hkern u1="f" u2="&#xe8;" k="24" />
<hkern u1="f" u2="&#xe7;" k="24" />
<hkern u1="f" u2="&#x7d;" k="-19" />
<hkern u1="f" u2="q" k="24" />
<hkern u1="f" u2="g" k="24" />
<hkern u1="f" u2="e" k="24" />
<hkern u1="f" u2="d" k="24" />
<hkern u1="f" u2="c" k="24" />
<hkern u1="f" u2="]" k="-18" />
<hkern u1="f" u2="&#x29;" k="-20" />
<hkern u1="f" u2="&#x27;" k="-16" />
<hkern u1="f" u2="&#x22;" k="-16" />
<hkern u1="k" u2="&#x153;" k="20" />
<hkern u1="k" u2="&#xeb;" k="20" />
<hkern u1="k" u2="&#xea;" k="20" />
<hkern u1="k" u2="&#xe9;" k="20" />
<hkern u1="k" u2="&#xe8;" k="20" />
<hkern u1="k" u2="&#xe7;" k="20" />
<hkern u1="k" u2="q" k="20" />
<hkern u1="k" u2="g" k="20" />
<hkern u1="k" u2="e" k="20" />
<hkern u1="k" u2="d" k="20" />
<hkern u1="k" u2="c" k="20" />
<hkern u1="r" u2="w" k="-17" />
<hkern u1="r" u2="t" k="-24" />
<hkern u1="r" u2="f" k="-20" />
<hkern u1="t" u2="&#xf6;" k="30" />
<hkern u1="t" u2="&#xf5;" k="30" />
<hkern u1="t" u2="&#xf4;" k="30" />
<hkern u1="t" u2="&#xf3;" k="30" />
<hkern u1="t" u2="&#xf2;" k="30" />
<hkern u1="t" u2="o" k="30" />
<hkern u1="v" u2="f" k="-13" />
<hkern u1="w" u2="&#x2026;" k="124" />
<hkern u1="w" u2="&#x201e;" k="124" />
<hkern u1="w" u2="&#x201a;" k="124" />
<hkern u1="w" u2="&#x2e;" k="124" />
<hkern u1="w" u2="&#x2c;" k="124" />
<hkern u1="y" u2="f" k="-13" />
<hkern u1="&#x7b;" u2="&#xdc;" k="20" />
<hkern u1="&#x7b;" u2="&#xdb;" k="20" />
<hkern u1="&#x7b;" u2="&#xda;" k="20" />
<hkern u1="&#x7b;" u2="&#xd9;" k="20" />
<hkern u1="&#x7b;" u2="U" k="20" />
<hkern u1="&#x7b;" u2="J" k="20" />
<hkern u1="&#xc0;" u2="w" k="33" />
<hkern u1="&#xc0;" u2="t" k="17" />
<hkern u1="&#xc0;" u2="&#x3f;" k="81" />
<hkern u1="&#xc1;" u2="w" k="33" />
<hkern u1="&#xc1;" u2="t" k="17" />
<hkern u1="&#xc1;" u2="&#x3f;" k="81" />
<hkern u1="&#xc2;" u2="w" k="33" />
<hkern u1="&#xc2;" u2="t" k="17" />
<hkern u1="&#xc2;" u2="&#x3f;" k="81" />
<hkern u1="&#xc3;" u2="w" k="33" />
<hkern u1="&#xc3;" u2="t" k="17" />
<hkern u1="&#xc3;" u2="&#x3f;" k="81" />
<hkern u1="&#xc4;" u2="w" k="33" />
<hkern u1="&#xc4;" u2="t" k="17" />
<hkern u1="&#xc4;" u2="&#x3f;" k="81" />
<hkern u1="&#xc5;" u2="w" k="33" />
<hkern u1="&#xc5;" u2="t" k="17" />
<hkern u1="&#xc5;" u2="&#x3f;" k="81" />
<hkern u1="&#xc7;" u2="&#x7d;" k="17" />
<hkern u1="&#xc7;" u2="]" k="12" />
<hkern u1="&#xc7;" u2="&#x29;" k="26" />
<hkern u1="&#xc8;" u2="w" k="22" />
<hkern u1="&#xc8;" u2="f" k="18" />
<hkern u1="&#xc9;" u2="w" k="22" />
<hkern u1="&#xc9;" u2="f" k="18" />
<hkern u1="&#xca;" u2="w" k="22" />
<hkern u1="&#xca;" u2="f" k="18" />
<hkern u1="&#xcb;" u2="w" k="22" />
<hkern u1="&#xcb;" u2="f" k="18" />
<hkern u1="&#xd0;" u2="&#xc6;" k="33" />
<hkern u1="&#xd2;" u2="&#xc6;" k="33" />
<hkern u1="&#xd3;" u2="&#xc6;" k="33" />
<hkern u1="&#xd4;" u2="&#xc6;" k="33" />
<hkern u1="&#xd5;" u2="&#xc6;" k="33" />
<hkern u1="&#xd6;" u2="&#xc6;" k="33" />
<hkern u1="&#xdd;" u2="&#x2022;" k="45" />
<hkern u1="&#xdd;" u2="&#xf8;" k="64" />
<hkern u1="&#xdd;" u2="&#xe6;" k="63" />
<hkern u1="&#xdd;" u2="&#xc6;" k="96" />
<hkern u1="&#xdd;" u2="&#xbb;" k="51" />
<hkern u1="&#xdd;" u2="&#xab;" k="82" />
<hkern u1="&#xdd;" u2="&#x7d;" k="-19" />
<hkern u1="&#xdd;" u2="t" k="22" />
<hkern u1="&#xdd;" u2="r" k="40" />
<hkern u1="&#xdd;" u2="f" k="22" />
<hkern u1="&#xdd;" u2="]" k="-18" />
<hkern u1="&#xdd;" u2="&#x2a;" k="49" />
<hkern u1="&#xdd;" u2="&#x29;" k="-20" />
<hkern u1="&#xdd;" u2="&#x26;" k="30" />
<hkern u1="&#xfd;" u2="f" k="-13" />
<hkern u1="&#xff;" u2="f" k="-13" />
<hkern u1="&#x178;" u2="&#x2022;" k="45" />
<hkern u1="&#x178;" u2="&#xf8;" k="64" />
<hkern u1="&#x178;" u2="&#xe6;" k="63" />
<hkern u1="&#x178;" u2="&#xc6;" k="96" />
<hkern u1="&#x178;" u2="&#xbb;" k="51" />
<hkern u1="&#x178;" u2="&#xab;" k="82" />
<hkern u1="&#x178;" u2="&#x7d;" k="-19" />
<hkern u1="&#x178;" u2="t" k="22" />
<hkern u1="&#x178;" u2="r" k="40" />
<hkern u1="&#x178;" u2="f" k="22" />
<hkern u1="&#x178;" u2="]" k="-18" />
<hkern u1="&#x178;" u2="&#x2a;" k="49" />
<hkern u1="&#x178;" u2="&#x29;" k="-20" />
<hkern u1="&#x178;" u2="&#x26;" k="30" />
<hkern u1="&#x2018;" u2="w" k="-11" />
<hkern u1="&#x2019;" u2="w" k="-11" />
<hkern u1="&#x201c;" u2="w" k="-11" />
<hkern u1="&#x201d;" u2="w" k="-11" />
<hkern g1="A,Agrave,Aacute,Acircumflex,Atilde,Adieresis,Aring" 	g2="z" 	k="-12" />
<hkern g1="A,Agrave,Aacute,Acircumflex,Atilde,Adieresis,Aring" 	g2="o,ograve,oacute,ocircumflex,otilde,odieresis" 	k="12" />
<hkern g1="A,Agrave,Aacute,Acircumflex,Atilde,Adieresis,Aring" 	g2="v,y,yacute,ydieresis" 	k="50" />
<hkern g1="A,Agrave,Aacute,Acircumflex,Atilde,Adieresis,Aring" 	g2="C,G,O,Q,Ccedilla,Ograve,Oacute,Ocircumflex,Otilde,Odieresis,Oslash,OE" 	k="11" />
<hkern g1="A,Agrave,Aacute,Acircumflex,Atilde,Adieresis,Aring" 	g2="V" 	k="77" />
<hkern g1="A,Agrave,Aacute,Acircumflex,Atilde,Adieresis,Aring" 	g2="U,Ugrave,Uacute,Ucircumflex,Udieresis" 	k="17" />
<hkern g1="A,Agrave,Aacute,Acircumflex,Atilde,Adieresis,Aring" 	g2="m,n,p,ntilde" 	k="48" />
<hkern g1="A,Agrave,Aacute,Acircumflex,Atilde,Adieresis,Aring" 	g2="Y,Yacute,Ydieresis" 	k="150" />
<hkern g1="A,Agrave,Aacute,Acircumflex,Atilde,Adieresis,Aring" 	g2="quotedbl,quotesingle,quoteleft,quoteright,quotedblleft,quotedblright" 	k="120" />
<hkern g1="A,Agrave,Aacute,Acircumflex,Atilde,Adieresis,Aring" 	g2="T" 	k="89" />
<hkern g1="A,Agrave,Aacute,Acircumflex,Atilde,Adieresis,Aring" 	g2="u,ugrave,uacute,ucircumflex,udieresis" 	k="11" />
<hkern g1="A,Agrave,Aacute,Acircumflex,Atilde,Adieresis,Aring" 	g2="W" 	k="39" />
<hkern g1="B" 	g2="V" 	k="24" />
<hkern g1="B" 	g2="Y,Yacute,Ydieresis" 	k="55" />
<hkern g1="B" 	g2="T" 	k="27" />
<hkern g1="H,I,M,N,Igrave,Iacute,Icircumflex,Idieresis,Ntilde" 	g2="Y,Yacute,Ydieresis" 	k="28" />
<hkern g1="H,I,M,N,Igrave,Iacute,Icircumflex,Idieresis,Ntilde" 	g2="T" 	k="29" />
<hkern g1="H,I,M,N,Igrave,Iacute,Icircumflex,Idieresis,Ntilde" 	g2="A,Agrave,Aacute,Acircumflex,Atilde,Adieresis,Aring" 	k="-18" />
<hkern g1="H,I,M,N,Igrave,Iacute,Icircumflex,Idieresis,Ntilde" 	g2="X" 	k="-17" />
<hkern g1="D,O,Eth,Ograve,Oacute,Ocircumflex,Otilde,Odieresis" 	g2="V" 	k="22" />
<hkern g1="D,O,Eth,Ograve,Oacute,Ocircumflex,Otilde,Odieresis" 	g2="Y,Yacute,Ydieresis" 	k="43" />
<hkern g1="D,O,Eth,Ograve,Oacute,Ocircumflex,Otilde,Odieresis" 	g2="T" 	k="27" />
<hkern g1="D,O,Eth,Ograve,Oacute,Ocircumflex,Otilde,Odieresis" 	g2="A,Agrave,Aacute,Acircumflex,Atilde,Adieresis,Aring" 	k="21" />
<hkern g1="D,O,Eth,Ograve,Oacute,Ocircumflex,Otilde,Odieresis" 	g2="X" 	k="22" />
<hkern g1="D,O,Eth,Ograve,Oacute,Ocircumflex,Otilde,Odieresis" 	g2="Z" 	k="23" />
<hkern g1="D,O,Eth,Ograve,Oacute,Ocircumflex,Otilde,Odieresis" 	g2="comma,period,quotesinglbase,quotedblbase,ellipsis" 	k="122" />
<hkern g1="C,Ccedilla" 	g2="T" 	k="29" />
<hkern g1="E,Egrave,Eacute,Ecircumflex,Edieresis" 	g2="o,ograve,oacute,ocircumflex,otilde,odieresis" 	k="19" />
<hkern g1="E,Egrave,Eacute,Ecircumflex,Edieresis" 	g2="v,y,yacute,ydieresis" 	k="26" />
<hkern g1="E,Egrave,Eacute,Ecircumflex,Edieresis" 	g2="T" 	k="-20" />
<hkern g1="E,Egrave,Eacute,Ecircumflex,Edieresis" 	g2="u,ugrave,uacute,ucircumflex,udieresis" 	k="17" />
<hkern g1="E,Egrave,Eacute,Ecircumflex,Edieresis" 	g2="c,d,e,g,q,ccedilla,egrave,eacute,ecircumflex,edieresis,oe" 	k="19" />
<hkern g1="T" 	g2="z" 	k="60" />
<hkern g1="T" 	g2="o,ograve,oacute,ocircumflex,otilde,odieresis" 	k="79" />
<hkern g1="T" 	g2="v,y,yacute,ydieresis" 	k="82" />
<hkern g1="T" 	g2="C,G,O,Q,Ccedilla,Ograve,Oacute,Ocircumflex,Otilde,Odieresis,Oslash,OE" 	k="28" />
<hkern g1="T" 	g2="V" 	k="-16" />
<hkern g1="T" 	g2="m,n,p,ntilde" 	k="89" />
<hkern g1="T" 	g2="Y,Yacute,Ydieresis" 	k="-16" />
<hkern g1="T" 	g2="T" 	k="-16" />
<hkern g1="T" 	g2="u,ugrave,uacute,ucircumflex,udieresis" 	k="65" />
<hkern g1="T" 	g2="W" 	k="-15" />
<hkern g1="T" 	g2="A,Agrave,Aacute,Acircumflex,Atilde,Adieresis,Aring" 	k="109" />
<hkern g1="T" 	g2="comma,period,quotesinglbase,quotedblbase,ellipsis" 	k="258" />
<hkern g1="T" 	g2="c,d,e,g,q,ccedilla,egrave,eacute,ecircumflex,edieresis,oe" 	k="89" />
<hkern g1="T" 	g2="x" 	k="77" />
<hkern g1="T" 	g2="s" 	k="76" />
<hkern g1="T" 	g2="hyphen,uni00AD,endash,emdash" 	k="272" />
<hkern g1="T" 	g2="S" 	k="16" />
<hkern g1="T" 	g2="a,agrave,aacute,acircumflex,atilde,adieresis,aring" 	k="83" />
<hkern g1="T" 	g2="J" 	k="216" />
<hkern g1="K" 	g2="o,ograve,oacute,ocircumflex,otilde,odieresis" 	k="27" />
<hkern g1="K" 	g2="v,y,yacute,ydieresis" 	k="40" />
<hkern g1="K" 	g2="C,G,O,Q,Ccedilla,Ograve,Oacute,Ocircumflex,Otilde,Odieresis,Oslash,OE" 	k="31" />
<hkern g1="K" 	g2="u,ugrave,uacute,ucircumflex,udieresis" 	k="23" />
<hkern g1="K" 	g2="c,d,e,g,q,ccedilla,egrave,eacute,ecircumflex,edieresis,oe" 	k="26" />
<hkern g1="K" 	g2="hyphen,uni00AD,endash,emdash" 	k="164" />
<hkern g1="L" 	g2="v,y,yacute,ydieresis" 	k="123" />
<hkern g1="L" 	g2="C,G,O,Q,Ccedilla,Ograve,Oacute,Ocircumflex,Otilde,Odieresis,Oslash,OE" 	k="25" />
<hkern g1="L" 	g2="V" 	k="206" />
<hkern g1="L" 	g2="U,Ugrave,Uacute,Ucircumflex,Udieresis" 	k="24" />
<hkern g1="L" 	g2="Y,Yacute,Ydieresis" 	k="279" />
<hkern g1="L" 	g2="quotedbl,quotesingle,quoteleft,quoteright,quotedblleft,quotedblright" 	k="258" />
<hkern g1="L" 	g2="T" 	k="205" />
<hkern g1="L" 	g2="u,ugrave,uacute,ucircumflex,udieresis" 	k="14" />
<hkern g1="L" 	g2="W" 	k="93" />
<hkern g1="L" 	g2="A,Agrave,Aacute,Acircumflex,Atilde,Adieresis,Aring" 	k="-19" />
<hkern g1="P" 	g2="o,ograve,oacute,ocircumflex,otilde,odieresis" 	k="13" />
<hkern g1="P" 	g2="v,y,yacute,ydieresis" 	k="-15" />
<hkern g1="P" 	g2="A,Agrave,Aacute,Acircumflex,Atilde,Adieresis,Aring" 	k="178" />
<hkern g1="P" 	g2="X" 	k="51" />
<hkern g1="P" 	g2="Z" 	k="36" />
<hkern g1="P" 	g2="comma,period,quotesinglbase,quotedblbase,ellipsis" 	k="404" />
<hkern g1="P" 	g2="c,d,e,g,q,ccedilla,egrave,eacute,ecircumflex,edieresis,oe" 	k="13" />
<hkern g1="P" 	g2="a,agrave,aacute,acircumflex,atilde,adieresis,aring" 	k="11" />
<hkern g1="P" 	g2="J" 	k="184" />
<hkern g1="J,U,Ugrave,Uacute,Ucircumflex,Udieresis" 	g2="A,Agrave,Aacute,Acircumflex,Atilde,Adieresis,Aring" 	k="22" />
<hkern g1="V" 	g2="o,ograve,oacute,ocircumflex,otilde,odieresis" 	k="46" />
<hkern g1="V" 	g2="v,y,yacute,ydieresis" 	k="11" />
<hkern g1="V" 	g2="C,G,O,Q,Ccedilla,Ograve,Oacute,Ocircumflex,Otilde,Odieresis,Oslash,OE" 	k="13" />
<hkern g1="V" 	g2="u,ugrave,uacute,ucircumflex,udieresis" 	k="28" />
<hkern g1="V" 	g2="A,Agrave,Aacute,Acircumflex,Atilde,Adieresis,Aring" 	k="75" />
<hkern g1="V" 	g2="comma,period,quotesinglbase,quotedblbase,ellipsis" 	k="215" />
<hkern g1="V" 	g2="c,d,e,g,q,ccedilla,egrave,eacute,ecircumflex,edieresis,oe" 	k="44" />
<hkern g1="V" 	g2="hyphen,uni00AD,endash,emdash" 	k="157" />
<hkern g1="V" 	g2="a,agrave,aacute,acircumflex,atilde,adieresis,aring" 	k="46" />
<hkern g1="X" 	g2="o,ograve,oacute,ocircumflex,otilde,odieresis" 	k="21" />
<hkern g1="X" 	g2="v,y,yacute,ydieresis" 	k="31" />
<hkern g1="X" 	g2="C,G,O,Q,Ccedilla,Ograve,Oacute,Ocircumflex,Otilde,Odieresis,Oslash,OE" 	k="25" />
<hkern g1="X" 	g2="V" 	k="-14" />
<hkern g1="X" 	g2="u,ugrave,uacute,ucircumflex,udieresis" 	k="21" />
<hkern g1="X" 	g2="c,d,e,g,q,ccedilla,egrave,eacute,ecircumflex,edieresis,oe" 	k="26" />
<hkern g1="X" 	g2="hyphen,uni00AD,endash,emdash" 	k="156" />
<hkern g1="Y,Yacute,Ydieresis" 	g2="z" 	k="30" />
<hkern g1="Y,Yacute,Ydieresis" 	g2="o,ograve,oacute,ocircumflex,otilde,odieresis" 	k="65" />
<hkern g1="Y,Yacute,Ydieresis" 	g2="v,y,yacute,ydieresis" 	k="20" />
<hkern g1="Y,Yacute,Ydieresis" 	g2="C,G,O,Q,Ccedilla,Ograve,Oacute,Ocircumflex,Otilde,Odieresis,Oslash,OE" 	k="29" />
<hkern g1="Y,Yacute,Ydieresis" 	g2="V" 	k="-18" />
<hkern g1="Y,Yacute,Ydieresis" 	g2="U,Ugrave,Uacute,Ucircumflex,Udieresis" 	k="96" />
<hkern g1="Y,Yacute,Ydieresis" 	g2="m,n,p,ntilde" 	k="40" />
<hkern g1="Y,Yacute,Ydieresis" 	g2="Y,Yacute,Ydieresis" 	k="-18" />
<hkern g1="Y,Yacute,Ydieresis" 	g2="T" 	k="-17" />
<hkern g1="Y,Yacute,Ydieresis" 	g2="u,ugrave,uacute,ucircumflex,udieresis" 	k="39" />
<hkern g1="Y,Yacute,Ydieresis" 	g2="W" 	k="-17" />
<hkern g1="Y,Yacute,Ydieresis" 	g2="A,Agrave,Aacute,Acircumflex,Atilde,Adieresis,Aring" 	k="150" />
<hkern g1="Y,Yacute,Ydieresis" 	g2="X" 	k="-13" />
<hkern g1="Y,Yacute,Ydieresis" 	g2="comma,period,quotesinglbase,quotedblbase,ellipsis" 	k="231" />
<hkern g1="Y,Yacute,Ydieresis" 	g2="c,d,e,g,q,ccedilla,egrave,eacute,ecircumflex,edieresis,oe" 	k="65" />
<hkern g1="Y,Yacute,Ydieresis" 	g2="x" 	k="23" />
<hkern g1="Y,Yacute,Ydieresis" 	g2="s" 	k="58" />
<hkern g1="Y,Yacute,Ydieresis" 	g2="hyphen,uni00AD,endash,emdash" 	k="152" />
<hkern g1="Y,Yacute,Ydieresis" 	g2="S" 	k="16" />
<hkern g1="Y,Yacute,Ydieresis" 	g2="a,agrave,aacute,acircumflex,atilde,adieresis,aring" 	k="63" />
<hkern g1="Y,Yacute,Ydieresis" 	g2="J" 	k="96" />
<hkern g1="W" 	g2="o,ograve,oacute,ocircumflex,otilde,odieresis" 	k="31" />
<hkern g1="W" 	g2="T" 	k="-14" />
<hkern g1="W" 	g2="u,ugrave,uacute,ucircumflex,udieresis" 	k="19" />
<hkern g1="W" 	g2="A,Agrave,Aacute,Acircumflex,Atilde,Adieresis,Aring" 	k="43" />
<hkern g1="W" 	g2="comma,period,quotesinglbase,quotedblbase,ellipsis" 	k="143" />
<hkern g1="W" 	g2="c,d,e,g,q,ccedilla,egrave,eacute,ecircumflex,edieresis,oe" 	k="31" />
<hkern g1="W" 	g2="hyphen,uni00AD,endash,emdash" 	k="60" />
<hkern g1="W" 	g2="a,agrave,aacute,acircumflex,atilde,adieresis,aring" 	k="33" />
<hkern g1="Z" 	g2="o,ograve,oacute,ocircumflex,otilde,odieresis" 	k="21" />
<hkern g1="Z" 	g2="v,y,yacute,ydieresis" 	k="27" />
<hkern g1="Z" 	g2="C,G,O,Q,Ccedilla,Ograve,Oacute,Ocircumflex,Otilde,Odieresis,Oslash,OE" 	k="26" />
<hkern g1="Z" 	g2="u,ugrave,uacute,ucircumflex,udieresis" 	k="19" />
<hkern g1="Z" 	g2="A,Agrave,Aacute,Acircumflex,Atilde,Adieresis,Aring" 	k="-13" />
<hkern g1="Z" 	g2="c,d,e,g,q,ccedilla,egrave,eacute,ecircumflex,edieresis,oe" 	k="21" />
<hkern g1="a,agrave,aacute,acircumflex,atilde,adieresis,aring" 	g2="v,y,yacute,ydieresis" 	k="15" />
<hkern g1="a,agrave,aacute,acircumflex,atilde,adieresis,aring" 	g2="quotedbl,quotesingle,quoteleft,quoteright,quotedblleft,quotedblright" 	k="17" />
<hkern g1="c,ccedilla" 	g2="quotedbl,quotesingle,quoteleft,quoteright,quotedblleft,quotedblright" 	k="11" />
<hkern g1="b,p,thorn" 	g2="z" 	k="15" />
<hkern g1="b,p,thorn" 	g2="v,y,yacute,ydieresis" 	k="11" />
<hkern g1="b,p,thorn" 	g2="quotedbl,quotesingle,quoteleft,quoteright,quotedblleft,quotedblright" 	k="29" />
<hkern g1="b,p,thorn" 	g2="x" 	k="15" />
<hkern g1="e,egrave,eacute,ecircumflex,edieresis" 	g2="v,y,yacute,ydieresis" 	k="13" />
<hkern g1="e,egrave,eacute,ecircumflex,edieresis" 	g2="quotedbl,quotesingle,quoteleft,quoteright,quotedblleft,quotedblright" 	k="14" />
<hkern g1="h,m,n,ntilde" 	g2="quotedbl,quotesingle,quoteleft,quoteright,quotedblleft,quotedblright" 	k="16" />
<hkern g1="o,ograve,oacute,ocircumflex,otilde,odieresis" 	g2="z" 	k="16" />
<hkern g1="o,ograve,oacute,ocircumflex,otilde,odieresis" 	g2="v,y,yacute,ydieresis" 	k="15" />
<hkern g1="o,ograve,oacute,ocircumflex,otilde,odieresis" 	g2="quotedbl,quotesingle,quoteleft,quoteright,quotedblleft,quotedblright" 	k="20" />
<hkern g1="o,ograve,oacute,ocircumflex,otilde,odieresis" 	g2="x" 	k="21" />
<hkern g1="v,y,yacute,ydieresis" 	g2="o,ograve,oacute,ocircumflex,otilde,odieresis" 	k="15" />
<hkern g1="v,y,yacute,ydieresis" 	g2="quotedbl,quotesingle,quoteleft,quoteright,quotedblleft,quotedblright" 	k="-15" />
<hkern g1="v,y,yacute,ydieresis" 	g2="comma,period,quotesinglbase,quotedblbase,ellipsis" 	k="167" />
<hkern g1="v,y,yacute,ydieresis" 	g2="c,d,e,g,q,ccedilla,egrave,eacute,ecircumflex,edieresis,oe" 	k="13" />
<hkern g1="v,y,yacute,ydieresis" 	g2="a,agrave,aacute,acircumflex,atilde,adieresis,aring" 	k="15" />
<hkern g1="r" 	g2="o,ograve,oacute,ocircumflex,otilde,odieresis" 	k="20" />
<hkern g1="r" 	g2="v,y,yacute,ydieresis" 	k="-18" />
<hkern g1="r" 	g2="quotedbl,quotesingle,quoteleft,quoteright,quotedblleft,quotedblright" 	k="-16" />
<hkern g1="r" 	g2="comma,period,quotesinglbase,quotedblbase,ellipsis" 	k="173" />
<hkern g1="r" 	g2="c,d,e,g,q,ccedilla,egrave,eacute,ecircumflex,edieresis,oe" 	k="19" />
<hkern g1="r" 	g2="a,agrave,aacute,acircumflex,atilde,adieresis,aring" 	k="20" />
<hkern g1="x" 	g2="o,ograve,oacute,ocircumflex,otilde,odieresis" 	k="40" />
<hkern g1="x" 	g2="c,d,e,g,q,ccedilla,egrave,eacute,ecircumflex,edieresis,oe" 	k="20" />
<hkern g1="z" 	g2="o,ograve,oacute,ocircumflex,otilde,odieresis" 	k="16" />
<hkern g1="z" 	g2="c,d,e,g,q,ccedilla,egrave,eacute,ecircumflex,edieresis,oe" 	k="16" />
<hkern g1="quotedbl,quotesingle,quoteleft,quoteright,quotedblleft,quotedblright" 	g2="o,ograve,oacute,ocircumflex,otilde,odieresis" 	k="91" />
<hkern g1="quotedbl,quotesingle,quoteleft,quoteright,quotedblleft,quotedblright" 	g2="m,n,p,ntilde" 	k="20" />
<hkern g1="quotedbl,quotesingle,quoteleft,quoteright,quotedblleft,quotedblright" 	g2="quotedbl,quotesingle,quoteleft,quoteright,quotedblleft,quotedblright" 	k="37" />
<hkern g1="quotedbl,quotesingle,quoteleft,quoteright,quotedblleft,quotedblright" 	g2="A,Agrave,Aacute,Acircumflex,Atilde,Adieresis,Aring" 	k="120" />
<hkern g1="quotedbl,quotesingle,quoteleft,quoteright,quotedblleft,quotedblright" 	g2="c,d,e,g,q,ccedilla,egrave,eacute,ecircumflex,edieresis,oe" 	k="59" />
<hkern g1="quotedbl,quotesingle,quoteleft,quoteright,quotedblleft,quotedblright" 	g2="s" 	k="92" />
<hkern g1="quotedbl,quotesingle,quoteleft,quoteright,quotedblleft,quotedblright" 	g2="a,agrave,aacute,acircumflex,atilde,adieresis,aring" 	k="50" />
<hkern g1="comma,period,quotesinglbase,quotedblbase,ellipsis" 	g2="quotedbl,quotesingle,quoteleft,quoteright,quotedblleft,quotedblright" 	k="285" />
</font>
</defs></svg> 